[Tue 2019-09-24 04:20:55 AM] [client 192.168.49.1] ajax request post accpect2019-09-24 04:20:55
[Tue 2019-09-24 04:21:23 AM] [client 192.168.49.1] encrypt file create2019-09-24 04:21:23
[Tue 2019-09-24 04:21:23 AM] [client 192.168.49.1] sen request to i learn2019-09-24 04:21:23
[Tue 2019-09-24 04:21:23 AM] [client 192.168.49.1] curl response2019-09-24 04:21:23{"status":"200","success":"Could not connect: User rkclcoin already has more than 'max_user_connections' active connections"}
[Tue 2019-09-24 04:21:23 AM] [client 192.168.49.1] curl request success not data not insert2019-09-24 04:21:23
[Tue 2019-09-24 04:27:01 AM] [client 192.168.49.1] delete_biomatric_registration_entry Sucscessfully Deleted2019-09-24 04:27:01
[Tue 2019-09-24 04:27:01 AM] [client 192.168.49.1] update_tbl_admission_table Successfully Updated2019-09-24 04:27:01
[Tue 2019-09-24 09:57:01 AM] [client 192.168.49.1] update_learner_deregister_apply_table Successfully Updated2019-09-24 09:57:01
[Tue 2019-09-24 09:57:01 AM] [client 192.168.49.1] delete_biomatric_registration_entry Sucscessfully Deleted2019-09-24 09:57:01
[Tue 2019-09-24 09:57:01 AM] [client 192.168.49.1] update_tbl_admission_table Successfully Updated2019-09-24 09:57:01
[Tue 2019-09-24 09:57:01 AM] [client 192.168.49.1] update_learner_deregister_apply_table Successfully Updated2019-09-24 09:57:01
[Tue 2019-09-24 09:57:01 AM] [client 192.168.49.1] delete_biomatric_registration_entry Sucscessfully Deleted2019-09-24 09:57:01
[Tue 2019-09-24 09:57:01 AM] [client 192.168.49.1] update_tbl_admission_table Successfully Updated2019-09-24 09:57:01
[Tue 2019-09-24 09:57:01 AM] [client 192.168.49.1] update_learner_deregister_apply_table Successfully Updated2019-09-24 09:57:01
[Tue 2019-09-24 09:57:02 AM] [client 192.168.49.1] delete_biomatric_registration_entry Sucscessfully Deleted2019-09-24 09:57:02
[Tue 2019-09-24 09:57:02 AM] [client 192.168.49.1] update_tbl_admission_table Successfully Updated2019-09-24 09:57:02
[Tue 2019-09-24 09:57:02 AM] [client 192.168.49.1] update_learner_deregister_apply_table Successfully Updated2019-09-24 09:57:02
[Tue 2019-09-24 09:57:02 AM] [client 192.168.49.1] delete_biomatric_registration_entry Sucscessfully Deleted2019-09-24 09:57:02
[Tue 2019-09-24 09:57:02 AM] [client 192.168.49.1] update_tbl_admission_table Successfully Updated2019-09-24 09:57:02
[Tue 2019-09-24 09:57:02 AM] [client 192.168.49.1] update_learner_deregister_apply_table Successfully Updated2019-09-24 09:57:02
[Tue 2019-09-24 09:57:02 AM] [client 192.168.49.1] delete_biomatric_registration_entry Sucscessfully Deleted2019-09-24 09:57:02
[Tue 2019-09-24 09:57:02 AM] [client 192.168.49.1] update_tbl_admission_table Successfully Updated2019-09-24 09:57:02
[Tue 2019-09-24 09:57:02 AM] [client 192.168.49.1] update_learner_deregister_apply_table Successfully Updated2019-09-24 09:57:02
[Tue 2019-09-24 09:57:02 AM] [client 192.168.49.1] delete_biomatric_registration_entry Sucscessfully Deleted2019-09-24 09:57:02
[Tue 2019-09-24 09:57:02 AM] [client 192.168.49.1] update_tbl_admission_table Successfully Updated2019-09-24 09:57:02
[Tue 2019-09-24 09:57:02 AM] [client 192.168.49.1] update_learner_deregister_apply_table Successfully Updated2019-09-24 09:57:02
[Tue 2019-09-24 09:57:02 AM] [client 192.168.49.1] delete_biomatric_registration_entry Sucscessfully Deleted2019-09-24 09:57:02
[Tue 2019-09-24 09:57:02 AM] [client 192.168.49.1] update_tbl_admission_table Successfully Updated2019-09-24 09:57:02
[Tue 2019-09-24 09:57:02 AM] [client 192.168.49.1] update_learner_deregister_apply_table Successfully Updated2019-09-24 09:57:02
[Tue 2019-09-24 09:57:02 AM] [client 192.168.49.1] delete_biomatric_registration_entry Sucscessfully Deleted2019-09-24 09:57:02
[Tue 2019-09-24 09:57:02 AM] [client 192.168.49.1] update_tbl_admission_table Successfully Updated2019-09-24 09:57:02
[Tue 2019-09-24 09:57:02 AM] [client 192.168.49.1] update_learner_deregister_apply_table Successfully Updated2019-09-24 09:57:02
[Tue 2019-09-24 09:57:02 AM] [client 192.168.49.1] delete_biomatric_registration_entry Sucscessfully Deleted2019-09-24 09:57:02
[Tue 2019-09-24 09:57:02 AM] [client 192.168.49.1] update_tbl_admission_table Successfully Updated2019-09-24 09:57:02
[Tue 2019-09-24 09:57:02 AM] [client 192.168.49.1] update_learner_deregister_apply_table Successfully Updated2019-09-24 09:57:02
[Tue 2019-09-24 09:57:02 AM] [client 192.168.49.1] delete_biomatric_registration_entry Sucscessfully Deleted2019-09-24 09:57:02
[Tue 2019-09-24 09:57:02 AM] [client 192.168.49.1] update_tbl_admission_table Successfully Updated2019-09-24 09:57:02
[Tue 2019-09-24 09:57:02 AM] [client 192.168.49.1] update_learner_deregister_apply_table Successfully Updated2019-09-24 09:57:02
[Tue 2019-09-24 09:57:02 AM] [client 192.168.49.1] delete_biomatric_registration_entry Sucscessfully Deleted2019-09-24 09:57:02
[Tue 2019-09-24 09:57:02 AM] [client 192.168.49.1] update_tbl_admission_table Successfully Updated2019-09-24 09:57:02
[Tue 2019-09-24 09:57:02 AM] [client 192.168.49.1] update_learner_deregister_apply_table Successfully Updated2019-09-24 09:57:02
[Tue 2019-09-24 09:57:02 AM] [client 192.168.49.1] delete_biomatric_registration_entry Sucscessfully Deleted2019-09-24 09:57:02
[Tue 2019-09-24 09:57:02 AM] [client 192.168.49.1] update_tbl_admission_table Successfully Updated2019-09-24 09:57:02
[Tue 2019-09-24 09:57:02 AM] [client 192.168.49.1] update_learner_deregister_apply_table Successfully Updated2019-09-24 09:57:02
[Tue 2019-09-24 09:57:02 AM] [client 192.168.49.1] delete_biomatric_registration_entry Sucscessfully Deleted2019-09-24 09:57:02
[Tue 2019-09-24 09:57:02 AM] [client 192.168.49.1] update_tbl_admission_table Successfully Updated2019-09-24 09:57:02
[Tue 2019-09-24 09:57:02 AM] [client 192.168.49.1] update_learner_deregister_apply_table Successfully Updated2019-09-24 09:57:02
[Tue 2019-09-24 09:57:03 AM] [client 192.168.49.1] delete_biomatric_registration_entry Sucscessfully Deleted2019-09-24 09:57:03
[Tue 2019-09-24 09:57:03 AM] [client 192.168.49.1] update_tbl_admission_table Successfully Updated2019-09-24 09:57:03
[Tue 2019-09-24 09:57:03 AM] [client 192.168.49.1] update_learner_deregister_apply_table Successfully Updated2019-09-24 09:57:03
[Tue 2019-09-24 09:57:03 AM] [client 192.168.49.1] delete_biomatric_registration_entry Sucscessfully Deleted2019-09-24 09:57:03
[Tue 2019-09-24 09:57:03 AM] [client 192.168.49.1] update_tbl_admission_table Successfully Updated2019-09-24 09:57:03
[Tue 2019-09-24 09:57:03 AM] [client 192.168.49.1] update_learner_deregister_apply_table Successfully Updated2019-09-24 09:57:03
[Tue 2019-09-24 09:57:03 AM] [client 192.168.49.1] delete_biomatric_registration_entry Sucscessfully Deleted2019-09-24 09:57:03
[Tue 2019-09-24 09:57:03 AM] [client 192.168.49.1] update_tbl_admission_table Successfully Updated2019-09-24 09:57:03
[Tue 2019-09-24 09:57:03 AM] [client 192.168.49.1] update_learner_deregister_apply_table Successfully Updated2019-09-24 09:57:03
[Tue 2019-09-24 09:57:03 AM] [client 192.168.49.1] delete_biomatric_registration_entry Sucscessfully Deleted2019-09-24 09:57:03
[Tue 2019-09-24 09:57:03 AM] [client 192.168.49.1] update_tbl_admission_table Successfully Updated2019-09-24 09:57:03
[Tue 2019-09-24 09:57:03 AM] [client 192.168.49.1] update_learner_deregister_apply_table Successfully Updated2019-09-24 09:57:03
[Tue 2019-09-24 09:57:03 AM] [client 192.168.49.1] delete_biomatric_registration_entry Sucscessfully Deleted2019-09-24 09:57:03
[Tue 2019-09-24 09:57:03 AM] [client 192.168.49.1] update_tbl_admission_table Successfully Updated2019-09-24 09:57:03
[Tue 2019-09-24 09:57:03 AM] [client 192.168.49.1] update_learner_deregister_apply_table Successfully Updated2019-09-24 09:57:03
[Tue 2019-09-24 09:57:03 AM] [client 192.168.49.1] delete_biomatric_registration_entry Sucscessfully Deleted2019-09-24 09:57:03
[Tue 2019-09-24 09:57:03 AM] [client 192.168.49.1] update_tbl_admission_table Successfully Updated2019-09-24 09:57:03
[Tue 2019-09-24 09:57:03 AM] [client 192.168.49.1] update_learner_deregister_apply_table Successfully Updated2019-09-24 09:57:03
[Tue 2019-09-24 09:57:03 AM] [client 192.168.49.1] delete_biomatric_registration_entry Sucscessfully Deleted2019-09-24 09:57:03
[Tue 2019-09-24 09:57:03 AM] [client 192.168.49.1] update_tbl_admission_table Successfully Updated2019-09-24 09:57:03
[Tue 2019-09-24 09:57:03 AM] [client 192.168.49.1] update_learner_deregister_apply_table Successfully Updated2019-09-24 09:57:03
[Tue 2019-09-24 09:57:03 AM] [client 192.168.49.1] delete_biomatric_registration_entry Sucscessfully Deleted2019-09-24 09:57:03
[Tue 2019-09-24 09:57:03 AM] [client 192.168.49.1] update_tbl_admission_table Successfully Updated2019-09-24 09:57:03
[Tue 2019-09-24 09:57:03 AM] [client 192.168.49.1] update_learner_deregister_apply_table Successfully Updated2019-09-24 09:57:03
[Tue 2019-09-24 09:57:03 AM] [client 192.168.49.1] delete_biomatric_registration_entry Sucscessfully Deleted2019-09-24 09:57:03
[Tue 2019-09-24 09:57:03 AM] [client 192.168.49.1] update_tbl_admission_table Successfully Updated2019-09-24 09:57:03
[Tue 2019-09-24 09:57:03 AM] [client 192.168.49.1] update_learner_deregister_apply_table Successfully Updated2019-09-24 09:57:03
[Tue 2019-09-24 09:57:03 AM] [client 192.168.49.1] delete_biomatric_registration_entry Sucscessfully Deleted2019-09-24 09:57:03
[Tue 2019-09-24 09:57:03 AM] [client 192.168.49.1] update_tbl_admission_table Successfully Updated2019-09-24 09:57:03
[Tue 2019-09-24 09:57:03 AM] [client 192.168.49.1] update_learner_deregister_apply_table Successfully Updated2019-09-24 09:57:03
[Tue 2019-09-24 09:57:03 AM] [client 192.168.49.1] delete_biomatric_registration_entry Sucscessfully Deleted2019-09-24 09:57:03
[Tue 2019-09-24 09:57:03 AM] [client 192.168.49.1] update_tbl_admission_table Successfully Updated2019-09-24 09:57:03
[Tue 2019-09-24 09:57:03 AM] [client 192.168.49.1] update_learner_deregister_apply_table Successfully Updated2019-09-24 09:57:03
[Tue 2019-09-24 09:57:04 AM] [client 192.168.49.1] delete_biomatric_registration_entry Sucscessfully Deleted2019-09-24 09:57:04
[Tue 2019-09-24 09:57:04 AM] [client 192.168.49.1] update_tbl_admission_table Successfully Updated2019-09-24 09:57:04
[Tue 2019-09-24 09:57:04 AM] [client 192.168.49.1] update_learner_deregister_apply_table Successfully Updated2019-09-24 09:57:04
[Tue 2019-09-24 09:57:20 AM] [client 192.168.49.1] update_learner_deregister_apply_table_reject Successfully Updated2019-09-24 09:57:20
[Tue 2019-09-24 09:57:20 AM] [client 192.168.49.1] update_learner_deregister_apply_table_reject Successfully Updated2019-09-24 09:57:20
[Tue 2019-09-24 09:57:20 AM] [client 192.168.49.1] update_learner_deregister_apply_table_reject Successfully Updated2019-09-24 09:57:20
[Tue 2019-09-24 09:57:20 AM] [client 192.168.49.1] update_learner_deregister_apply_table_reject Successfully Updated2019-09-24 09:57:20
[Tue 2019-09-24 09:57:20 AM] [client 192.168.49.1] update_learner_deregister_apply_table_reject Successfully Updated2019-09-24 09:57:20
[Tue 2019-09-24 09:57:21 AM] [client 192.168.49.1] update_learner_deregister_apply_table_reject Successfully Updated2019-09-24 09:57:21
[Tue 2019-09-24 09:57:21 AM] [client 192.168.49.1] update_learner_deregister_apply_table_reject Successfully Updated2019-09-24 09:57:21
[Tue 2019-09-24 09:57:21 AM] [client 192.168.49.1] update_learner_deregister_apply_table_reject Successfully Updated2019-09-24 09:57:21
[Tue 2019-09-24 09:57:21 AM] [client 192.168.49.1] update_learner_deregister_apply_table_reject Successfully Updated2019-09-24 09:57:21
[Tue 2019-09-24 09:57:21 AM] [client 192.168.49.1] update_learner_deregister_apply_table_reject Successfully Updated2019-09-24 09:57:21
[Tue 2019-09-24 09:57:21 AM] [client 192.168.49.1] update_learner_deregister_apply_table_reject Successfully Updated2019-09-24 09:57:21
[Tue 2019-09-24 09:57:21 AM] [client 192.168.49.1] update_learner_deregister_apply_table_reject Successfully Updated2019-09-24 09:57:21
[Tue 2019-09-24 09:57:21 AM] [client 192.168.49.1] update_learner_deregister_apply_table_reject Successfully Updated2019-09-24 09:57:21
[Tue 2019-09-24 09:57:21 AM] [client 192.168.49.1] update_learner_deregister_apply_table_reject Successfully Updated2019-09-24 09:57:21
[Tue 2019-09-24 09:57:21 AM] [client 192.168.49.1] update_learner_deregister_apply_table_reject Successfully Updated2019-09-24 09:57:21
[Tue 2019-09-24 09:57:21 AM] [client 192.168.49.1] update_learner_deregister_apply_table_reject Successfully Updated2019-09-24 09:57:21
[Tue 2019-09-24 09:57:21 AM] [client 192.168.49.1] update_learner_deregister_apply_table_reject Successfully Updated2019-09-24 09:57:21
[Tue 2019-09-24 09:57:21 AM] [client 192.168.49.1] update_learner_deregister_apply_table_reject Successfully Updated2019-09-24 09:57:21
[Tue 2019-09-24 09:57:22 AM] [client 192.168.49.1] update_learner_deregister_apply_table_reject Successfully Updated2019-09-24 09:57:22
[Tue 2019-09-24 09:57:22 AM] [client 192.168.49.1] update_learner_deregister_apply_table_reject Successfully Updated2019-09-24 09:57:22
[Tue 2019-09-24 09:57:22 AM] [client 192.168.49.1] update_learner_deregister_apply_table_reject Successfully Updated2019-09-24 09:57:22
[Tue 2019-09-24 09:57:22 AM] [client 192.168.49.1] update_learner_deregister_apply_table_reject Successfully Updated2019-09-24 09:57:22
[Tue 2019-09-24 09:57:22 AM] [client 192.168.49.1] update_learner_deregister_apply_table_reject Successfully Updated2019-09-24 09:57:22
[Tue 2019-09-24 09:57:22 AM] [client 192.168.49.1] update_learner_deregister_apply_table_reject Successfully Updated2019-09-24 09:57:22
[Tue 2019-09-24 09:57:22 AM] [client 192.168.49.1] update_learner_deregister_apply_table_reject Successfully Updated2019-09-24 09:57:22
[Tue 2019-09-24 04:27:28 AM] [client 192.168.49.1] delete_biomatric_registration_entry Sucscessfully Deleted2019-09-24 04:27:28
[Tue 2019-09-24 04:27:28 AM] [client 192.168.49.1] update_tbl_admission_table Successfully Updated2019-09-24 04:27:28
[Tue 2019-09-24 09:57:28 AM] [client 192.168.49.1] update_learner_deregister_apply_table Successfully Updated2019-09-24 09:57:28
[Tue 2019-09-24 04:56:21 AM] [client 192.168.49.1] ajax request post accpect2019-09-24 04:56:21
[Tue 2019-09-24 04:56:34 AM] [client 192.168.49.1] encrypt file create2019-09-24 04:56:34
[Tue 2019-09-24 04:56:34 AM] [client 192.168.49.1] sen request to i learn2019-09-24 04:56:34
[Tue 2019-09-24 04:56:40 AM] [client 192.168.49.1] curl response2019-09-24 04:56:40{"status":"200","success":"success"}
[Tue 2019-09-24 04:56:41 AM] [client 192.168.49.1] change status to N2019-09-24 04:56:41
[Tue 2019-09-24 04:57:18 AM] [client 192.168.49.1] ajax request post accpect2019-09-24 04:57:18
[Tue 2019-09-24 04:57:32 AM] [client 192.168.49.1] encrypt file create2019-09-24 04:57:32
[Tue 2019-09-24 04:57:32 AM] [client 192.168.49.1] sen request to i learn2019-09-24 04:57:32
[Tue 2019-09-24 04:58:54 AM] [client 192.168.49.1] curl response2019-09-24 04:58:54{"status":"200","success":"<!DOCTYPE html PUBLIC \"-\/\/W3C\/\/DTD XHTML 1.0 Strict\/\/EN\" \"http:\/\/www.w3.org\/TR\/xhtml1\/DTD\/xhtml1-strict.dtd\">\r\n<html xmlns=\"http:\/\/www.w3.org\/1999\/xhtml\">\r\n<head>\r\n<meta http-equiv=\"Content-Type\" content=\"text\/html; charset=iso-8859-1\"\/>\r\n<title>500 - Internal server error.<\/title>\r\n<style type=\"text\/css\">\r\n<!--\r\nbody{margin:0;font-size:.7em;font-family:Verdana, Arial, Helvetica, sans-serif;background:#EEEEEE;}\r\nfieldset{padding:0 15px 10px 15px;} \r\nh1{font-size:2.4em;margin:0;color:#FFF;}\r\nh2{font-size:1.7em;margin:0;color:#CC0000;} \r\nh3{font-size:1.2em;margin:10px 0 0 0;color:#000000;} \r\n#header{width:96%;margin:0 0 0 0;padding:6px 2% 6px 2%;font-family:\"trebuchet MS\", Verdana, sans-serif;color:#FFF;\r\nbackground-color:#555555;}\r\n#content{margin:0 0 0 2%;position:relative;}\r\n.content-container{background:#FFF;width:96%;margin-top:8px;padding:10px;position:relative;}\r\n-->\r\n<\/style>\r\n<\/head>\r\n<body>\r\n<div id=\"header\"><h1>Server Error<\/h1><\/div>\r\n<div id=\"content\">\r\n <div class=\"content-container\"><fieldset>\r\n  <h2>500 - Internal server error.<\/h2>\r\n  <h3>There is a problem with the resource you are looking for, and it cannot be displayed.<\/h3>\r\n <\/fieldset><\/div>\r\n<\/div>\r\n<\/body>\r\n<\/html>\r\n"}
[Tue 2019-09-24 04:58:54 AM] [client 192.168.49.1] curl request success not data not insert2019-09-24 04:58:54
[Tue 2019-09-24 04:59:56 AM] [client 192.168.49.1] ajax request post accpect2019-09-24 04:59:56
[Tue 2019-09-24 05:00:09 AM] [client 192.168.49.1] encrypt file create2019-09-24 05:00:09
[Tue 2019-09-24 05:00:09 AM] [client 192.168.49.1] sen request to i learn2019-09-24 05:00:09
[Tue 2019-09-24 05:04:18 AM] [client 192.168.49.1] delete_biomatric_registration_entry Sucscessfully Deleted2019-09-24 05:04:18
[Tue 2019-09-24 05:04:18 AM] [client 192.168.49.1] update_tbl_admission_table Successfully Updated2019-09-24 05:04:18
[Tue 2019-09-24 10:34:18 AM] [client 192.168.49.1] update_learner_deregister_apply_table Successfully Updated2019-09-24 10:34:18
[Tue 2019-09-24 10:34:18 AM] [client 192.168.49.1] delete_biomatric_registration_entry Sucscessfully Deleted2019-09-24 10:34:18
[Tue 2019-09-24 10:34:18 AM] [client 192.168.49.1] update_tbl_admission_table Successfully Updated2019-09-24 10:34:18
[Tue 2019-09-24 10:34:18 AM] [client 192.168.49.1] update_learner_deregister_apply_table Successfully Updated2019-09-24 10:34:18
[Tue 2019-09-24 10:34:18 AM] [client 192.168.49.1] delete_biomatric_registration_entry Sucscessfully Deleted2019-09-24 10:34:18
[Tue 2019-09-24 10:34:18 AM] [client 192.168.49.1] update_tbl_admission_table Successfully Updated2019-09-24 10:34:18
[Tue 2019-09-24 10:34:18 AM] [client 192.168.49.1] update_learner_deregister_apply_table Successfully Updated2019-09-24 10:34:18
[Tue 2019-09-24 10:34:18 AM] [client 192.168.49.1] delete_biomatric_registration_entry Sucscessfully Deleted2019-09-24 10:34:18
[Tue 2019-09-24 10:34:18 AM] [client 192.168.49.1] update_tbl_admission_table Successfully Updated2019-09-24 10:34:18
[Tue 2019-09-24 10:34:18 AM] [client 192.168.49.1] update_learner_deregister_apply_table Successfully Updated2019-09-24 10:34:18
[Tue 2019-09-24 10:34:18 AM] [client 192.168.49.1] delete_biomatric_registration_entry Sucscessfully Deleted2019-09-24 10:34:18
[Tue 2019-09-24 10:34:18 AM] [client 192.168.49.1] update_tbl_admission_table Successfully Updated2019-09-24 10:34:18
[Tue 2019-09-24 10:34:18 AM] [client 192.168.49.1] update_learner_deregister_apply_table Successfully Updated2019-09-24 10:34:18
[Tue 2019-09-24 10:34:18 AM] [client 192.168.49.1] delete_biomatric_registration_entry Sucscessfully Deleted2019-09-24 10:34:18
[Tue 2019-09-24 10:34:18 AM] [client 192.168.49.1] update_tbl_admission_table Successfully Updated2019-09-24 10:34:18
[Tue 2019-09-24 10:34:18 AM] [client 192.168.49.1] update_learner_deregister_apply_table Successfully Updated2019-09-24 10:34:18
[Tue 2019-09-24 10:34:18 AM] [client 192.168.49.1] delete_biomatric_registration_entry Sucscessfully Deleted2019-09-24 10:34:18
[Tue 2019-09-24 10:34:18 AM] [client 192.168.49.1] update_tbl_admission_table Successfully Updated2019-09-24 10:34:18
[Tue 2019-09-24 10:34:18 AM] [client 192.168.49.1] update_learner_deregister_apply_table Successfully Updated2019-09-24 10:34:18
[Tue 2019-09-24 10:34:18 AM] [client 192.168.49.1] delete_biomatric_registration_entry Sucscessfully Deleted2019-09-24 10:34:18
[Tue 2019-09-24 10:34:18 AM] [client 192.168.49.1] update_tbl_admission_table Successfully Updated2019-09-24 10:34:18
[Tue 2019-09-24 10:34:18 AM] [client 192.168.49.1] update_learner_deregister_apply_table Successfully Updated2019-09-24 10:34:18
[Tue 2019-09-24 05:20:45 AM] [client 192.168.49.1] delete_biomatric_registration_entry Sucscessfully Deleted2019-09-24 05:20:45
[Tue 2019-09-24 05:20:45 AM] [client 192.168.49.1] update_tbl_admission_table Successfully Updated2019-09-24 05:20:45
[Tue 2019-09-24 10:50:45 AM] [client 192.168.49.1] update_learner_deregister_apply_table Successfully Updated2019-09-24 10:50:45
[Tue 2019-09-24 10:50:45 AM] [client 192.168.49.1] delete_biomatric_registration_entry Sucscessfully Deleted2019-09-24 10:50:45
[Tue 2019-09-24 10:50:45 AM] [client 192.168.49.1] update_tbl_admission_table Successfully Updated2019-09-24 10:50:45
[Tue 2019-09-24 10:50:45 AM] [client 192.168.49.1] update_learner_deregister_apply_table Successfully Updated2019-09-24 10:50:45
[Tue 2019-09-24 10:50:46 AM] [client 192.168.49.1] delete_biomatric_registration_entry Sucscessfully Deleted2019-09-24 10:50:46
[Tue 2019-09-24 10:50:46 AM] [client 192.168.49.1] update_tbl_admission_table Successfully Updated2019-09-24 10:50:46
[Tue 2019-09-24 10:50:46 AM] [client 192.168.49.1] update_learner_deregister_apply_table Successfully Updated2019-09-24 10:50:46
[Tue 2019-09-24 10:50:46 AM] [client 192.168.49.1] delete_biomatric_registration_entry Sucscessfully Deleted2019-09-24 10:50:46
[Tue 2019-09-24 10:50:46 AM] [client 192.168.49.1] update_tbl_admission_table Successfully Updated2019-09-24 10:50:46
[Tue 2019-09-24 10:50:46 AM] [client 192.168.49.1] update_learner_deregister_apply_table Successfully Updated2019-09-24 10:50:46
[Tue 2019-09-24 10:50:46 AM] [client 192.168.49.1] delete_biomatric_registration_entry Sucscessfully Deleted2019-09-24 10:50:46
[Tue 2019-09-24 10:50:46 AM] [client 192.168.49.1] update_tbl_admission_table Successfully Updated2019-09-24 10:50:46
[Tue 2019-09-24 10:50:46 AM] [client 192.168.49.1] update_learner_deregister_apply_table Successfully Updated2019-09-24 10:50:46
[Tue 2019-09-24 10:50:46 AM] [client 192.168.49.1] delete_biomatric_registration_entry Sucscessfully Deleted2019-09-24 10:50:46
[Tue 2019-09-24 10:50:46 AM] [client 192.168.49.1] update_tbl_admission_table Successfully Updated2019-09-24 10:50:46
[Tue 2019-09-24 10:50:46 AM] [client 192.168.49.1] update_learner_deregister_apply_table Successfully Updated2019-09-24 10:50:46
[Tue 2019-09-24 10:50:46 AM] [client 192.168.49.1] delete_biomatric_registration_entry Sucscessfully Deleted2019-09-24 10:50:46
[Tue 2019-09-24 10:50:46 AM] [client 192.168.49.1] update_tbl_admission_table Successfully Updated2019-09-24 10:50:46
[Tue 2019-09-24 10:50:46 AM] [client 192.168.49.1] update_learner_deregister_apply_table Successfully Updated2019-09-24 10:50:46
[Tue 2019-09-24 10:50:46 AM] [client 192.168.49.1] delete_biomatric_registration_entry Sucscessfully Deleted2019-09-24 10:50:46
[Tue 2019-09-24 10:50:46 AM] [client 192.168.49.1] update_tbl_admission_table Successfully Updated2019-09-24 10:50:46
[Tue 2019-09-24 10:50:46 AM] [client 192.168.49.1] update_learner_deregister_apply_table Successfully Updated2019-09-24 10:50:46
[Tue 2019-09-24 10:50:46 AM] [client 192.168.49.1] delete_biomatric_registration_entry Sucscessfully Deleted2019-09-24 10:50:46
[Tue 2019-09-24 10:50:46 AM] [client 192.168.49.1] update_tbl_admission_table Successfully Updated2019-09-24 10:50:46
[Tue 2019-09-24 10:50:46 AM] [client 192.168.49.1] update_learner_deregister_apply_table Successfully Updated2019-09-24 10:50:46
[Tue 2019-09-24 05:27:36 AM] [client 192.168.49.1] ajax request post accpect2019-09-24 05:27:36
[Tue 2019-09-24 05:27:49 AM] [client 192.168.49.1] encrypt file create2019-09-24 05:27:49
[Tue 2019-09-24 05:27:49 AM] [client 192.168.49.1] sen request to i learn2019-09-24 05:27:49
[Tue 2019-09-24 05:29:03 AM] [client 192.168.49.1] curl response2019-09-24 05:29:03{"status":"200","success":"<!DOCTYPE html PUBLIC \"-\/\/W3C\/\/DTD XHTML 1.0 Strict\/\/EN\" \"http:\/\/www.w3.org\/TR\/xhtml1\/DTD\/xhtml1-strict.dtd\">\r\n<html xmlns=\"http:\/\/www.w3.org\/1999\/xhtml\">\r\n<head>\r\n<meta http-equiv=\"Content-Type\" content=\"text\/html; charset=iso-8859-1\"\/>\r\n<title>500 - Internal server error.<\/title>\r\n<style type=\"text\/css\">\r\n<!--\r\nbody{margin:0;font-size:.7em;font-family:Verdana, Arial, Helvetica, sans-serif;background:#EEEEEE;}\r\nfieldset{padding:0 15px 10px 15px;} \r\nh1{font-size:2.4em;margin:0;color:#FFF;}\r\nh2{font-size:1.7em;margin:0;color:#CC0000;} \r\nh3{font-size:1.2em;margin:10px 0 0 0;color:#000000;} \r\n#header{width:96%;margin:0 0 0 0;padding:6px 2% 6px 2%;font-family:\"trebuchet MS\", Verdana, sans-serif;color:#FFF;\r\nbackground-color:#555555;}\r\n#content{margin:0 0 0 2%;position:relative;}\r\n.content-container{background:#FFF;width:96%;margin-top:8px;padding:10px;position:relative;}\r\n-->\r\n<\/style>\r\n<\/head>\r\n<body>\r\n<div id=\"header\"><h1>Server Error<\/h1><\/div>\r\n<div id=\"content\">\r\n <div class=\"content-container\"><fieldset>\r\n  <h2>500 - Internal server error.<\/h2>\r\n  <h3>There is a problem with the resource you are looking for, and it cannot be displayed.<\/h3>\r\n <\/fieldset><\/div>\r\n<\/div>\r\n<\/body>\r\n<\/html>\r\n"}
[Tue 2019-09-24 05:29:03 AM] [client 192.168.49.1] curl request success not data not insert2019-09-24 05:29:03
[Tue 2019-09-24 10:59:52 AM] [client 192.168.49.1] update_learner_deregister_apply_table_reject Successfully Updated2019-09-24 10:59:52
[Tue 2019-09-24 06:01:53 AM] [client 192.168.49.1] ajax request post accpect2019-09-24 06:01:53
[Tue 2019-09-24 06:02:06 AM] [client 192.168.49.1] encrypt file create2019-09-24 06:02:06
[Tue 2019-09-24 06:02:06 AM] [client 192.168.49.1] sen request to i learn2019-09-24 06:02:06
[Tue 2019-09-24 06:03:29 AM] [client 192.168.49.1] curl response2019-09-24 06:03:29{"status":"200","success":"<!DOCTYPE html PUBLIC \"-\/\/W3C\/\/DTD XHTML 1.0 Strict\/\/EN\" \"http:\/\/www.w3.org\/TR\/xhtml1\/DTD\/xhtml1-strict.dtd\">\r\n<html xmlns=\"http:\/\/www.w3.org\/1999\/xhtml\">\r\n<head>\r\n<meta http-equiv=\"Content-Type\" content=\"text\/html; charset=iso-8859-1\"\/>\r\n<title>500 - Internal server error.<\/title>\r\n<style type=\"text\/css\">\r\n<!--\r\nbody{margin:0;font-size:.7em;font-family:Verdana, Arial, Helvetica, sans-serif;background:#EEEEEE;}\r\nfieldset{padding:0 15px 10px 15px;} \r\nh1{font-size:2.4em;margin:0;color:#FFF;}\r\nh2{font-size:1.7em;margin:0;color:#CC0000;} \r\nh3{font-size:1.2em;margin:10px 0 0 0;color:#000000;} \r\n#header{width:96%;margin:0 0 0 0;padding:6px 2% 6px 2%;font-family:\"trebuchet MS\", Verdana, sans-serif;color:#FFF;\r\nbackground-color:#555555;}\r\n#content{margin:0 0 0 2%;position:relative;}\r\n.content-container{background:#FFF;width:96%;margin-top:8px;padding:10px;position:relative;}\r\n-->\r\n<\/style>\r\n<\/head>\r\n<body>\r\n<div id=\"header\"><h1>Server Error<\/h1><\/div>\r\n<div id=\"content\">\r\n <div class=\"content-container\"><fieldset>\r\n  <h2>500 - Internal server error.<\/h2>\r\n  <h3>There is a problem with the resource you are looking for, and it cannot be displayed.<\/h3>\r\n <\/fieldset><\/div>\r\n<\/div>\r\n<\/body>\r\n<\/html>\r\n"}
[Tue 2019-09-24 06:03:29 AM] [client 192.168.49.1] curl request success not data not insert2019-09-24 06:03:29
[Tue 2019-09-24 06:04:45 AM] [client 192.168.49.1] delete_biomatric_registration_entry Sucscessfully Deleted2019-09-24 06:04:45
[Tue 2019-09-24 06:04:45 AM] [client 192.168.49.1] update_tbl_admission_table Successfully Updated2019-09-24 06:04:45
[Tue 2019-09-24 11:34:45 AM] [client 192.168.49.1] update_learner_deregister_apply_table Successfully Updated2019-09-24 11:34:45
[Tue 2019-09-24 11:34:46 AM] [client 192.168.49.1] delete_biomatric_registration_entry Sucscessfully Deleted2019-09-24 11:34:46
[Tue 2019-09-24 11:34:46 AM] [client 192.168.49.1] update_tbl_admission_table Successfully Updated2019-09-24 11:34:46
[Tue 2019-09-24 11:34:46 AM] [client 192.168.49.1] update_learner_deregister_apply_table Successfully Updated2019-09-24 11:34:46
[Tue 2019-09-24 11:34:46 AM] [client 192.168.49.1] delete_biomatric_registration_entry Sucscessfully Deleted2019-09-24 11:34:46
[Tue 2019-09-24 11:34:46 AM] [client 192.168.49.1] update_tbl_admission_table Successfully Updated2019-09-24 11:34:46
[Tue 2019-09-24 11:34:46 AM] [client 192.168.49.1] update_learner_deregister_apply_table Successfully Updated2019-09-24 11:34:46
[Tue 2019-09-24 11:34:46 AM] [client 192.168.49.1] delete_biomatric_registration_entry Sucscessfully Deleted2019-09-24 11:34:46
[Tue 2019-09-24 11:34:46 AM] [client 192.168.49.1] update_tbl_admission_table Successfully Updated2019-09-24 11:34:46
[Tue 2019-09-24 11:34:46 AM] [client 192.168.49.1] update_learner_deregister_apply_table Successfully Updated2019-09-24 11:34:46
[Tue 2019-09-24 11:34:46 AM] [client 192.168.49.1] delete_biomatric_registration_entry Sucscessfully Deleted2019-09-24 11:34:46
[Tue 2019-09-24 11:34:46 AM] [client 192.168.49.1] update_tbl_admission_table Successfully Updated2019-09-24 11:34:46
[Tue 2019-09-24 11:34:46 AM] [client 192.168.49.1] update_learner_deregister_apply_table Successfully Updated2019-09-24 11:34:46
[Tue 2019-09-24 11:34:46 AM] [client 192.168.49.1] delete_biomatric_registration_entry Sucscessfully Deleted2019-09-24 11:34:46
[Tue 2019-09-24 11:34:46 AM] [client 192.168.49.1] update_tbl_admission_table Successfully Updated2019-09-24 11:34:46
[Tue 2019-09-24 11:34:46 AM] [client 192.168.49.1] update_learner_deregister_apply_table Successfully Updated2019-09-24 11:34:46
[Tue 2019-09-24 11:34:46 AM] [client 192.168.49.1] delete_biomatric_registration_entry Sucscessfully Deleted2019-09-24 11:34:46
[Tue 2019-09-24 11:34:46 AM] [client 192.168.49.1] update_tbl_admission_table Successfully Updated2019-09-24 11:34:46
[Tue 2019-09-24 11:34:46 AM] [client 192.168.49.1] update_learner_deregister_apply_table Successfully Updated2019-09-24 11:34:46
[Tue 2019-09-24 11:34:46 AM] [client 192.168.49.1] delete_biomatric_registration_entry Sucscessfully Deleted2019-09-24 11:34:46
[Tue 2019-09-24 11:34:46 AM] [client 192.168.49.1] update_tbl_admission_table Successfully Updated2019-09-24 11:34:46
[Tue 2019-09-24 11:34:46 AM] [client 192.168.49.1] update_learner_deregister_apply_table Successfully Updated2019-09-24 11:34:46
[Tue 2019-09-24 11:34:46 AM] [client 192.168.49.1] delete_biomatric_registration_entry Sucscessfully Deleted2019-09-24 11:34:46
[Tue 2019-09-24 11:34:46 AM] [client 192.168.49.1] update_tbl_admission_table Successfully Updated2019-09-24 11:34:46
[Tue 2019-09-24 11:34:46 AM] [client 192.168.49.1] update_learner_deregister_apply_table Successfully Updated2019-09-24 11:34:46
[Tue 2019-09-24 11:34:46 AM] [client 192.168.49.1] delete_biomatric_registration_entry Sucscessfully Deleted2019-09-24 11:34:46
[Tue 2019-09-24 11:34:46 AM] [client 192.168.49.1] update_tbl_admission_table Successfully Updated2019-09-24 11:34:46
[Tue 2019-09-24 11:34:46 AM] [client 192.168.49.1] update_learner_deregister_apply_table Successfully Updated2019-09-24 11:34:46
[Tue 2019-09-24 11:34:46 AM] [client 192.168.49.1] delete_biomatric_registration_entry Sucscessfully Deleted2019-09-24 11:34:46
[Tue 2019-09-24 11:34:46 AM] [client 192.168.49.1] update_tbl_admission_table Successfully Updated2019-09-24 11:34:46
[Tue 2019-09-24 11:34:46 AM] [client 192.168.49.1] update_learner_deregister_apply_table Successfully Updated2019-09-24 11:34:46
[Tue 2019-09-24 11:35:05 AM] [client 192.168.49.1] update_learner_deregister_apply_table_reject Successfully Updated2019-09-24 11:35:05
[Tue 2019-09-24 11:35:05 AM] [client 192.168.49.1] update_learner_deregister_apply_table_reject Successfully Updated2019-09-24 11:35:05
[Tue 2019-09-24 11:35:05 AM] [client 192.168.49.1] update_learner_deregister_apply_table_reject Successfully Updated2019-09-24 11:35:05
[Tue 2019-09-24 11:35:05 AM] [client 192.168.49.1] update_learner_deregister_apply_table_reject Successfully Updated2019-09-24 11:35:05
[Tue 2019-09-24 06:26:19 AM] [client 192.168.49.1] ajax request post accpect2019-09-24 06:26:19
[Tue 2019-09-24 06:26:33 AM] [client 192.168.49.1] encrypt file create2019-09-24 06:26:33
[Tue 2019-09-24 06:26:33 AM] [client 192.168.49.1] sen request to i learn2019-09-24 06:26:33
[Tue 2019-09-24 06:39:57 AM] [client 192.168.49.1] delete_biomatric_registration_entry Sucscessfully Deleted2019-09-24 06:39:57
[Tue 2019-09-24 06:39:57 AM] [client 192.168.49.1] update_tbl_admission_table Successfully Updated2019-09-24 06:39:57
[Tue 2019-09-24 12:09:57 PM] [client 192.168.49.1] update_learner_deregister_apply_table Successfully Updated2019-09-24 12:09:57
[Tue 2019-09-24 12:09:57 PM] [client 192.168.49.1] delete_biomatric_registration_entry Sucscessfully Deleted2019-09-24 12:09:57
[Tue 2019-09-24 12:09:57 PM] [client 192.168.49.1] update_tbl_admission_table Successfully Updated2019-09-24 12:09:57
[Tue 2019-09-24 12:09:57 PM] [client 192.168.49.1] update_learner_deregister_apply_table Successfully Updated2019-09-24 12:09:57
[Tue 2019-09-24 12:09:57 PM] [client 192.168.49.1] delete_biomatric_registration_entry Sucscessfully Deleted2019-09-24 12:09:57
[Tue 2019-09-24 12:09:57 PM] [client 192.168.49.1] update_tbl_admission_table Successfully Updated2019-09-24 12:09:57
[Tue 2019-09-24 12:09:57 PM] [client 192.168.49.1] update_learner_deregister_apply_table Successfully Updated2019-09-24 12:09:57
[Tue 2019-09-24 12:09:57 PM] [client 192.168.49.1] delete_biomatric_registration_entry Sucscessfully Deleted2019-09-24 12:09:57
[Tue 2019-09-24 12:09:57 PM] [client 192.168.49.1] update_tbl_admission_table Successfully Updated2019-09-24 12:09:57
[Tue 2019-09-24 12:09:58 PM] [client 192.168.49.1] update_learner_deregister_apply_table Successfully Updated2019-09-24 12:09:58
[Tue 2019-09-24 12:09:58 PM] [client 192.168.49.1] delete_biomatric_registration_entry Sucscessfully Deleted2019-09-24 12:09:58
[Tue 2019-09-24 12:09:58 PM] [client 192.168.49.1] update_tbl_admission_table Successfully Updated2019-09-24 12:09:58
[Tue 2019-09-24 12:09:58 PM] [client 192.168.49.1] update_learner_deregister_apply_table Successfully Updated2019-09-24 12:09:58
[Tue 2019-09-24 12:09:58 PM] [client 192.168.49.1] delete_biomatric_registration_entry Sucscessfully Deleted2019-09-24 12:09:58
[Tue 2019-09-24 12:09:58 PM] [client 192.168.49.1] update_tbl_admission_table Successfully Updated2019-09-24 12:09:58
[Tue 2019-09-24 12:09:58 PM] [client 192.168.49.1] update_learner_deregister_apply_table Successfully Updated2019-09-24 12:09:58
[Tue 2019-09-24 12:09:58 PM] [client 192.168.49.1] delete_biomatric_registration_entry Sucscessfully Deleted2019-09-24 12:09:58
[Tue 2019-09-24 12:09:58 PM] [client 192.168.49.1] update_tbl_admission_table Successfully Updated2019-09-24 12:09:58
[Tue 2019-09-24 12:09:58 PM] [client 192.168.49.1] update_learner_deregister_apply_table Successfully Updated2019-09-24 12:09:58
[Tue 2019-09-24 12:09:58 PM] [client 192.168.49.1] delete_biomatric_registration_entry Sucscessfully Deleted2019-09-24 12:09:58
[Tue 2019-09-24 12:09:58 PM] [client 192.168.49.1] update_tbl_admission_table Successfully Updated2019-09-24 12:09:58
[Tue 2019-09-24 12:09:58 PM] [client 192.168.49.1] update_learner_deregister_apply_table Successfully Updated2019-09-24 12:09:58
[Tue 2019-09-24 12:09:58 PM] [client 192.168.49.1] delete_biomatric_registration_entry Sucscessfully Deleted2019-09-24 12:09:58
[Tue 2019-09-24 12:09:58 PM] [client 192.168.49.1] update_tbl_admission_table Successfully Updated2019-09-24 12:09:58
[Tue 2019-09-24 12:09:58 PM] [client 192.168.49.1] update_learner_deregister_apply_table Successfully Updated2019-09-24 12:09:58
[Tue 2019-09-24 12:09:58 PM] [client 192.168.49.1] delete_biomatric_registration_entry Sucscessfully Deleted2019-09-24 12:09:58
[Tue 2019-09-24 12:09:58 PM] [client 192.168.49.1] update_tbl_admission_table Successfully Updated2019-09-24 12:09:58
[Tue 2019-09-24 12:09:58 PM] [client 192.168.49.1] update_learner_deregister_apply_table Successfully Updated2019-09-24 12:09:58
[Tue 2019-09-24 12:09:58 PM] [client 192.168.49.1] delete_biomatric_registration_entry Sucscessfully Deleted2019-09-24 12:09:58
[Tue 2019-09-24 12:09:58 PM] [client 192.168.49.1] update_tbl_admission_table Successfully Updated2019-09-24 12:09:58
[Tue 2019-09-24 12:09:58 PM] [client 192.168.49.1] update_learner_deregister_apply_table Successfully Updated2019-09-24 12:09:58
[Tue 2019-09-24 12:09:58 PM] [client 192.168.49.1] delete_biomatric_registration_entry Sucscessfully Deleted2019-09-24 12:09:58
[Tue 2019-09-24 12:09:58 PM] [client 192.168.49.1] update_tbl_admission_table Successfully Updated2019-09-24 12:09:58
[Tue 2019-09-24 12:09:58 PM] [client 192.168.49.1] update_learner_deregister_apply_table Successfully Updated2019-09-24 12:09:58
[Tue 2019-09-24 12:10:09 PM] [client 192.168.49.1] update_learner_deregister_apply_table_reject Successfully Updated2019-09-24 12:10:09
[Tue 2019-09-24 12:10:10 PM] [client 192.168.49.1] update_learner_deregister_apply_table_reject Successfully Updated2019-09-24 12:10:10
[Tue 2019-09-24 12:10:10 PM] [client 192.168.49.1] update_learner_deregister_apply_table_reject Successfully Updated2019-09-24 12:10:10
[Tue 2019-09-24 12:10:10 PM] [client 192.168.49.1] update_learner_deregister_apply_table_reject Successfully Updated2019-09-24 12:10:10
[Tue 2019-09-24 12:10:10 PM] [client 192.168.49.1] update_learner_deregister_apply_table_reject Successfully Updated2019-09-24 12:10:10
[Tue 2019-09-24 12:10:10 PM] [client 192.168.49.1] update_learner_deregister_apply_table_reject Successfully Updated2019-09-24 12:10:10
[Tue 2019-09-24 12:10:10 PM] [client 192.168.49.1] update_learner_deregister_apply_table_reject Successfully Updated2019-09-24 12:10:10
[Tue 2019-09-24 12:10:10 PM] [client 192.168.49.1] update_learner_deregister_apply_table_reject Successfully Updated2019-09-24 12:10:10
[Tue 2019-09-24 12:10:10 PM] [client 192.168.49.1] update_learner_deregister_apply_table_reject Successfully Updated2019-09-24 12:10:10
[Tue 2019-09-24 12:10:10 PM] [client 192.168.49.1] update_learner_deregister_apply_table_reject Successfully Updated2019-09-24 12:10:10
[Tue 2019-09-24 12:10:10 PM] [client 192.168.49.1] update_learner_deregister_apply_table_reject Successfully Updated2019-09-24 12:10:10
[Tue 2019-09-24 07:12:20 AM] [client 192.168.49.1] ajax request post accpect2019-09-24 07:12:20
[Tue 2019-09-24 07:12:33 AM] [client 192.168.49.1] encrypt file create2019-09-24 07:12:33
[Tue 2019-09-24 07:12:33 AM] [client 192.168.49.1] sen request to i learn2019-09-24 07:12:33
[Tue 2019-09-24 07:12:36 AM] [client 192.168.49.1] curl response2019-09-24 07:12:36{"status":"200","success":"success"}
[Tue 2019-09-24 07:12:36 AM] [client 192.168.49.1] change status to N2019-09-24 07:12:36
[Tue 2019-09-24 07:18:50 AM] [client 192.168.49.1] delete_biomatric_registration_entry Sucscessfully Deleted2019-09-24 07:18:50
[Tue 2019-09-24 07:18:50 AM] [client 192.168.49.1] update_tbl_admission_table Successfully Updated2019-09-24 07:18:50
[Tue 2019-09-24 12:48:50 PM] [client 192.168.49.1] update_learner_deregister_apply_table Successfully Updated2019-09-24 12:48:50
[Tue 2019-09-24 12:48:50 PM] [client 192.168.49.1] delete_biomatric_registration_entry Sucscessfully Deleted2019-09-24 12:48:50
[Tue 2019-09-24 12:48:50 PM] [client 192.168.49.1] update_tbl_admission_table Successfully Updated2019-09-24 12:48:50
[Tue 2019-09-24 12:48:50 PM] [client 192.168.49.1] update_learner_deregister_apply_table Successfully Updated2019-09-24 12:48:50
[Tue 2019-09-24 12:48:50 PM] [client 192.168.49.1] delete_biomatric_registration_entry Sucscessfully Deleted2019-09-24 12:48:50
[Tue 2019-09-24 12:48:50 PM] [client 192.168.49.1] update_tbl_admission_table Successfully Updated2019-09-24 12:48:50
[Tue 2019-09-24 12:48:50 PM] [client 192.168.49.1] update_learner_deregister_apply_table Successfully Updated2019-09-24 12:48:50
[Tue 2019-09-24 12:48:51 PM] [client 192.168.49.1] delete_biomatric_registration_entry Sucscessfully Deleted2019-09-24 12:48:51
[Tue 2019-09-24 12:48:51 PM] [client 192.168.49.1] update_tbl_admission_table Successfully Updated2019-09-24 12:48:51
[Tue 2019-09-24 12:48:51 PM] [client 192.168.49.1] update_learner_deregister_apply_table Successfully Updated2019-09-24 12:48:51
[Tue 2019-09-24 12:48:51 PM] [client 192.168.49.1] delete_biomatric_registration_entry Sucscessfully Deleted2019-09-24 12:48:51
[Tue 2019-09-24 12:48:51 PM] [client 192.168.49.1] update_tbl_admission_table Successfully Updated2019-09-24 12:48:51
[Tue 2019-09-24 12:48:51 PM] [client 192.168.49.1] update_learner_deregister_apply_table Successfully Updated2019-09-24 12:48:51
[Tue 2019-09-24 12:48:51 PM] [client 192.168.49.1] delete_biomatric_registration_entry Sucscessfully Deleted2019-09-24 12:48:51
[Tue 2019-09-24 12:48:51 PM] [client 192.168.49.1] update_tbl_admission_table Successfully Updated2019-09-24 12:48:51
[Tue 2019-09-24 12:48:51 PM] [client 192.168.49.1] update_learner_deregister_apply_table Successfully Updated2019-09-24 12:48:51
[Tue 2019-09-24 12:48:51 PM] [client 192.168.49.1] delete_biomatric_registration_entry Sucscessfully Deleted2019-09-24 12:48:51
[Tue 2019-09-24 12:48:51 PM] [client 192.168.49.1] update_tbl_admission_table Successfully Updated2019-09-24 12:48:51
[Tue 2019-09-24 12:48:51 PM] [client 192.168.49.1] update_learner_deregister_apply_table Successfully Updated2019-09-24 12:48:51
[Tue 2019-09-24 12:48:51 PM] [client 192.168.49.1] delete_biomatric_registration_entry Sucscessfully Deleted2019-09-24 12:48:51
[Tue 2019-09-24 12:48:51 PM] [client 192.168.49.1] update_tbl_admission_table Successfully Updated2019-09-24 12:48:51
[Tue 2019-09-24 12:48:51 PM] [client 192.168.49.1] update_learner_deregister_apply_table Successfully Updated2019-09-24 12:48:51
[Tue 2019-09-24 12:48:51 PM] [client 192.168.49.1] delete_biomatric_registration_entry Sucscessfully Deleted2019-09-24 12:48:51
[Tue 2019-09-24 12:48:51 PM] [client 192.168.49.1] update_tbl_admission_table Successfully Updated2019-09-24 12:48:51
[Tue 2019-09-24 12:48:51 PM] [client 192.168.49.1] update_learner_deregister_apply_table Successfully Updated2019-09-24 12:48:51
[Tue 2019-09-24 12:48:51 PM] [client 192.168.49.1] delete_biomatric_registration_entry Sucscessfully Deleted2019-09-24 12:48:51
[Tue 2019-09-24 12:48:51 PM] [client 192.168.49.1] update_tbl_admission_table Successfully Updated2019-09-24 12:48:51
[Tue 2019-09-24 12:48:51 PM] [client 192.168.49.1] update_learner_deregister_apply_table Successfully Updated2019-09-24 12:48:51
[Tue 2019-09-24 12:49:01 PM] [client 192.168.49.1] update_learner_deregister_apply_table_reject Successfully Updated2019-09-24 12:49:01
[Tue 2019-09-24 12:49:02 PM] [client 192.168.49.1] update_learner_deregister_apply_table_reject Successfully Updated2019-09-24 12:49:02
[Tue 2019-09-24 12:49:02 PM] [client 192.168.49.1] update_learner_deregister_apply_table_reject Successfully Updated2019-09-24 12:49:02
[Tue 2019-09-24 12:49:02 PM] [client 192.168.49.1] update_learner_deregister_apply_table_reject Successfully Updated2019-09-24 12:49:02
[Tue 2019-09-24 12:49:02 PM] [client 192.168.49.1] update_learner_deregister_apply_table_reject Successfully Updated2019-09-24 12:49:02
[Tue 2019-09-24 12:49:02 PM] [client 192.168.49.1] update_learner_deregister_apply_table_reject Successfully Updated2019-09-24 12:49:02
[Tue 2019-09-24 12:49:02 PM] [client 192.168.49.1] update_learner_deregister_apply_table_reject Successfully Updated2019-09-24 12:49:02
[Tue 2019-09-24 12:49:02 PM] [client 192.168.49.1] update_learner_deregister_apply_table_reject Successfully Updated2019-09-24 12:49:02
[Tue 2019-09-24 12:49:02 PM] [client 192.168.49.1] update_learner_deregister_apply_table_reject Successfully Updated2019-09-24 12:49:02
[Tue 2019-09-24 12:49:02 PM] [client 192.168.49.1] update_learner_deregister_apply_table_reject Successfully Updated2019-09-24 12:49:02
[Tue 2019-09-24 12:49:02 PM] [client 192.168.49.1] update_learner_deregister_apply_table_reject Successfully Updated2019-09-24 12:49:02
[Tue 2019-09-24 12:49:02 PM] [client 192.168.49.1] update_learner_deregister_apply_table_reject Successfully Updated2019-09-24 12:49:02
[Tue 2019-09-24 07:44:44 AM] [client 192.168.49.1] delete_biomatric_registration_entry Sucscessfully Deleted2019-09-24 07:44:44
[Tue 2019-09-24 07:44:44 AM] [client 192.168.49.1] update_tbl_admission_table Successfully Updated2019-09-24 07:44:44
[Tue 2019-09-24 01:14:44 PM] [client 192.168.49.1] update_learner_deregister_apply_table Successfully Updated2019-09-24 01:14:44
[Tue 2019-09-24 01:14:44 PM] [client 192.168.49.1] delete_biomatric_registration_entry Sucscessfully Deleted2019-09-24 01:14:44
[Tue 2019-09-24 01:14:44 PM] [client 192.168.49.1] update_tbl_admission_table Successfully Updated2019-09-24 01:14:44
[Tue 2019-09-24 01:14:44 PM] [client 192.168.49.1] update_learner_deregister_apply_table Successfully Updated2019-09-24 01:14:44
[Tue 2019-09-24 01:14:45 PM] [client 192.168.49.1] delete_biomatric_registration_entry Sucscessfully Deleted2019-09-24 01:14:45
[Tue 2019-09-24 01:14:45 PM] [client 192.168.49.1] update_tbl_admission_table Successfully Updated2019-09-24 01:14:45
[Tue 2019-09-24 01:14:45 PM] [client 192.168.49.1] update_learner_deregister_apply_table Successfully Updated2019-09-24 01:14:45
[Tue 2019-09-24 01:14:45 PM] [client 192.168.49.1] delete_biomatric_registration_entry Sucscessfully Deleted2019-09-24 01:14:45
[Tue 2019-09-24 01:14:45 PM] [client 192.168.49.1] update_tbl_admission_table Successfully Updated2019-09-24 01:14:45
[Tue 2019-09-24 01:14:45 PM] [client 192.168.49.1] update_learner_deregister_apply_table Successfully Updated2019-09-24 01:14:45
[Tue 2019-09-24 01:14:45 PM] [client 192.168.49.1] delete_biomatric_registration_entry Sucscessfully Deleted2019-09-24 01:14:45
[Tue 2019-09-24 01:14:45 PM] [client 192.168.49.1] update_tbl_admission_table Successfully Updated2019-09-24 01:14:45
[Tue 2019-09-24 01:14:45 PM] [client 192.168.49.1] update_learner_deregister_apply_table Successfully Updated2019-09-24 01:14:45
[Tue 2019-09-24 01:14:45 PM] [client 192.168.49.1] delete_biomatric_registration_entry Sucscessfully Deleted2019-09-24 01:14:45
[Tue 2019-09-24 01:14:45 PM] [client 192.168.49.1] update_tbl_admission_table Successfully Updated2019-09-24 01:14:45
[Tue 2019-09-24 01:14:45 PM] [client 192.168.49.1] update_learner_deregister_apply_table Successfully Updated2019-09-24 01:14:45
[Tue 2019-09-24 01:14:54 PM] [client 192.168.49.1] update_learner_deregister_apply_table_reject Successfully Updated2019-09-24 01:14:54
[Tue 2019-09-24 01:14:54 PM] [client 192.168.49.1] update_learner_deregister_apply_table_reject Successfully Updated2019-09-24 01:14:54
[Tue 2019-09-24 01:16:09 PM] [client 192.168.49.1] update_learner_deregister_apply_table_reject Successfully Updated2019-09-24 01:16:09
[Tue 2019-09-24 01:16:10 PM] [client 192.168.49.1] update_learner_deregister_apply_table_reject Successfully Updated2019-09-24 01:16:10
[Tue 2019-09-24 08:51:10 AM] [client 192.168.49.1] delete_biomatric_registration_entry Sucscessfully Deleted2019-09-24 08:51:10
[Tue 2019-09-24 08:51:10 AM] [client 192.168.49.1] update_tbl_admission_table Successfully Updated2019-09-24 08:51:10
[Tue 2019-09-24 02:21:10 PM] [client 192.168.49.1] update_learner_deregister_apply_table Successfully Updated2019-09-24 02:21:10
[Tue 2019-09-24 02:21:10 PM] [client 192.168.49.1] delete_biomatric_registration_entry Sucscessfully Deleted2019-09-24 02:21:10
[Tue 2019-09-24 02:21:10 PM] [client 192.168.49.1] update_tbl_admission_table Successfully Updated2019-09-24 02:21:10
[Tue 2019-09-24 02:21:10 PM] [client 192.168.49.1] update_learner_deregister_apply_table Successfully Updated2019-09-24 02:21:10
[Tue 2019-09-24 02:21:10 PM] [client 192.168.49.1] delete_biomatric_registration_entry Sucscessfully Deleted2019-09-24 02:21:10
[Tue 2019-09-24 02:21:10 PM] [client 192.168.49.1] update_tbl_admission_table Successfully Updated2019-09-24 02:21:10
[Tue 2019-09-24 02:21:10 PM] [client 192.168.49.1] update_learner_deregister_apply_table Successfully Updated2019-09-24 02:21:10
[Tue 2019-09-24 02:21:11 PM] [client 192.168.49.1] delete_biomatric_registration_entry Sucscessfully Deleted2019-09-24 02:21:11
[Tue 2019-09-24 02:21:11 PM] [client 192.168.49.1] update_tbl_admission_table Successfully Updated2019-09-24 02:21:11
[Tue 2019-09-24 02:21:11 PM] [client 192.168.49.1] update_learner_deregister_apply_table Successfully Updated2019-09-24 02:21:11
[Tue 2019-09-24 02:21:11 PM] [client 192.168.49.1] delete_biomatric_registration_entry Sucscessfully Deleted2019-09-24 02:21:11
[Tue 2019-09-24 02:21:11 PM] [client 192.168.49.1] update_tbl_admission_table Successfully Updated2019-09-24 02:21:11
[Tue 2019-09-24 02:21:11 PM] [client 192.168.49.1] update_learner_deregister_apply_table Successfully Updated2019-09-24 02:21:11
[Tue 2019-09-24 02:21:11 PM] [client 192.168.49.1] delete_biomatric_registration_entry Sucscessfully Deleted2019-09-24 02:21:11
[Tue 2019-09-24 02:21:11 PM] [client 192.168.49.1] update_tbl_admission_table Successfully Updated2019-09-24 02:21:11
[Tue 2019-09-24 02:21:11 PM] [client 192.168.49.1] update_learner_deregister_apply_table Successfully Updated2019-09-24 02:21:11
[Tue 2019-09-24 02:21:11 PM] [client 192.168.49.1] delete_biomatric_registration_entry Sucscessfully Deleted2019-09-24 02:21:11
[Tue 2019-09-24 02:21:11 PM] [client 192.168.49.1] update_tbl_admission_table Successfully Updated2019-09-24 02:21:11
[Tue 2019-09-24 02:21:11 PM] [client 192.168.49.1] update_learner_deregister_apply_table Successfully Updated2019-09-24 02:21:11
[Tue 2019-09-24 02:21:11 PM] [client 192.168.49.1] delete_biomatric_registration_entry Sucscessfully Deleted2019-09-24 02:21:11
[Tue 2019-09-24 02:21:11 PM] [client 192.168.49.1] update_tbl_admission_table Successfully Updated2019-09-24 02:21:11
[Tue 2019-09-24 02:21:11 PM] [client 192.168.49.1] update_learner_deregister_apply_table Successfully Updated2019-09-24 02:21:11
[Tue 2019-09-24 02:21:11 PM] [client 192.168.49.1] delete_biomatric_registration_entry Sucscessfully Deleted2019-09-24 02:21:11
[Tue 2019-09-24 02:21:11 PM] [client 192.168.49.1] update_tbl_admission_table Successfully Updated2019-09-24 02:21:11
[Tue 2019-09-24 02:21:11 PM] [client 192.168.49.1] update_learner_deregister_apply_table Successfully Updated2019-09-24 02:21:11
[Tue 2019-09-24 02:21:11 PM] [client 192.168.49.1] delete_biomatric_registration_entry Sucscessfully Deleted2019-09-24 02:21:11
[Tue 2019-09-24 02:21:11 PM] [client 192.168.49.1] update_tbl_admission_table Successfully Updated2019-09-24 02:21:11
[Tue 2019-09-24 02:21:11 PM] [client 192.168.49.1] update_learner_deregister_apply_table Successfully Updated2019-09-24 02:21:11
[Tue 2019-09-24 02:21:11 PM] [client 192.168.49.1] delete_biomatric_registration_entry Sucscessfully Deleted2019-09-24 02:21:11
[Tue 2019-09-24 02:21:11 PM] [client 192.168.49.1] update_tbl_admission_table Successfully Updated2019-09-24 02:21:11
[Tue 2019-09-24 02:21:11 PM] [client 192.168.49.1] update_learner_deregister_apply_table Successfully Updated2019-09-24 02:21:11
[Tue 2019-09-24 02:21:11 PM] [client 192.168.49.1] delete_biomatric_registration_entry Sucscessfully Deleted2019-09-24 02:21:11
[Tue 2019-09-24 02:21:11 PM] [client 192.168.49.1] update_tbl_admission_table Successfully Updated2019-09-24 02:21:11
[Tue 2019-09-24 02:21:11 PM] [client 192.168.49.1] update_learner_deregister_apply_table Successfully Updated2019-09-24 02:21:11
[Tue 2019-09-24 02:21:11 PM] [client 192.168.49.1] delete_biomatric_registration_entry Sucscessfully Deleted2019-09-24 02:21:11
[Tue 2019-09-24 02:21:11 PM] [client 192.168.49.1] update_tbl_admission_table Successfully Updated2019-09-24 02:21:11
[Tue 2019-09-24 02:21:11 PM] [client 192.168.49.1] update_learner_deregister_apply_table Successfully Updated2019-09-24 02:21:11
[Tue 2019-09-24 02:21:11 PM] [client 192.168.49.1] delete_biomatric_registration_entry Sucscessfully Deleted2019-09-24 02:21:11
[Tue 2019-09-24 02:21:11 PM] [client 192.168.49.1] update_tbl_admission_table Successfully Updated2019-09-24 02:21:11
[Tue 2019-09-24 02:21:11 PM] [client 192.168.49.1] update_learner_deregister_apply_table Successfully Updated2019-09-24 02:21:11
[Tue 2019-09-24 02:21:12 PM] [client 192.168.49.1] delete_biomatric_registration_entry Sucscessfully Deleted2019-09-24 02:21:12
[Tue 2019-09-24 02:21:12 PM] [client 192.168.49.1] update_tbl_admission_table Successfully Updated2019-09-24 02:21:12
[Tue 2019-09-24 02:21:12 PM] [client 192.168.49.1] update_learner_deregister_apply_table Successfully Updated2019-09-24 02:21:12
[Tue 2019-09-24 02:21:12 PM] [client 192.168.49.1] delete_biomatric_registration_entry Sucscessfully Deleted2019-09-24 02:21:12
[Tue 2019-09-24 02:21:12 PM] [client 192.168.49.1] update_tbl_admission_table Successfully Updated2019-09-24 02:21:12
[Tue 2019-09-24 02:21:12 PM] [client 192.168.49.1] update_learner_deregister_apply_table Successfully Updated2019-09-24 02:21:12
[Tue 2019-09-24 02:21:12 PM] [client 192.168.49.1] delete_biomatric_registration_entry Sucscessfully Deleted2019-09-24 02:21:12
[Tue 2019-09-24 02:21:12 PM] [client 192.168.49.1] update_tbl_admission_table Successfully Updated2019-09-24 02:21:12
[Tue 2019-09-24 02:21:12 PM] [client 192.168.49.1] update_learner_deregister_apply_table Successfully Updated2019-09-24 02:21:12
[Tue 2019-09-24 02:21:12 PM] [client 192.168.49.1] delete_biomatric_registration_entry Sucscessfully Deleted2019-09-24 02:21:12
[Tue 2019-09-24 02:21:12 PM] [client 192.168.49.1] update_tbl_admission_table Successfully Updated2019-09-24 02:21:12
[Tue 2019-09-24 02:21:12 PM] [client 192.168.49.1] update_learner_deregister_apply_table Successfully Updated2019-09-24 02:21:12
[Tue 2019-09-24 02:21:28 PM] [client 192.168.49.1] update_learner_deregister_apply_table_reject Successfully Updated2019-09-24 02:21:28
[Tue 2019-09-24 02:21:28 PM] [client 192.168.49.1] update_learner_deregister_apply_table_reject Successfully Updated2019-09-24 02:21:28
[Tue 2019-09-24 02:21:28 PM] [client 192.168.49.1] update_learner_deregister_apply_table_reject Successfully Updated2019-09-24 02:21:28
[Tue 2019-09-24 02:21:28 PM] [client 192.168.49.1] update_learner_deregister_apply_table_reject Successfully Updated2019-09-24 02:21:28
[Tue 2019-09-24 02:21:28 PM] [client 192.168.49.1] update_learner_deregister_apply_table_reject Successfully Updated2019-09-24 02:21:28
[Tue 2019-09-24 02:21:29 PM] [client 192.168.49.1] update_learner_deregister_apply_table_reject Successfully Updated2019-09-24 02:21:29
[Tue 2019-09-24 08:55:09 AM] [client 192.168.49.1] delete_biomatric_registration_entry Sucscessfully Deleted2019-09-24 08:55:09
[Tue 2019-09-24 08:55:09 AM] [client 192.168.49.1] update_tbl_admission_table Successfully Updated2019-09-24 08:55:09
[Tue 2019-09-24 02:25:09 PM] [client 192.168.49.1] update_learner_deregister_apply_table Successfully Updated2019-09-24 02:25:09
[Tue 2019-09-24 02:25:10 PM] [client 192.168.49.1] delete_biomatric_registration_entry Sucscessfully Deleted2019-09-24 02:25:10
[Tue 2019-09-24 02:25:10 PM] [client 192.168.49.1] update_tbl_admission_table Successfully Updated2019-09-24 02:25:10
[Tue 2019-09-24 02:25:10 PM] [client 192.168.49.1] update_learner_deregister_apply_table Successfully Updated2019-09-24 02:25:10
[Tue 2019-09-24 09:05:22 AM] [client 192.168.49.1] delete_biomatric_registration_entry Sucscessfully Deleted2019-09-24 09:05:22
[Tue 2019-09-24 09:05:22 AM] [client 192.168.49.1] update_tbl_admission_table Successfully Updated2019-09-24 09:05:22
[Tue 2019-09-24 02:35:22 PM] [client 192.168.49.1] update_learner_deregister_apply_table Successfully Updated2019-09-24 02:35:22
[Tue 2019-09-24 09:30:41 AM] [client 192.168.49.1] delete_biomatric_registration_entry Sucscessfully Deleted2019-09-24 09:30:41
[Tue 2019-09-24 09:30:42 AM] [client 192.168.49.1] update_tbl_admission_table Successfully Updated2019-09-24 09:30:42
[Tue 2019-09-24 03:00:42 PM] [client 192.168.49.1] update_learner_deregister_apply_table Successfully Updated2019-09-24 03:00:42
[Tue 2019-09-24 03:00:42 PM] [client 192.168.49.1] delete_biomatric_registration_entry Sucscessfully Deleted2019-09-24 03:00:42
[Tue 2019-09-24 03:00:42 PM] [client 192.168.49.1] update_tbl_admission_table Successfully Updated2019-09-24 03:00:42
[Tue 2019-09-24 03:00:42 PM] [client 192.168.49.1] update_learner_deregister_apply_table Successfully Updated2019-09-24 03:00:42
[Tue 2019-09-24 03:00:42 PM] [client 192.168.49.1] delete_biomatric_registration_entry Sucscessfully Deleted2019-09-24 03:00:42
[Tue 2019-09-24 03:00:42 PM] [client 192.168.49.1] update_tbl_admission_table Successfully Updated2019-09-24 03:00:42
[Tue 2019-09-24 03:00:42 PM] [client 192.168.49.1] update_learner_deregister_apply_table Successfully Updated2019-09-24 03:00:42
[Tue 2019-09-24 03:00:42 PM] [client 192.168.49.1] delete_biomatric_registration_entry Sucscessfully Deleted2019-09-24 03:00:42
[Tue 2019-09-24 03:00:42 PM] [client 192.168.49.1] update_tbl_admission_table Successfully Updated2019-09-24 03:00:42
[Tue 2019-09-24 03:00:42 PM] [client 192.168.49.1] update_learner_deregister_apply_table Successfully Updated2019-09-24 03:00:42
[Tue 2019-09-24 03:00:42 PM] [client 192.168.49.1] delete_biomatric_registration_entry Sucscessfully Deleted2019-09-24 03:00:42
[Tue 2019-09-24 03:00:42 PM] [client 192.168.49.1] update_tbl_admission_table Successfully Updated2019-09-24 03:00:42
[Tue 2019-09-24 03:00:42 PM] [client 192.168.49.1] update_learner_deregister_apply_table Successfully Updated2019-09-24 03:00:42
[Tue 2019-09-24 03:00:42 PM] [client 192.168.49.1] delete_biomatric_registration_entry Sucscessfully Deleted2019-09-24 03:00:42
[Tue 2019-09-24 03:00:42 PM] [client 192.168.49.1] update_tbl_admission_table Successfully Updated2019-09-24 03:00:42
[Tue 2019-09-24 03:00:42 PM] [client 192.168.49.1] update_learner_deregister_apply_table Successfully Updated2019-09-24 03:00:42
[Tue 2019-09-24 03:00:42 PM] [client 192.168.49.1] delete_biomatric_registration_entry Sucscessfully Deleted2019-09-24 03:00:42
[Tue 2019-09-24 03:00:42 PM] [client 192.168.49.1] update_tbl_admission_table Successfully Updated2019-09-24 03:00:42
[Tue 2019-09-24 03:00:42 PM] [client 192.168.49.1] update_learner_deregister_apply_table Successfully Updated2019-09-24 03:00:42
[Tue 2019-09-24 03:00:42 PM] [client 192.168.49.1] delete_biomatric_registration_entry Sucscessfully Deleted2019-09-24 03:00:42
[Tue 2019-09-24 03:00:42 PM] [client 192.168.49.1] update_tbl_admission_table Successfully Updated2019-09-24 03:00:42
[Tue 2019-09-24 03:00:42 PM] [client 192.168.49.1] update_learner_deregister_apply_table Successfully Updated2019-09-24 03:00:42
[Tue 2019-09-24 03:00:42 PM] [client 192.168.49.1] delete_biomatric_registration_entry Sucscessfully Deleted2019-09-24 03:00:42
[Tue 2019-09-24 03:00:42 PM] [client 192.168.49.1] update_tbl_admission_table Successfully Updated2019-09-24 03:00:42
[Tue 2019-09-24 03:00:42 PM] [client 192.168.49.1] update_learner_deregister_apply_table Successfully Updated2019-09-24 03:00:42
[Tue 2019-09-24 03:00:42 PM] [client 192.168.49.1] delete_biomatric_registration_entry Sucscessfully Deleted2019-09-24 03:00:42
[Tue 2019-09-24 03:00:42 PM] [client 192.168.49.1] update_tbl_admission_table Successfully Updated2019-09-24 03:00:42
[Tue 2019-09-24 03:00:42 PM] [client 192.168.49.1] update_learner_deregister_apply_table Successfully Updated2019-09-24 03:00:42
[Tue 2019-09-24 03:00:42 PM] [client 192.168.49.1] delete_biomatric_registration_entry Sucscessfully Deleted2019-09-24 03:00:42
[Tue 2019-09-24 03:00:42 PM] [client 192.168.49.1] update_tbl_admission_table Successfully Updated2019-09-24 03:00:42
[Tue 2019-09-24 03:00:42 PM] [client 192.168.49.1] update_learner_deregister_apply_table Successfully Updated2019-09-24 03:00:42
[Tue 2019-09-24 03:00:43 PM] [client 192.168.49.1] delete_biomatric_registration_entry Sucscessfully Deleted2019-09-24 03:00:43
[Tue 2019-09-24 03:00:43 PM] [client 192.168.49.1] update_tbl_admission_table Successfully Updated2019-09-24 03:00:43
[Tue 2019-09-24 03:00:43 PM] [client 192.168.49.1] update_learner_deregister_apply_table Successfully Updated2019-09-24 03:00:43
[Tue 2019-09-24 09:50:11 AM] [client 192.168.49.1] delete_biomatric_registration_entry Sucscessfully Deleted2019-09-24 09:50:11
[Tue 2019-09-24 09:50:11 AM] [client 192.168.49.1] update_tbl_admission_table Successfully Updated2019-09-24 09:50:11
[Tue 2019-09-24 03:20:11 PM] [client 192.168.49.1] update_learner_deregister_apply_table Successfully Updated2019-09-24 03:20:11
[Tue 2019-09-24 03:20:22 PM] [client 192.168.49.1] update_learner_deregister_apply_table_reject Successfully Updated2019-09-24 03:20:22
[Tue 2019-09-24 09:53:11 AM] [client 192.168.49.1] delete_biomatric_registration_entry Sucscessfully Deleted2019-09-24 09:53:11
[Tue 2019-09-24 09:53:11 AM] [client 192.168.49.1] update_tbl_admission_table Successfully Updated2019-09-24 09:53:11
[Tue 2019-09-24 03:23:11 PM] [client 192.168.49.1] update_learner_deregister_apply_table Successfully Updated2019-09-24 03:23:11
[Tue 2019-09-24 03:23:11 PM] [client 192.168.49.1] delete_biomatric_registration_entry Sucscessfully Deleted2019-09-24 03:23:11
[Tue 2019-09-24 03:23:11 PM] [client 192.168.49.1] update_tbl_admission_table Successfully Updated2019-09-24 03:23:11
[Tue 2019-09-24 03:23:11 PM] [client 192.168.49.1] update_learner_deregister_apply_table Successfully Updated2019-09-24 03:23:11
[Tue 2019-09-24 03:23:12 PM] [client 192.168.49.1] delete_biomatric_registration_entry Sucscessfully Deleted2019-09-24 03:23:12
[Tue 2019-09-24 03:23:12 PM] [client 192.168.49.1] update_tbl_admission_table Successfully Updated2019-09-24 03:23:12
[Tue 2019-09-24 03:23:12 PM] [client 192.168.49.1] update_learner_deregister_apply_table Successfully Updated2019-09-24 03:23:12
[Tue 2019-09-24 09:55:10 AM] [client 192.168.49.1] delete_biomatric_registration_entry Sucscessfully Deleted2019-09-24 09:55:10
[Tue 2019-09-24 09:55:10 AM] [client 192.168.49.1] update_tbl_admission_table Successfully Updated2019-09-24 09:55:10
[Tue 2019-09-24 03:25:10 PM] [client 192.168.49.1] update_learner_deregister_apply_table Successfully Updated2019-09-24 03:25:10
[Tue 2019-09-24 10:16:15 AM] [client 192.168.49.1] delete_biomatric_registration_entry Sucscessfully Deleted2019-09-24 10:16:15
[Tue 2019-09-24 10:16:15 AM] [client 192.168.49.1] update_tbl_admission_table Successfully Updated2019-09-24 10:16:15
[Tue 2019-09-24 03:46:15 PM] [client 192.168.49.1] update_learner_deregister_apply_table Successfully Updated2019-09-24 03:46:15
[Tue 2019-09-24 03:46:15 PM] [client 192.168.49.1] delete_biomatric_registration_entry Sucscessfully Deleted2019-09-24 03:46:15
[Tue 2019-09-24 03:46:15 PM] [client 192.168.49.1] update_tbl_admission_table Successfully Updated2019-09-24 03:46:15
[Tue 2019-09-24 03:46:15 PM] [client 192.168.49.1] update_learner_deregister_apply_table Successfully Updated2019-09-24 03:46:15
[Tue 2019-09-24 03:46:15 PM] [client 192.168.49.1] delete_biomatric_registration_entry Sucscessfully Deleted2019-09-24 03:46:15
[Tue 2019-09-24 03:46:15 PM] [client 192.168.49.1] update_tbl_admission_table Successfully Updated2019-09-24 03:46:15
[Tue 2019-09-24 03:46:15 PM] [client 192.168.49.1] update_learner_deregister_apply_table Successfully Updated2019-09-24 03:46:15
[Tue 2019-09-24 03:46:15 PM] [client 192.168.49.1] delete_biomatric_registration_entry Sucscessfully Deleted2019-09-24 03:46:15
[Tue 2019-09-24 03:46:15 PM] [client 192.168.49.1] update_tbl_admission_table Successfully Updated2019-09-24 03:46:15
[Tue 2019-09-24 03:46:15 PM] [client 192.168.49.1] update_learner_deregister_apply_table Successfully Updated2019-09-24 03:46:15
[Tue 2019-09-24 03:46:15 PM] [client 192.168.49.1] delete_biomatric_registration_entry Sucscessfully Deleted2019-09-24 03:46:15
[Tue 2019-09-24 03:46:15 PM] [client 192.168.49.1] update_tbl_admission_table Successfully Updated2019-09-24 03:46:15
[Tue 2019-09-24 03:46:15 PM] [client 192.168.49.1] update_learner_deregister_apply_table Successfully Updated2019-09-24 03:46:15
[Tue 2019-09-24 03:50:43 PM] [client 192.168.49.1] update_learner_deregister_apply_table_reject Successfully Updated2019-09-24 03:50:43
[Tue 2019-09-24 10:25:59 AM] [client 192.168.49.1] delete_biomatric_registration_entry Sucscessfully Deleted2019-09-24 10:25:59
[Tue 2019-09-24 10:25:59 AM] [client 192.168.49.1] update_tbl_admission_table Successfully Updated2019-09-24 10:25:59
[Tue 2019-09-24 03:55:59 PM] [client 192.168.49.1] update_learner_deregister_apply_table Successfully Updated2019-09-24 03:55:59
[Tue 2019-09-24 03:56:00 PM] [client 192.168.49.1] delete_biomatric_registration_entry Sucscessfully Deleted2019-09-24 03:56:00
[Tue 2019-09-24 03:56:00 PM] [client 192.168.49.1] update_tbl_admission_table Successfully Updated2019-09-24 03:56:00
[Tue 2019-09-24 03:56:00 PM] [client 192.168.49.1] update_learner_deregister_apply_table Successfully Updated2019-09-24 03:56:00
[Tue 2019-09-24 03:56:00 PM] [client 192.168.49.1] delete_biomatric_registration_entry Sucscessfully Deleted2019-09-24 03:56:00
[Tue 2019-09-24 03:56:00 PM] [client 192.168.49.1] update_tbl_admission_table Successfully Updated2019-09-24 03:56:00
[Tue 2019-09-24 03:56:00 PM] [client 192.168.49.1] update_learner_deregister_apply_table Successfully Updated2019-09-24 03:56:00
[Tue 2019-09-24 03:56:00 PM] [client 192.168.49.1] delete_biomatric_registration_entry Sucscessfully Deleted2019-09-24 03:56:00
[Tue 2019-09-24 03:56:00 PM] [client 192.168.49.1] update_tbl_admission_table Successfully Updated2019-09-24 03:56:00
[Tue 2019-09-24 03:56:00 PM] [client 192.168.49.1] update_learner_deregister_apply_table Successfully Updated2019-09-24 03:56:00
[Tue 2019-09-24 03:56:00 PM] [client 192.168.49.1] delete_biomatric_registration_entry Sucscessfully Deleted2019-09-24 03:56:00
[Tue 2019-09-24 03:56:00 PM] [client 192.168.49.1] update_tbl_admission_table Successfully Updated2019-09-24 03:56:00
[Tue 2019-09-24 03:56:00 PM] [client 192.168.49.1] update_learner_deregister_apply_table Successfully Updated2019-09-24 03:56:00
[Tue 2019-09-24 10:56:40 AM] [client 192.168.49.1] delete_biomatric_registration_entry Sucscessfully Deleted2019-09-24 10:56:40
[Tue 2019-09-24 10:56:40 AM] [client 192.168.49.1] update_tbl_admission_table Successfully Updated2019-09-24 10:56:40
[Tue 2019-09-24 04:26:40 PM] [client 192.168.49.1] update_learner_deregister_apply_table Successfully Updated2019-09-24 04:26:40
[Tue 2019-09-24 04:26:40 PM] [client 192.168.49.1] delete_biomatric_registration_entry Sucscessfully Deleted2019-09-24 04:26:40
[Tue 2019-09-24 04:26:40 PM] [client 192.168.49.1] update_tbl_admission_table Successfully Updated2019-09-24 04:26:40
[Tue 2019-09-24 04:26:40 PM] [client 192.168.49.1] update_learner_deregister_apply_table Successfully Updated2019-09-24 04:26:40
[Tue 2019-09-24 04:26:41 PM] [client 192.168.49.1] delete_biomatric_registration_entry Sucscessfully Deleted2019-09-24 04:26:41
[Tue 2019-09-24 04:26:41 PM] [client 192.168.49.1] update_tbl_admission_table Successfully Updated2019-09-24 04:26:41
[Tue 2019-09-24 04:26:41 PM] [client 192.168.49.1] update_learner_deregister_apply_table Successfully Updated2019-09-24 04:26:41
[Tue 2019-09-24 04:26:41 PM] [client 192.168.49.1] delete_biomatric_registration_entry Sucscessfully Deleted2019-09-24 04:26:41
[Tue 2019-09-24 04:26:41 PM] [client 192.168.49.1] update_tbl_admission_table Successfully Updated2019-09-24 04:26:41
[Tue 2019-09-24 04:26:41 PM] [client 192.168.49.1] update_learner_deregister_apply_table Successfully Updated2019-09-24 04:26:41
[Tue 2019-09-24 04:26:41 PM] [client 192.168.49.1] delete_biomatric_registration_entry Sucscessfully Deleted2019-09-24 04:26:41
[Tue 2019-09-24 04:26:41 PM] [client 192.168.49.1] update_tbl_admission_table Successfully Updated2019-09-24 04:26:41
[Tue 2019-09-24 04:26:41 PM] [client 192.168.49.1] update_learner_deregister_apply_table Successfully Updated2019-09-24 04:26:41
[Tue 2019-09-24 04:26:41 PM] [client 192.168.49.1] delete_biomatric_registration_entry Sucscessfully Deleted2019-09-24 04:26:41
[Tue 2019-09-24 04:26:41 PM] [client 192.168.49.1] update_tbl_admission_table Successfully Updated2019-09-24 04:26:41
[Tue 2019-09-24 04:26:41 PM] [client 192.168.49.1] update_learner_deregister_apply_table Successfully Updated2019-09-24 04:26:41
[Tue 2019-09-24 04:26:41 PM] [client 192.168.49.1] delete_biomatric_registration_entry Sucscessfully Deleted2019-09-24 04:26:41
[Tue 2019-09-24 04:26:41 PM] [client 192.168.49.1] update_tbl_admission_table Successfully Updated2019-09-24 04:26:41
[Tue 2019-09-24 04:26:41 PM] [client 192.168.49.1] update_learner_deregister_apply_table Successfully Updated2019-09-24 04:26:41
[Tue 2019-09-24 10:57:17 AM] [client 192.168.49.1] delete_biomatric_registration_entry Sucscessfully Deleted2019-09-24 10:57:17
[Tue 2019-09-24 10:57:17 AM] [client 192.168.49.1] update_tbl_admission_table Successfully Updated2019-09-24 10:57:17
[Tue 2019-09-24 04:27:17 PM] [client 192.168.49.1] update_learner_deregister_apply_table Successfully Updated2019-09-24 04:27:17
[Tue 2019-09-24 10:57:27 AM] [client 192.168.49.1] delete_biomatric_registration_entry Sucscessfully Deleted2019-09-24 10:57:27
[Tue 2019-09-24 10:57:27 AM] [client 192.168.49.1] update_tbl_admission_table Successfully Updated2019-09-24 10:57:27
[Tue 2019-09-24 04:27:27 PM] [client 192.168.49.1] update_learner_deregister_apply_table Successfully Updated2019-09-24 04:27:27
[Tue 2019-09-24 10:57:39 AM] [client 192.168.49.1] delete_biomatric_registration_entry Sucscessfully Deleted2019-09-24 10:57:39
[Tue 2019-09-24 10:57:39 AM] [client 192.168.49.1] update_tbl_admission_table Successfully Updated2019-09-24 10:57:39
[Tue 2019-09-24 04:27:39 PM] [client 192.168.49.1] update_learner_deregister_apply_table Successfully Updated2019-09-24 04:27:39
[Tue 2019-09-24 04:27:47 PM] [client 192.168.49.1] update_learner_deregister_apply_table_reject Successfully Updated2019-09-24 04:27:47
[Tue 2019-09-24 11:06:09 AM] [client 192.168.49.1] delete_biomatric_registration_entry Sucscessfully Deleted2019-09-24 11:06:09
[Tue 2019-09-24 11:06:09 AM] [client 192.168.49.1] update_tbl_admission_table Successfully Updated2019-09-24 11:06:09
[Tue 2019-09-24 04:36:09 PM] [client 192.168.49.1] update_learner_deregister_apply_table Successfully Updated2019-09-24 04:36:09
[Tue 2019-09-24 04:36:16 PM] [client 192.168.49.1] update_learner_deregister_apply_table_reject Successfully Updated2019-09-24 04:36:16
[Tue 2019-09-24 11:24:45 AM] [client 192.168.49.1] delete_biomatric_registration_entry Sucscessfully Deleted2019-09-24 11:24:45
[Tue 2019-09-24 11:24:45 AM] [client 192.168.49.1] update_tbl_admission_table Successfully Updated2019-09-24 11:24:45
[Tue 2019-09-24 04:54:45 PM] [client 192.168.49.1] update_learner_deregister_apply_table Successfully Updated2019-09-24 04:54:45
[Tue 2019-09-24 04:54:45 PM] [client 192.168.49.1] delete_biomatric_registration_entry Sucscessfully Deleted2019-09-24 04:54:45
[Tue 2019-09-24 04:54:45 PM] [client 192.168.49.1] update_tbl_admission_table Successfully Updated2019-09-24 04:54:45
[Tue 2019-09-24 04:54:45 PM] [client 192.168.49.1] update_learner_deregister_apply_table Successfully Updated2019-09-24 04:54:45
[Tue 2019-09-24 04:54:45 PM] [client 192.168.49.1] delete_biomatric_registration_entry Sucscessfully Deleted2019-09-24 04:54:45
[Tue 2019-09-24 04:54:45 PM] [client 192.168.49.1] update_tbl_admission_table Successfully Updated2019-09-24 04:54:45
[Tue 2019-09-24 04:54:45 PM] [client 192.168.49.1] update_learner_deregister_apply_table Successfully Updated2019-09-24 04:54:45
[Tue 2019-09-24 04:54:46 PM] [client 192.168.49.1] delete_biomatric_registration_entry Sucscessfully Deleted2019-09-24 04:54:46
[Tue 2019-09-24 04:54:46 PM] [client 192.168.49.1] update_tbl_admission_table Successfully Updated2019-09-24 04:54:46
[Tue 2019-09-24 04:54:46 PM] [client 192.168.49.1] update_learner_deregister_apply_table Successfully Updated2019-09-24 04:54:46
[Tue 2019-09-24 04:54:46 PM] [client 192.168.49.1] delete_biomatric_registration_entry Sucscessfully Deleted2019-09-24 04:54:46
[Tue 2019-09-24 04:54:46 PM] [client 192.168.49.1] update_tbl_admission_table Successfully Updated2019-09-24 04:54:46
[Tue 2019-09-24 04:54:46 PM] [client 192.168.49.1] update_learner_deregister_apply_table Successfully Updated2019-09-24 04:54:46
[Tue 2019-09-24 04:54:46 PM] [client 192.168.49.1] delete_biomatric_registration_entry Sucscessfully Deleted2019-09-24 04:54:46
[Tue 2019-09-24 04:54:46 PM] [client 192.168.49.1] update_tbl_admission_table Successfully Updated2019-09-24 04:54:46
[Tue 2019-09-24 04:54:46 PM] [client 192.168.49.1] update_learner_deregister_apply_table Successfully Updated2019-09-24 04:54:46
[Tue 2019-09-24 04:54:46 PM] [client 192.168.49.1] delete_biomatric_registration_entry Sucscessfully Deleted2019-09-24 04:54:46
[Tue 2019-09-24 04:54:46 PM] [client 192.168.49.1] update_tbl_admission_table Successfully Updated2019-09-24 04:54:46
[Tue 2019-09-24 04:54:46 PM] [client 192.168.49.1] update_learner_deregister_apply_table Successfully Updated2019-09-24 04:54:46
[Tue 2019-09-24 04:54:46 PM] [client 192.168.49.1] delete_biomatric_registration_entry Sucscessfully Deleted2019-09-24 04:54:46
[Tue 2019-09-24 04:54:46 PM] [client 192.168.49.1] update_tbl_admission_table Successfully Updated2019-09-24 04:54:46
[Tue 2019-09-24 04:54:46 PM] [client 192.168.49.1] update_learner_deregister_apply_table Successfully Updated2019-09-24 04:54:46
[Tue 2019-09-24 04:54:46 PM] [client 192.168.49.1] delete_biomatric_registration_entry Sucscessfully Deleted2019-09-24 04:54:46
[Tue 2019-09-24 04:54:46 PM] [client 192.168.49.1] update_tbl_admission_table Successfully Updated2019-09-24 04:54:46
[Tue 2019-09-24 04:54:46 PM] [client 192.168.49.1] update_learner_deregister_apply_table Successfully Updated2019-09-24 04:54:46
[Tue 2019-09-24 12:01:22 PM] [client 192.168.49.1] delete_biomatric_registration_entry Sucscessfully Deleted2019-09-24 12:01:22
[Tue 2019-09-24 12:01:22 PM] [client 192.168.49.1] update_tbl_admission_table Successfully Updated2019-09-24 12:01:22
[Tue 2019-09-24 05:31:22 PM] [client 192.168.49.1] update_learner_deregister_apply_table Successfully Updated2019-09-24 05:31:22
[Tue 2019-09-24 05:31:22 PM] [client 192.168.49.1] delete_biomatric_registration_entry Sucscessfully Deleted2019-09-24 05:31:22
[Tue 2019-09-24 05:31:22 PM] [client 192.168.49.1] update_tbl_admission_table Successfully Updated2019-09-24 05:31:22
[Tue 2019-09-24 05:31:22 PM] [client 192.168.49.1] update_learner_deregister_apply_table Successfully Updated2019-09-24 05:31:22
[Tue 2019-09-24 05:31:23 PM] [client 192.168.49.1] delete_biomatric_registration_entry Sucscessfully Deleted2019-09-24 05:31:23
[Tue 2019-09-24 05:31:23 PM] [client 192.168.49.1] update_tbl_admission_table Successfully Updated2019-09-24 05:31:23
[Tue 2019-09-24 05:31:23 PM] [client 192.168.49.1] update_learner_deregister_apply_table Successfully Updated2019-09-24 05:31:23
[Tue 2019-09-24 05:31:23 PM] [client 192.168.49.1] delete_biomatric_registration_entry Sucscessfully Deleted2019-09-24 05:31:23
[Tue 2019-09-24 05:31:23 PM] [client 192.168.49.1] update_tbl_admission_table Successfully Updated2019-09-24 05:31:23
[Tue 2019-09-24 05:31:23 PM] [client 192.168.49.1] update_learner_deregister_apply_table Successfully Updated2019-09-24 05:31:23
[Tue 2019-09-24 05:31:23 PM] [client 192.168.49.1] delete_biomatric_registration_entry Sucscessfully Deleted2019-09-24 05:31:23
[Tue 2019-09-24 05:31:23 PM] [client 192.168.49.1] update_tbl_admission_table Successfully Updated2019-09-24 05:31:23
[Tue 2019-09-24 05:31:23 PM] [client 192.168.49.1] update_learner_deregister_apply_table Successfully Updated2019-09-24 05:31:23
[Tue 2019-09-24 05:31:23 PM] [client 192.168.49.1] delete_biomatric_registration_entry Sucscessfully Deleted2019-09-24 05:31:23
[Tue 2019-09-24 05:31:23 PM] [client 192.168.49.1] update_tbl_admission_table Successfully Updated2019-09-24 05:31:23
[Tue 2019-09-24 05:31:23 PM] [client 192.168.49.1] update_learner_deregister_apply_table Successfully Updated2019-09-24 05:31:23
[Tue 2019-09-24 05:31:23 PM] [client 192.168.49.1] delete_biomatric_registration_entry Sucscessfully Deleted2019-09-24 05:31:23
[Tue 2019-09-24 05:31:23 PM] [client 192.168.49.1] update_tbl_admission_table Successfully Updated2019-09-24 05:31:23
[Tue 2019-09-24 05:31:23 PM] [client 192.168.49.1] update_learner_deregister_apply_table Successfully Updated2019-09-24 05:31:23
[Tue 2019-09-24 05:31:23 PM] [client 192.168.49.1] delete_biomatric_registration_entry Sucscessfully Deleted2019-09-24 05:31:23
[Tue 2019-09-24 05:31:23 PM] [client 192.168.49.1] update_tbl_admission_table Successfully Updated2019-09-24 05:31:23
[Tue 2019-09-24 05:31:23 PM] [client 192.168.49.1] update_learner_deregister_apply_table Successfully Updated2019-09-24 05:31:23
[Tue 2019-09-24 05:31:33 PM] [client 192.168.49.1] update_learner_deregister_apply_table_reject Successfully Updated2019-09-24 05:31:33
[Tue 2019-09-24 05:31:33 PM] [client 192.168.49.1] update_learner_deregister_apply_table_reject Successfully Updated2019-09-24 05:31:33
[Tue 2019-09-24 05:31:34 PM] [client 192.168.49.1] update_learner_deregister_apply_table_reject Successfully Updated2019-09-24 05:31:34
[Tue 2019-09-24 05:31:34 PM] [client 192.168.49.1] update_learner_deregister_apply_table_reject Successfully Updated2019-09-24 05:31:34
[Tue 2019-09-24 12:02:01 PM] [client 192.168.49.1] delete_biomatric_registration_entry Sucscessfully Deleted2019-09-24 12:02:01
[Tue 2019-09-24 12:02:01 PM] [client 192.168.49.1] update_tbl_admission_table Successfully Updated2019-09-24 12:02:01
[Tue 2019-09-24 05:32:01 PM] [client 192.168.49.1] update_learner_deregister_apply_table Successfully Updated2019-09-24 05:32:01
[Tue 2019-09-24 12:03:03 PM] [client 192.168.49.1] delete_biomatric_registration_entry Sucscessfully Deleted2019-09-24 12:03:03
[Tue 2019-09-24 12:03:03 PM] [client 192.168.49.1] update_tbl_admission_table Successfully Updated2019-09-24 12:03:03
[Tue 2019-09-24 05:33:03 PM] [client 192.168.49.1] update_learner_deregister_apply_table Successfully Updated2019-09-24 05:33:03
[Tue 2019-09-24 12:24:57 PM] [client 192.168.49.1] delete_biomatric_registration_entry Sucscessfully Deleted2019-09-24 12:24:57
[Tue 2019-09-24 12:24:57 PM] [client 192.168.49.1] update_tbl_admission_table Successfully Updated2019-09-24 12:24:57
[Tue 2019-09-24 05:54:57 PM] [client 192.168.49.1] update_learner_deregister_apply_table Successfully Updated2019-09-24 05:54:57
[Tue 2019-09-24 05:54:57 PM] [client 192.168.49.1] delete_biomatric_registration_entry Sucscessfully Deleted2019-09-24 05:54:57
[Tue 2019-09-24 05:54:57 PM] [client 192.168.49.1] update_tbl_admission_table Successfully Updated2019-09-24 05:54:57
[Tue 2019-09-24 05:54:57 PM] [client 192.168.49.1] update_learner_deregister_apply_table Successfully Updated2019-09-24 05:54:57
[Tue 2019-09-24 05:54:57 PM] [client 192.168.49.1] delete_biomatric_registration_entry Sucscessfully Deleted2019-09-24 05:54:57
[Tue 2019-09-24 05:54:57 PM] [client 192.168.49.1] update_tbl_admission_table Successfully Updated2019-09-24 05:54:57
[Tue 2019-09-24 05:54:57 PM] [client 192.168.49.1] update_learner_deregister_apply_table Successfully Updated2019-09-24 05:54:57
[Tue 2019-09-24 05:54:58 PM] [client 192.168.49.1] delete_biomatric_registration_entry Sucscessfully Deleted2019-09-24 05:54:58
[Tue 2019-09-24 05:54:58 PM] [client 192.168.49.1] update_tbl_admission_table Successfully Updated2019-09-24 05:54:58
[Tue 2019-09-24 05:54:58 PM] [client 192.168.49.1] update_learner_deregister_apply_table Successfully Updated2019-09-24 05:54:58
[Tue 2019-09-24 05:54:58 PM] [client 192.168.49.1] delete_biomatric_registration_entry Sucscessfully Deleted2019-09-24 05:54:58
[Tue 2019-09-24 05:54:58 PM] [client 192.168.49.1] update_tbl_admission_table Successfully Updated2019-09-24 05:54:58
[Tue 2019-09-24 05:54:58 PM] [client 192.168.49.1] update_learner_deregister_apply_table Successfully Updated2019-09-24 05:54:58
[Tue 2019-09-24 05:54:58 PM] [client 192.168.49.1] delete_biomatric_registration_entry Sucscessfully Deleted2019-09-24 05:54:58
[Tue 2019-09-24 05:54:58 PM] [client 192.168.49.1] update_tbl_admission_table Successfully Updated2019-09-24 05:54:58
[Tue 2019-09-24 05:54:58 PM] [client 192.168.49.1] update_learner_deregister_apply_table Successfully Updated2019-09-24 05:54:58
[Tue 2019-09-24 05:54:58 PM] [client 192.168.49.1] delete_biomatric_registration_entry Sucscessfully Deleted2019-09-24 05:54:58
[Tue 2019-09-24 05:54:58 PM] [client 192.168.49.1] update_tbl_admission_table Successfully Updated2019-09-24 05:54:58
[Tue 2019-09-24 05:54:58 PM] [client 192.168.49.1] update_learner_deregister_apply_table Successfully Updated2019-09-24 05:54:58
[Tue 2019-09-24 12:32:35 PM] [client 192.168.49.1] delete_biomatric_registration_entry Sucscessfully Deleted2019-09-24 12:32:35
[Tue 2019-09-24 12:32:35 PM] [client 192.168.49.1] update_tbl_admission_table Successfully Updated2019-09-24 12:32:35
[Tue 2019-09-24 06:02:35 PM] [client 192.168.49.1] update_learner_deregister_apply_table Successfully Updated2019-09-24 06:02:35
[Tue 2019-09-24 06:02:35 PM] [client 192.168.49.1] delete_biomatric_registration_entry Sucscessfully Deleted2019-09-24 06:02:35
[Tue 2019-09-24 06:02:35 PM] [client 192.168.49.1] update_tbl_admission_table Successfully Updated2019-09-24 06:02:35
[Tue 2019-09-24 06:02:35 PM] [client 192.168.49.1] update_learner_deregister_apply_table Successfully Updated2019-09-24 06:02:35
[Tue 2019-09-24 06:02:35 PM] [client 192.168.49.1] delete_biomatric_registration_entry Sucscessfully Deleted2019-09-24 06:02:35
[Tue 2019-09-24 06:02:35 PM] [client 192.168.49.1] update_tbl_admission_table Successfully Updated2019-09-24 06:02:35
[Tue 2019-09-24 06:02:35 PM] [client 192.168.49.1] update_learner_deregister_apply_table Successfully Updated2019-09-24 06:02:35
[Tue 2019-09-24 06:02:35 PM] [client 192.168.49.1] delete_biomatric_registration_entry Sucscessfully Deleted2019-09-24 06:02:35
[Tue 2019-09-24 06:02:35 PM] [client 192.168.49.1] update_tbl_admission_table Successfully Updated2019-09-24 06:02:35
[Tue 2019-09-24 06:02:35 PM] [client 192.168.49.1] update_learner_deregister_apply_table Successfully Updated2019-09-24 06:02:35
[Tue 2019-09-24 12:32:47 PM] [client 192.168.49.1] delete_biomatric_registration_entry Sucscessfully Deleted2019-09-24 12:32:47
[Tue 2019-09-24 12:32:47 PM] [client 192.168.49.1] update_tbl_admission_table Successfully Updated2019-09-24 12:32:47
[Tue 2019-09-24 06:02:47 PM] [client 192.168.49.1] update_learner_deregister_apply_table Successfully Updated2019-09-24 06:02:47
[Tue 2019-09-24 12:36:41 PM] [client 192.168.49.1] delete_biomatric_registration_entry Sucscessfully Deleted2019-09-24 12:36:41
[Tue 2019-09-24 12:36:41 PM] [client 192.168.49.1] update_tbl_admission_table Successfully Updated2019-09-24 12:36:41
[Tue 2019-09-24 06:06:41 PM] [client 192.168.49.1] update_learner_deregister_apply_table Successfully Updated2019-09-24 06:06:41
[Tue 2019-09-24 06:06:41 PM] [client 192.168.49.1] delete_biomatric_registration_entry Sucscessfully Deleted2019-09-24 06:06:41
[Tue 2019-09-24 06:06:41 PM] [client 192.168.49.1] update_tbl_admission_table Successfully Updated2019-09-24 06:06:41
[Tue 2019-09-24 06:06:41 PM] [client 192.168.49.1] update_learner_deregister_apply_table Successfully Updated2019-09-24 06:06:41
[Tue 2019-09-24 06:06:41 PM] [client 192.168.49.1] delete_biomatric_registration_entry Sucscessfully Deleted2019-09-24 06:06:41
[Tue 2019-09-24 06:06:41 PM] [client 192.168.49.1] update_tbl_admission_table Successfully Updated2019-09-24 06:06:41
[Tue 2019-09-24 06:06:41 PM] [client 192.168.49.1] update_learner_deregister_apply_table Successfully Updated2019-09-24 06:06:41
[Tue 2019-09-24 06:06:41 PM] [client 192.168.49.1] delete_biomatric_registration_entry Sucscessfully Deleted2019-09-24 06:06:41
[Tue 2019-09-24 06:06:41 PM] [client 192.168.49.1] update_tbl_admission_table Successfully Updated2019-09-24 06:06:41
[Tue 2019-09-24 06:06:41 PM] [client 192.168.49.1] update_learner_deregister_apply_table Successfully Updated2019-09-24 06:06:41
[Tue 2019-09-24 06:06:41 PM] [client 192.168.49.1] delete_biomatric_registration_entry Sucscessfully Deleted2019-09-24 06:06:41
[Tue 2019-09-24 06:06:41 PM] [client 192.168.49.1] update_tbl_admission_table Successfully Updated2019-09-24 06:06:41
[Tue 2019-09-24 06:06:41 PM] [client 192.168.49.1] update_learner_deregister_apply_table Successfully Updated2019-09-24 06:06:41
[Tue 2019-09-24 12:38:49 PM] [client 192.168.49.1] delete_biomatric_registration_entry Sucscessfully Deleted2019-09-24 12:38:49
[Tue 2019-09-24 12:38:49 PM] [client 192.168.49.1] update_tbl_admission_table Successfully Updated2019-09-24 12:38:49
[Tue 2019-09-24 06:08:49 PM] [client 192.168.49.1] update_learner_deregister_apply_table Successfully Updated2019-09-24 06:08:49
[Tue 2019-09-24 06:08:50 PM] [client 192.168.49.1] delete_biomatric_registration_entry Sucscessfully Deleted2019-09-24 06:08:50
[Tue 2019-09-24 06:08:50 PM] [client 192.168.49.1] update_tbl_admission_table Successfully Updated2019-09-24 06:08:50
[Tue 2019-09-24 06:08:50 PM] [client 192.168.49.1] update_learner_deregister_apply_table Successfully Updated2019-09-24 06:08:50
[Tue 2019-09-24 06:08:50 PM] [client 192.168.49.1] delete_biomatric_registration_entry Sucscessfully Deleted2019-09-24 06:08:50
[Tue 2019-09-24 06:08:50 PM] [client 192.168.49.1] update_tbl_admission_table Successfully Updated2019-09-24 06:08:50
[Tue 2019-09-24 06:08:50 PM] [client 192.168.49.1] update_learner_deregister_apply_table Successfully Updated2019-09-24 06:08:50
[Tue 2019-09-24 06:08:50 PM] [client 192.168.49.1] delete_biomatric_registration_entry Sucscessfully Deleted2019-09-24 06:08:50
[Tue 2019-09-24 06:08:50 PM] [client 192.168.49.1] update_tbl_admission_table Successfully Updated2019-09-24 06:08:50
[Tue 2019-09-24 06:08:50 PM] [client 192.168.49.1] update_learner_deregister_apply_table Successfully Updated2019-09-24 06:08:50
[Tue 2019-09-24 06:08:50 PM] [client 192.168.49.1] delete_biomatric_registration_entry Sucscessfully Deleted2019-09-24 06:08:50
[Tue 2019-09-24 06:08:50 PM] [client 192.168.49.1] update_tbl_admission_table Successfully Updated2019-09-24 06:08:50
[Tue 2019-09-24 06:08:50 PM] [client 192.168.49.1] update_learner_deregister_apply_table Successfully Updated2019-09-24 06:08:50
[Tue 2019-09-24 12:41:18 PM] [client 192.168.49.1] delete_biomatric_registration_entry Sucscessfully Deleted2019-09-24 12:41:18
[Tue 2019-09-24 12:41:18 PM] [client 192.168.49.1] update_tbl_admission_table Successfully Updated2019-09-24 12:41:18
[Tue 2019-09-24 06:11:18 PM] [client 192.168.49.1] update_learner_deregister_apply_table Successfully Updated2019-09-24 06:11:18
