[Tue 2020-01-07 04:04:00 AM] [client 192.168.49.1] delete_biomatric_registration_entry Sucscessfully Deleted2020-01-07 04:04:00
[Tue 2020-01-07 04:04:00 AM] [client 192.168.49.1] update_tbl_admission_table Successfully Updated2020-01-07 04:04:00
[Tue 2020-01-07 09:34:00 AM] [client 192.168.49.1] update_learner_deregister_apply_table Successfully Updated2020-01-07 09:34:00
[Tue 2020-01-07 09:34:00 AM] [client 192.168.49.1] delete_biomatric_registration_entry Sucscessfully Deleted2020-01-07 09:34:00
[Tue 2020-01-07 09:34:00 AM] [client 192.168.49.1] update_tbl_admission_table Successfully Updated2020-01-07 09:34:00
[Tue 2020-01-07 09:34:00 AM] [client 192.168.49.1] update_learner_deregister_apply_table Successfully Updated2020-01-07 09:34:00
[Tue 2020-01-07 09:34:00 AM] [client 192.168.49.1] delete_biomatric_registration_entry Sucscessfully Deleted2020-01-07 09:34:00
[Tue 2020-01-07 09:34:00 AM] [client 192.168.49.1] update_tbl_admission_table Successfully Updated2020-01-07 09:34:00
[Tue 2020-01-07 09:34:00 AM] [client 192.168.49.1] update_learner_deregister_apply_table Successfully Updated2020-01-07 09:34:00
[Tue 2020-01-07 09:34:01 AM] [client 192.168.49.1] delete_biomatric_registration_entry Sucscessfully Deleted2020-01-07 09:34:01
[Tue 2020-01-07 09:34:01 AM] [client 192.168.49.1] update_tbl_admission_table Successfully Updated2020-01-07 09:34:01
[Tue 2020-01-07 09:34:01 AM] [client 192.168.49.1] update_learner_deregister_apply_table Successfully Updated2020-01-07 09:34:01
[Tue 2020-01-07 09:34:01 AM] [client 192.168.49.1] delete_biomatric_registration_entry Sucscessfully Deleted2020-01-07 09:34:01
[Tue 2020-01-07 09:34:01 AM] [client 192.168.49.1] update_tbl_admission_table Successfully Updated2020-01-07 09:34:01
[Tue 2020-01-07 09:34:01 AM] [client 192.168.49.1] update_learner_deregister_apply_table Successfully Updated2020-01-07 09:34:01
[Tue 2020-01-07 09:34:01 AM] [client 192.168.49.1] delete_biomatric_registration_entry Sucscessfully Deleted2020-01-07 09:34:01
[Tue 2020-01-07 09:34:01 AM] [client 192.168.49.1] update_tbl_admission_table Successfully Updated2020-01-07 09:34:01
[Tue 2020-01-07 09:34:01 AM] [client 192.168.49.1] update_learner_deregister_apply_table Successfully Updated2020-01-07 09:34:01
[Tue 2020-01-07 09:34:01 AM] [client 192.168.49.1] delete_biomatric_registration_entry Sucscessfully Deleted2020-01-07 09:34:01
[Tue 2020-01-07 09:34:01 AM] [client 192.168.49.1] update_tbl_admission_table Successfully Updated2020-01-07 09:34:01
[Tue 2020-01-07 09:34:01 AM] [client 192.168.49.1] update_learner_deregister_apply_table Successfully Updated2020-01-07 09:34:01
[Tue 2020-01-07 09:34:01 AM] [client 192.168.49.1] delete_biomatric_registration_entry Sucscessfully Deleted2020-01-07 09:34:01
[Tue 2020-01-07 09:34:01 AM] [client 192.168.49.1] update_tbl_admission_table Successfully Updated2020-01-07 09:34:01
[Tue 2020-01-07 09:34:01 AM] [client 192.168.49.1] update_learner_deregister_apply_table Successfully Updated2020-01-07 09:34:01
[Tue 2020-01-07 09:34:01 AM] [client 192.168.49.1] delete_biomatric_registration_entry Sucscessfully Deleted2020-01-07 09:34:01
[Tue 2020-01-07 09:34:01 AM] [client 192.168.49.1] update_tbl_admission_table Successfully Updated2020-01-07 09:34:01
[Tue 2020-01-07 09:34:01 AM] [client 192.168.49.1] update_learner_deregister_apply_table Successfully Updated2020-01-07 09:34:01
[Tue 2020-01-07 09:34:01 AM] [client 192.168.49.1] delete_biomatric_registration_entry Sucscessfully Deleted2020-01-07 09:34:01
[Tue 2020-01-07 09:34:01 AM] [client 192.168.49.1] update_tbl_admission_table Successfully Updated2020-01-07 09:34:01
[Tue 2020-01-07 09:34:01 AM] [client 192.168.49.1] update_learner_deregister_apply_table Successfully Updated2020-01-07 09:34:01
[Tue 2020-01-07 09:34:01 AM] [client 192.168.49.1] delete_biomatric_registration_entry Sucscessfully Deleted2020-01-07 09:34:01
[Tue 2020-01-07 09:34:01 AM] [client 192.168.49.1] update_tbl_admission_table Successfully Updated2020-01-07 09:34:01
[Tue 2020-01-07 09:34:01 AM] [client 192.168.49.1] update_learner_deregister_apply_table Successfully Updated2020-01-07 09:34:01
[Tue 2020-01-07 09:34:01 AM] [client 192.168.49.1] delete_biomatric_registration_entry Sucscessfully Deleted2020-01-07 09:34:01
[Tue 2020-01-07 09:34:01 AM] [client 192.168.49.1] update_tbl_admission_table Successfully Updated2020-01-07 09:34:01
[Tue 2020-01-07 09:34:01 AM] [client 192.168.49.1] update_learner_deregister_apply_table Successfully Updated2020-01-07 09:34:01
[Tue 2020-01-07 09:34:01 AM] [client 192.168.49.1] delete_biomatric_registration_entry Sucscessfully Deleted2020-01-07 09:34:01
[Tue 2020-01-07 09:34:01 AM] [client 192.168.49.1] update_tbl_admission_table Successfully Updated2020-01-07 09:34:01
[Tue 2020-01-07 09:34:01 AM] [client 192.168.49.1] update_learner_deregister_apply_table Successfully Updated2020-01-07 09:34:01
[Tue 2020-01-07 09:34:01 AM] [client 192.168.49.1] delete_biomatric_registration_entry Sucscessfully Deleted2020-01-07 09:34:01
[Tue 2020-01-07 09:34:01 AM] [client 192.168.49.1] update_tbl_admission_table Successfully Updated2020-01-07 09:34:01
[Tue 2020-01-07 09:34:01 AM] [client 192.168.49.1] update_learner_deregister_apply_table Successfully Updated2020-01-07 09:34:01
[Tue 2020-01-07 09:34:02 AM] [client 192.168.49.1] delete_biomatric_registration_entry Sucscessfully Deleted2020-01-07 09:34:02
[Tue 2020-01-07 09:34:02 AM] [client 192.168.49.1] update_tbl_admission_table Successfully Updated2020-01-07 09:34:02
[Tue 2020-01-07 09:34:02 AM] [client 192.168.49.1] update_learner_deregister_apply_table Successfully Updated2020-01-07 09:34:02
[Tue 2020-01-07 09:34:02 AM] [client 192.168.49.1] delete_biomatric_registration_entry Sucscessfully Deleted2020-01-07 09:34:02
[Tue 2020-01-07 09:34:02 AM] [client 192.168.49.1] update_tbl_admission_table Successfully Updated2020-01-07 09:34:02
[Tue 2020-01-07 09:34:02 AM] [client 192.168.49.1] update_learner_deregister_apply_table Successfully Updated2020-01-07 09:34:02
[Tue 2020-01-07 09:34:02 AM] [client 192.168.49.1] delete_biomatric_registration_entry Sucscessfully Deleted2020-01-07 09:34:02
[Tue 2020-01-07 09:34:02 AM] [client 192.168.49.1] update_tbl_admission_table Successfully Updated2020-01-07 09:34:02
[Tue 2020-01-07 09:34:02 AM] [client 192.168.49.1] update_learner_deregister_apply_table Successfully Updated2020-01-07 09:34:02
[Tue 2020-01-07 09:34:02 AM] [client 192.168.49.1] delete_biomatric_registration_entry Sucscessfully Deleted2020-01-07 09:34:02
[Tue 2020-01-07 09:34:02 AM] [client 192.168.49.1] update_tbl_admission_table Successfully Updated2020-01-07 09:34:02
[Tue 2020-01-07 09:34:02 AM] [client 192.168.49.1] update_learner_deregister_apply_table Successfully Updated2020-01-07 09:34:02
[Tue 2020-01-07 09:34:02 AM] [client 192.168.49.1] delete_biomatric_registration_entry Sucscessfully Deleted2020-01-07 09:34:02
[Tue 2020-01-07 09:34:02 AM] [client 192.168.49.1] update_tbl_admission_table Successfully Updated2020-01-07 09:34:02
[Tue 2020-01-07 09:34:02 AM] [client 192.168.49.1] update_learner_deregister_apply_table Successfully Updated2020-01-07 09:34:02
[Tue 2020-01-07 09:34:02 AM] [client 192.168.49.1] delete_biomatric_registration_entry Sucscessfully Deleted2020-01-07 09:34:02
[Tue 2020-01-07 09:34:02 AM] [client 192.168.49.1] update_tbl_admission_table Successfully Updated2020-01-07 09:34:02
[Tue 2020-01-07 09:34:02 AM] [client 192.168.49.1] update_learner_deregister_apply_table Successfully Updated2020-01-07 09:34:02
[Tue 2020-01-07 09:34:02 AM] [client 192.168.49.1] delete_biomatric_registration_entry Sucscessfully Deleted2020-01-07 09:34:02
[Tue 2020-01-07 09:34:02 AM] [client 192.168.49.1] update_tbl_admission_table Successfully Updated2020-01-07 09:34:02
[Tue 2020-01-07 09:34:02 AM] [client 192.168.49.1] update_learner_deregister_apply_table Successfully Updated2020-01-07 09:34:02
[Tue 2020-01-07 09:34:02 AM] [client 192.168.49.1] delete_biomatric_registration_entry Sucscessfully Deleted2020-01-07 09:34:02
[Tue 2020-01-07 09:34:02 AM] [client 192.168.49.1] update_tbl_admission_table Successfully Updated2020-01-07 09:34:02
[Tue 2020-01-07 09:34:02 AM] [client 192.168.49.1] update_learner_deregister_apply_table Successfully Updated2020-01-07 09:34:02
[Tue 2020-01-07 09:34:02 AM] [client 192.168.49.1] delete_biomatric_registration_entry Sucscessfully Deleted2020-01-07 09:34:02
[Tue 2020-01-07 09:34:02 AM] [client 192.168.49.1] update_tbl_admission_table Successfully Updated2020-01-07 09:34:02
[Tue 2020-01-07 09:34:02 AM] [client 192.168.49.1] update_learner_deregister_apply_table Successfully Updated2020-01-07 09:34:02
[Tue 2020-01-07 09:34:02 AM] [client 192.168.49.1] delete_biomatric_registration_entry Sucscessfully Deleted2020-01-07 09:34:02
[Tue 2020-01-07 09:34:02 AM] [client 192.168.49.1] update_tbl_admission_table Successfully Updated2020-01-07 09:34:02
[Tue 2020-01-07 09:34:02 AM] [client 192.168.49.1] update_learner_deregister_apply_table Successfully Updated2020-01-07 09:34:02
[Tue 2020-01-07 09:34:02 AM] [client 192.168.49.1] delete_biomatric_registration_entry Sucscessfully Deleted2020-01-07 09:34:02
[Tue 2020-01-07 09:34:02 AM] [client 192.168.49.1] update_tbl_admission_table Successfully Updated2020-01-07 09:34:02
[Tue 2020-01-07 09:34:02 AM] [client 192.168.49.1] update_learner_deregister_apply_table Successfully Updated2020-01-07 09:34:02
[Tue 2020-01-07 09:34:02 AM] [client 192.168.49.1] delete_biomatric_registration_entry Sucscessfully Deleted2020-01-07 09:34:02
[Tue 2020-01-07 09:34:02 AM] [client 192.168.49.1] update_tbl_admission_table Successfully Updated2020-01-07 09:34:02
[Tue 2020-01-07 09:34:02 AM] [client 192.168.49.1] update_learner_deregister_apply_table Successfully Updated2020-01-07 09:34:02
[Tue 2020-01-07 09:34:03 AM] [client 192.168.49.1] delete_biomatric_registration_entry Sucscessfully Deleted2020-01-07 09:34:03
[Tue 2020-01-07 09:34:03 AM] [client 192.168.49.1] update_tbl_admission_table Successfully Updated2020-01-07 09:34:03
[Tue 2020-01-07 09:34:03 AM] [client 192.168.49.1] update_learner_deregister_apply_table Successfully Updated2020-01-07 09:34:03
[Tue 2020-01-07 09:34:03 AM] [client 192.168.49.1] delete_biomatric_registration_entry Sucscessfully Deleted2020-01-07 09:34:03
[Tue 2020-01-07 09:34:03 AM] [client 192.168.49.1] update_tbl_admission_table Successfully Updated2020-01-07 09:34:03
[Tue 2020-01-07 09:34:03 AM] [client 192.168.49.1] update_learner_deregister_apply_table Successfully Updated2020-01-07 09:34:03
[Tue 2020-01-07 09:34:10 AM] [client 192.168.49.1] update_learner_deregister_apply_table_reject Successfully Updated2020-01-07 09:34:10
[Tue 2020-01-07 09:34:10 AM] [client 192.168.49.1] update_learner_deregister_apply_table_reject Successfully Updated2020-01-07 09:34:10
[Tue 2020-01-07 04:25:48 AM] [client 192.168.49.1] delete_biomatric_registration_entry Sucscessfully Deleted2020-01-07 04:25:48
[Tue 2020-01-07 04:25:48 AM] [client 192.168.49.1] update_tbl_admission_table Successfully Updated2020-01-07 04:25:48
[Tue 2020-01-07 09:55:48 AM] [client 192.168.49.1] update_learner_deregister_apply_table Successfully Updated2020-01-07 09:55:48
[Tue 2020-01-07 09:55:48 AM] [client 192.168.49.1] delete_biomatric_registration_entry Sucscessfully Deleted2020-01-07 09:55:48
[Tue 2020-01-07 09:55:48 AM] [client 192.168.49.1] update_tbl_admission_table Successfully Updated2020-01-07 09:55:48
[Tue 2020-01-07 09:55:48 AM] [client 192.168.49.1] update_learner_deregister_apply_table Successfully Updated2020-01-07 09:55:48
[Tue 2020-01-07 09:55:48 AM] [client 192.168.49.1] delete_biomatric_registration_entry Sucscessfully Deleted2020-01-07 09:55:48
[Tue 2020-01-07 09:55:48 AM] [client 192.168.49.1] update_tbl_admission_table Successfully Updated2020-01-07 09:55:48
[Tue 2020-01-07 09:55:48 AM] [client 192.168.49.1] update_learner_deregister_apply_table Successfully Updated2020-01-07 09:55:48
[Tue 2020-01-07 09:55:48 AM] [client 192.168.49.1] delete_biomatric_registration_entry Sucscessfully Deleted2020-01-07 09:55:48
[Tue 2020-01-07 09:55:48 AM] [client 192.168.49.1] update_tbl_admission_table Successfully Updated2020-01-07 09:55:48
[Tue 2020-01-07 09:55:48 AM] [client 192.168.49.1] update_learner_deregister_apply_table Successfully Updated2020-01-07 09:55:48
[Tue 2020-01-07 09:55:49 AM] [client 192.168.49.1] delete_biomatric_registration_entry Sucscessfully Deleted2020-01-07 09:55:49
[Tue 2020-01-07 09:55:49 AM] [client 192.168.49.1] update_tbl_admission_table Successfully Updated2020-01-07 09:55:49
[Tue 2020-01-07 09:55:49 AM] [client 192.168.49.1] update_learner_deregister_apply_table Successfully Updated2020-01-07 09:55:49
[Tue 2020-01-07 09:55:49 AM] [client 192.168.49.1] delete_biomatric_registration_entry Sucscessfully Deleted2020-01-07 09:55:49
[Tue 2020-01-07 09:55:49 AM] [client 192.168.49.1] update_tbl_admission_table Successfully Updated2020-01-07 09:55:49
[Tue 2020-01-07 09:55:49 AM] [client 192.168.49.1] update_learner_deregister_apply_table Successfully Updated2020-01-07 09:55:49
[Tue 2020-01-07 09:55:49 AM] [client 192.168.49.1] delete_biomatric_registration_entry Sucscessfully Deleted2020-01-07 09:55:49
[Tue 2020-01-07 09:55:49 AM] [client 192.168.49.1] update_tbl_admission_table Successfully Updated2020-01-07 09:55:49
[Tue 2020-01-07 09:55:49 AM] [client 192.168.49.1] update_learner_deregister_apply_table Successfully Updated2020-01-07 09:55:49
[Tue 2020-01-07 09:55:49 AM] [client 192.168.49.1] delete_biomatric_registration_entry Sucscessfully Deleted2020-01-07 09:55:49
[Tue 2020-01-07 09:55:49 AM] [client 192.168.49.1] update_tbl_admission_table Successfully Updated2020-01-07 09:55:49
[Tue 2020-01-07 09:55:49 AM] [client 192.168.49.1] update_learner_deregister_apply_table Successfully Updated2020-01-07 09:55:49
[Tue 2020-01-07 09:55:49 AM] [client 192.168.49.1] delete_biomatric_registration_entry Sucscessfully Deleted2020-01-07 09:55:49
[Tue 2020-01-07 09:55:49 AM] [client 192.168.49.1] update_tbl_admission_table Successfully Updated2020-01-07 09:55:49
[Tue 2020-01-07 09:55:49 AM] [client 192.168.49.1] update_learner_deregister_apply_table Successfully Updated2020-01-07 09:55:49
[Tue 2020-01-07 09:55:49 AM] [client 192.168.49.1] delete_biomatric_registration_entry Sucscessfully Deleted2020-01-07 09:55:49
[Tue 2020-01-07 09:55:49 AM] [client 192.168.49.1] update_tbl_admission_table Successfully Updated2020-01-07 09:55:49
[Tue 2020-01-07 09:55:49 AM] [client 192.168.49.1] update_learner_deregister_apply_table Successfully Updated2020-01-07 09:55:49
[Tue 2020-01-07 09:55:49 AM] [client 192.168.49.1] delete_biomatric_registration_entry Sucscessfully Deleted2020-01-07 09:55:49
[Tue 2020-01-07 09:55:49 AM] [client 192.168.49.1] update_tbl_admission_table Successfully Updated2020-01-07 09:55:49
[Tue 2020-01-07 09:55:49 AM] [client 192.168.49.1] update_learner_deregister_apply_table Successfully Updated2020-01-07 09:55:49
[Tue 2020-01-07 05:16:39 AM] [client 192.168.49.1] delete_biomatric_registration_entry Sucscessfully Deleted2020-01-07 05:16:39
[Tue 2020-01-07 05:16:39 AM] [client 192.168.49.1] update_tbl_admission_table Successfully Updated2020-01-07 05:16:39
[Tue 2020-01-07 10:46:39 AM] [client 192.168.49.1] update_learner_deregister_apply_table Successfully Updated2020-01-07 10:46:39
[Tue 2020-01-07 10:46:39 AM] [client 192.168.49.1] delete_biomatric_registration_entry Sucscessfully Deleted2020-01-07 10:46:39
[Tue 2020-01-07 10:46:39 AM] [client 192.168.49.1] update_tbl_admission_table Successfully Updated2020-01-07 10:46:39
[Tue 2020-01-07 10:46:39 AM] [client 192.168.49.1] update_learner_deregister_apply_table Successfully Updated2020-01-07 10:46:39
[Tue 2020-01-07 10:46:40 AM] [client 192.168.49.1] delete_biomatric_registration_entry Sucscessfully Deleted2020-01-07 10:46:40
[Tue 2020-01-07 10:46:40 AM] [client 192.168.49.1] update_tbl_admission_table Successfully Updated2020-01-07 10:46:40
[Tue 2020-01-07 10:46:40 AM] [client 192.168.49.1] update_learner_deregister_apply_table Successfully Updated2020-01-07 10:46:40
[Tue 2020-01-07 10:46:40 AM] [client 192.168.49.1] delete_biomatric_registration_entry Sucscessfully Deleted2020-01-07 10:46:40
[Tue 2020-01-07 10:46:40 AM] [client 192.168.49.1] update_tbl_admission_table Successfully Updated2020-01-07 10:46:40
[Tue 2020-01-07 10:46:40 AM] [client 192.168.49.1] update_learner_deregister_apply_table Successfully Updated2020-01-07 10:46:40
[Tue 2020-01-07 10:46:40 AM] [client 192.168.49.1] delete_biomatric_registration_entry Sucscessfully Deleted2020-01-07 10:46:40
[Tue 2020-01-07 10:46:40 AM] [client 192.168.49.1] update_tbl_admission_table Successfully Updated2020-01-07 10:46:40
[Tue 2020-01-07 10:46:40 AM] [client 192.168.49.1] update_learner_deregister_apply_table Successfully Updated2020-01-07 10:46:40
[Tue 2020-01-07 10:46:40 AM] [client 192.168.49.1] delete_biomatric_registration_entry Sucscessfully Deleted2020-01-07 10:46:40
[Tue 2020-01-07 10:46:40 AM] [client 192.168.49.1] update_tbl_admission_table Successfully Updated2020-01-07 10:46:40
[Tue 2020-01-07 10:46:40 AM] [client 192.168.49.1] update_learner_deregister_apply_table Successfully Updated2020-01-07 10:46:40
[Tue 2020-01-07 10:46:40 AM] [client 192.168.49.1] delete_biomatric_registration_entry Sucscessfully Deleted2020-01-07 10:46:40
[Tue 2020-01-07 10:46:40 AM] [client 192.168.49.1] update_tbl_admission_table Successfully Updated2020-01-07 10:46:40
[Tue 2020-01-07 10:46:40 AM] [client 192.168.49.1] update_learner_deregister_apply_table Successfully Updated2020-01-07 10:46:40
[Tue 2020-01-07 10:46:40 AM] [client 192.168.49.1] delete_biomatric_registration_entry Sucscessfully Deleted2020-01-07 10:46:40
[Tue 2020-01-07 10:46:40 AM] [client 192.168.49.1] update_tbl_admission_table Successfully Updated2020-01-07 10:46:40
[Tue 2020-01-07 10:46:40 AM] [client 192.168.49.1] update_learner_deregister_apply_table Successfully Updated2020-01-07 10:46:40
[Tue 2020-01-07 10:46:40 AM] [client 192.168.49.1] delete_biomatric_registration_entry Sucscessfully Deleted2020-01-07 10:46:40
[Tue 2020-01-07 10:46:40 AM] [client 192.168.49.1] update_tbl_admission_table Successfully Updated2020-01-07 10:46:40
[Tue 2020-01-07 10:46:40 AM] [client 192.168.49.1] update_learner_deregister_apply_table Successfully Updated2020-01-07 10:46:40
[Tue 2020-01-07 10:46:40 AM] [client 192.168.49.1] delete_biomatric_registration_entry Sucscessfully Deleted2020-01-07 10:46:40
[Tue 2020-01-07 10:46:40 AM] [client 192.168.49.1] update_tbl_admission_table Successfully Updated2020-01-07 10:46:40
[Tue 2020-01-07 10:46:40 AM] [client 192.168.49.1] update_learner_deregister_apply_table Successfully Updated2020-01-07 10:46:40
[Tue 2020-01-07 10:46:40 AM] [client 192.168.49.1] delete_biomatric_registration_entry Sucscessfully Deleted2020-01-07 10:46:40
[Tue 2020-01-07 10:46:40 AM] [client 192.168.49.1] update_tbl_admission_table Successfully Updated2020-01-07 10:46:40
[Tue 2020-01-07 10:46:40 AM] [client 192.168.49.1] update_learner_deregister_apply_table Successfully Updated2020-01-07 10:46:40
[Tue 2020-01-07 10:46:40 AM] [client 192.168.49.1] delete_biomatric_registration_entry Sucscessfully Deleted2020-01-07 10:46:40
[Tue 2020-01-07 10:46:40 AM] [client 192.168.49.1] update_tbl_admission_table Successfully Updated2020-01-07 10:46:40
[Tue 2020-01-07 10:46:40 AM] [client 192.168.49.1] update_learner_deregister_apply_table Successfully Updated2020-01-07 10:46:40
[Tue 2020-01-07 10:46:40 AM] [client 192.168.49.1] delete_biomatric_registration_entry Sucscessfully Deleted2020-01-07 10:46:40
[Tue 2020-01-07 10:46:40 AM] [client 192.168.49.1] update_tbl_admission_table Successfully Updated2020-01-07 10:46:40
[Tue 2020-01-07 10:46:40 AM] [client 192.168.49.1] update_learner_deregister_apply_table Successfully Updated2020-01-07 10:46:40
[Tue 2020-01-07 10:46:40 AM] [client 192.168.49.1] delete_biomatric_registration_entry Sucscessfully Deleted2020-01-07 10:46:40
[Tue 2020-01-07 10:46:40 AM] [client 192.168.49.1] update_tbl_admission_table Successfully Updated2020-01-07 10:46:40
[Tue 2020-01-07 10:46:40 AM] [client 192.168.49.1] update_learner_deregister_apply_table Successfully Updated2020-01-07 10:46:40
[Tue 2020-01-07 10:46:41 AM] [client 192.168.49.1] delete_biomatric_registration_entry Sucscessfully Deleted2020-01-07 10:46:41
[Tue 2020-01-07 10:46:41 AM] [client 192.168.49.1] update_tbl_admission_table Successfully Updated2020-01-07 10:46:41
[Tue 2020-01-07 10:46:41 AM] [client 192.168.49.1] update_learner_deregister_apply_table Successfully Updated2020-01-07 10:46:41
[Tue 2020-01-07 10:46:41 AM] [client 192.168.49.1] delete_biomatric_registration_entry Sucscessfully Deleted2020-01-07 10:46:41
[Tue 2020-01-07 10:46:41 AM] [client 192.168.49.1] update_tbl_admission_table Successfully Updated2020-01-07 10:46:41
[Tue 2020-01-07 10:46:41 AM] [client 192.168.49.1] update_learner_deregister_apply_table Successfully Updated2020-01-07 10:46:41
[Tue 2020-01-07 10:46:41 AM] [client 192.168.49.1] delete_biomatric_registration_entry Sucscessfully Deleted2020-01-07 10:46:41
[Tue 2020-01-07 10:46:41 AM] [client 192.168.49.1] update_tbl_admission_table Successfully Updated2020-01-07 10:46:41
[Tue 2020-01-07 10:46:41 AM] [client 192.168.49.1] update_learner_deregister_apply_table Successfully Updated2020-01-07 10:46:41
[Tue 2020-01-07 10:46:41 AM] [client 192.168.49.1] delete_biomatric_registration_entry Sucscessfully Deleted2020-01-07 10:46:41
[Tue 2020-01-07 10:46:41 AM] [client 192.168.49.1] update_tbl_admission_table Successfully Updated2020-01-07 10:46:41
[Tue 2020-01-07 10:46:41 AM] [client 192.168.49.1] update_learner_deregister_apply_table Successfully Updated2020-01-07 10:46:41
[Tue 2020-01-07 10:46:41 AM] [client 192.168.49.1] delete_biomatric_registration_entry Sucscessfully Deleted2020-01-07 10:46:41
[Tue 2020-01-07 10:46:41 AM] [client 192.168.49.1] update_tbl_admission_table Successfully Updated2020-01-07 10:46:41
[Tue 2020-01-07 10:46:41 AM] [client 192.168.49.1] update_learner_deregister_apply_table Successfully Updated2020-01-07 10:46:41
[Tue 2020-01-07 10:46:41 AM] [client 192.168.49.1] delete_biomatric_registration_entry Sucscessfully Deleted2020-01-07 10:46:41
[Tue 2020-01-07 10:46:41 AM] [client 192.168.49.1] update_tbl_admission_table Successfully Updated2020-01-07 10:46:41
[Tue 2020-01-07 10:46:41 AM] [client 192.168.49.1] update_learner_deregister_apply_table Successfully Updated2020-01-07 10:46:41
[Tue 2020-01-07 10:46:41 AM] [client 192.168.49.1] delete_biomatric_registration_entry Sucscessfully Deleted2020-01-07 10:46:41
[Tue 2020-01-07 10:46:41 AM] [client 192.168.49.1] update_tbl_admission_table Successfully Updated2020-01-07 10:46:41
[Tue 2020-01-07 10:46:41 AM] [client 192.168.49.1] update_learner_deregister_apply_table Successfully Updated2020-01-07 10:46:41
[Tue 2020-01-07 10:46:41 AM] [client 192.168.49.1] delete_biomatric_registration_entry Sucscessfully Deleted2020-01-07 10:46:41
[Tue 2020-01-07 10:46:41 AM] [client 192.168.49.1] update_tbl_admission_table Successfully Updated2020-01-07 10:46:41
[Tue 2020-01-07 10:46:41 AM] [client 192.168.49.1] update_learner_deregister_apply_table Successfully Updated2020-01-07 10:46:41
[Tue 2020-01-07 10:46:41 AM] [client 192.168.49.1] delete_biomatric_registration_entry Sucscessfully Deleted2020-01-07 10:46:41
[Tue 2020-01-07 10:46:41 AM] [client 192.168.49.1] update_tbl_admission_table Successfully Updated2020-01-07 10:46:41
[Tue 2020-01-07 10:46:41 AM] [client 192.168.49.1] update_learner_deregister_apply_table Successfully Updated2020-01-07 10:46:41
[Tue 2020-01-07 10:46:41 AM] [client 192.168.49.1] delete_biomatric_registration_entry Sucscessfully Deleted2020-01-07 10:46:41
[Tue 2020-01-07 10:46:41 AM] [client 192.168.49.1] update_tbl_admission_table Successfully Updated2020-01-07 10:46:41
[Tue 2020-01-07 10:46:41 AM] [client 192.168.49.1] update_learner_deregister_apply_table Successfully Updated2020-01-07 10:46:41
[Tue 2020-01-07 10:46:50 AM] [client 192.168.49.1] update_learner_deregister_apply_table_reject Successfully Updated2020-01-07 10:46:50
[Tue 2020-01-07 10:46:50 AM] [client 192.168.49.1] update_learner_deregister_apply_table_reject Successfully Updated2020-01-07 10:46:50
[Tue 2020-01-07 10:46:50 AM] [client 192.168.49.1] update_learner_deregister_apply_table_reject Successfully Updated2020-01-07 10:46:50
[Tue 2020-01-07 10:46:50 AM] [client 192.168.49.1] update_learner_deregister_apply_table_reject Successfully Updated2020-01-07 10:46:50
[Tue 2020-01-07 10:46:50 AM] [client 192.168.49.1] update_learner_deregister_apply_table_reject Successfully Updated2020-01-07 10:46:50
[Tue 2020-01-07 05:30:16 AM] [client 192.168.49.1] delete_biomatric_registration_entry Sucscessfully Deleted2020-01-07 05:30:16
[Tue 2020-01-07 05:30:16 AM] [client 192.168.49.1] update_tbl_admission_table Successfully Updated2020-01-07 05:30:16
[Tue 2020-01-07 11:00:16 AM] [client 192.168.49.1] update_learner_deregister_apply_table Successfully Updated2020-01-07 11:00:16
[Tue 2020-01-07 11:00:17 AM] [client 192.168.49.1] delete_biomatric_registration_entry Sucscessfully Deleted2020-01-07 11:00:17
[Tue 2020-01-07 11:00:17 AM] [client 192.168.49.1] update_tbl_admission_table Successfully Updated2020-01-07 11:00:17
[Tue 2020-01-07 11:00:17 AM] [client 192.168.49.1] update_learner_deregister_apply_table Successfully Updated2020-01-07 11:00:17
[Tue 2020-01-07 11:00:17 AM] [client 192.168.49.1] delete_biomatric_registration_entry Sucscessfully Deleted2020-01-07 11:00:17
[Tue 2020-01-07 11:00:17 AM] [client 192.168.49.1] update_tbl_admission_table Successfully Updated2020-01-07 11:00:17
[Tue 2020-01-07 11:00:17 AM] [client 192.168.49.1] update_learner_deregister_apply_table Successfully Updated2020-01-07 11:00:17
[Tue 2020-01-07 11:00:17 AM] [client 192.168.49.1] delete_biomatric_registration_entry Sucscessfully Deleted2020-01-07 11:00:17
[Tue 2020-01-07 11:00:17 AM] [client 192.168.49.1] update_tbl_admission_table Successfully Updated2020-01-07 11:00:17
[Tue 2020-01-07 11:00:17 AM] [client 192.168.49.1] update_learner_deregister_apply_table Successfully Updated2020-01-07 11:00:17
[Tue 2020-01-07 05:33:23 AM] [client 192.168.49.1] delete_biomatric_registration_entry Sucscessfully Deleted2020-01-07 05:33:23
[Tue 2020-01-07 05:33:23 AM] [client 192.168.49.1] update_tbl_admission_table Successfully Updated2020-01-07 05:33:23
[Tue 2020-01-07 11:03:23 AM] [client 192.168.49.1] update_learner_deregister_apply_table Successfully Updated2020-01-07 11:03:23
[Tue 2020-01-07 11:03:23 AM] [client 192.168.49.1] delete_biomatric_registration_entry Sucscessfully Deleted2020-01-07 11:03:23
[Tue 2020-01-07 11:03:23 AM] [client 192.168.49.1] update_tbl_admission_table Successfully Updated2020-01-07 11:03:23
[Tue 2020-01-07 11:03:23 AM] [client 192.168.49.1] update_learner_deregister_apply_table Successfully Updated2020-01-07 11:03:23
[Tue 2020-01-07 11:03:23 AM] [client 192.168.49.1] delete_biomatric_registration_entry Sucscessfully Deleted2020-01-07 11:03:23
[Tue 2020-01-07 11:03:23 AM] [client 192.168.49.1] update_tbl_admission_table Successfully Updated2020-01-07 11:03:23
[Tue 2020-01-07 11:03:23 AM] [client 192.168.49.1] update_learner_deregister_apply_table Successfully Updated2020-01-07 11:03:23
[Tue 2020-01-07 11:03:23 AM] [client 192.168.49.1] delete_biomatric_registration_entry Sucscessfully Deleted2020-01-07 11:03:23
[Tue 2020-01-07 11:03:23 AM] [client 192.168.49.1] update_tbl_admission_table Successfully Updated2020-01-07 11:03:23
[Tue 2020-01-07 11:03:23 AM] [client 192.168.49.1] update_learner_deregister_apply_table Successfully Updated2020-01-07 11:03:23
[Tue 2020-01-07 11:03:24 AM] [client 192.168.49.1] delete_biomatric_registration_entry Sucscessfully Deleted2020-01-07 11:03:24
[Tue 2020-01-07 11:03:24 AM] [client 192.168.49.1] update_tbl_admission_table Successfully Updated2020-01-07 11:03:24
[Tue 2020-01-07 11:03:24 AM] [client 192.168.49.1] update_learner_deregister_apply_table Successfully Updated2020-01-07 11:03:24
[Tue 2020-01-07 05:33:42 AM] [client 192.168.49.1] delete_biomatric_registration_entry Sucscessfully Deleted2020-01-07 05:33:42
[Tue 2020-01-07 05:33:42 AM] [client 192.168.49.1] update_tbl_admission_table Successfully Updated2020-01-07 05:33:42
[Tue 2020-01-07 11:03:42 AM] [client 192.168.49.1] update_learner_deregister_apply_table Successfully Updated2020-01-07 11:03:42
[Tue 2020-01-07 05:33:51 AM] [client 192.168.49.1] delete_biomatric_registration_entry Sucscessfully Deleted2020-01-07 05:33:51
[Tue 2020-01-07 05:33:51 AM] [client 192.168.49.1] update_tbl_admission_table Successfully Updated2020-01-07 05:33:51
[Tue 2020-01-07 11:03:51 AM] [client 192.168.49.1] update_learner_deregister_apply_table Successfully Updated2020-01-07 11:03:51
[Tue 2020-01-07 05:33:58 AM] [client 192.168.49.1] delete_biomatric_registration_entry Sucscessfully Deleted2020-01-07 05:33:58
[Tue 2020-01-07 05:33:58 AM] [client 192.168.49.1] update_tbl_admission_table Successfully Updated2020-01-07 05:33:58
[Tue 2020-01-07 11:03:58 AM] [client 192.168.49.1] update_learner_deregister_apply_table Successfully Updated2020-01-07 11:03:58
[Tue 2020-01-07 11:04:05 AM] [client 192.168.49.1] update_learner_deregister_apply_table_reject Successfully Updated2020-01-07 11:04:05
[Tue 2020-01-07 05:34:12 AM] [client 192.168.49.1] delete_biomatric_registration_entry Sucscessfully Deleted2020-01-07 05:34:12
[Tue 2020-01-07 05:34:12 AM] [client 192.168.49.1] update_tbl_admission_table Successfully Updated2020-01-07 05:34:12
[Tue 2020-01-07 11:04:12 AM] [client 192.168.49.1] update_learner_deregister_apply_table Successfully Updated2020-01-07 11:04:12
[Tue 2020-01-07 05:39:54 AM] [client 192.168.49.1] delete_biomatric_registration_entry Sucscessfully Deleted2020-01-07 05:39:54
[Tue 2020-01-07 05:39:54 AM] [client 192.168.49.1] update_tbl_admission_table Successfully Updated2020-01-07 05:39:54
[Tue 2020-01-07 11:09:54 AM] [client 192.168.49.1] update_learner_deregister_apply_table Successfully Updated2020-01-07 11:09:54
[Tue 2020-01-07 11:09:54 AM] [client 192.168.49.1] delete_biomatric_registration_entry Sucscessfully Deleted2020-01-07 11:09:54
[Tue 2020-01-07 11:09:54 AM] [client 192.168.49.1] update_tbl_admission_table Successfully Updated2020-01-07 11:09:54
[Tue 2020-01-07 11:09:54 AM] [client 192.168.49.1] update_learner_deregister_apply_table Successfully Updated2020-01-07 11:09:54
[Tue 2020-01-07 11:09:54 AM] [client 192.168.49.1] delete_biomatric_registration_entry Sucscessfully Deleted2020-01-07 11:09:54
[Tue 2020-01-07 11:09:54 AM] [client 192.168.49.1] update_tbl_admission_table Successfully Updated2020-01-07 11:09:54
[Tue 2020-01-07 11:09:54 AM] [client 192.168.49.1] update_learner_deregister_apply_table Successfully Updated2020-01-07 11:09:54
[Tue 2020-01-07 05:40:12 AM] [client 192.168.49.1] delete_biomatric_registration_entry Sucscessfully Deleted2020-01-07 05:40:12
[Tue 2020-01-07 05:40:12 AM] [client 192.168.49.1] update_tbl_admission_table Successfully Updated2020-01-07 05:40:12
[Tue 2020-01-07 11:10:12 AM] [client 192.168.49.1] update_learner_deregister_apply_table Successfully Updated2020-01-07 11:10:12
[Tue 2020-01-07 11:10:13 AM] [client 192.168.49.1] delete_biomatric_registration_entry Sucscessfully Deleted2020-01-07 11:10:13
[Tue 2020-01-07 11:10:13 AM] [client 192.168.49.1] update_tbl_admission_table Successfully Updated2020-01-07 11:10:13
[Tue 2020-01-07 11:10:13 AM] [client 192.168.49.1] update_learner_deregister_apply_table Successfully Updated2020-01-07 11:10:13
[Tue 2020-01-07 11:10:13 AM] [client 192.168.49.1] delete_biomatric_registration_entry Sucscessfully Deleted2020-01-07 11:10:13
[Tue 2020-01-07 11:10:13 AM] [client 192.168.49.1] update_tbl_admission_table Successfully Updated2020-01-07 11:10:13
[Tue 2020-01-07 11:10:13 AM] [client 192.168.49.1] update_learner_deregister_apply_table Successfully Updated2020-01-07 11:10:13
[Tue 2020-01-07 11:10:13 AM] [client 192.168.49.1] delete_biomatric_registration_entry Sucscessfully Deleted2020-01-07 11:10:13
[Tue 2020-01-07 11:10:13 AM] [client 192.168.49.1] update_tbl_admission_table Successfully Updated2020-01-07 11:10:13
[Tue 2020-01-07 11:10:13 AM] [client 192.168.49.1] update_learner_deregister_apply_table Successfully Updated2020-01-07 11:10:13
[Tue 2020-01-07 11:10:13 AM] [client 192.168.49.1] delete_biomatric_registration_entry Sucscessfully Deleted2020-01-07 11:10:13
[Tue 2020-01-07 11:10:13 AM] [client 192.168.49.1] update_tbl_admission_table Successfully Updated2020-01-07 11:10:13
[Tue 2020-01-07 11:10:13 AM] [client 192.168.49.1] update_learner_deregister_apply_table Successfully Updated2020-01-07 11:10:13
[Tue 2020-01-07 11:10:13 AM] [client 192.168.49.1] delete_biomatric_registration_entry Sucscessfully Deleted2020-01-07 11:10:13
[Tue 2020-01-07 11:10:13 AM] [client 192.168.49.1] update_tbl_admission_table Successfully Updated2020-01-07 11:10:13
[Tue 2020-01-07 11:10:13 AM] [client 192.168.49.1] update_learner_deregister_apply_table Successfully Updated2020-01-07 11:10:13
[Tue 2020-01-07 11:10:13 AM] [client 192.168.49.1] delete_biomatric_registration_entry Sucscessfully Deleted2020-01-07 11:10:13
[Tue 2020-01-07 11:10:13 AM] [client 192.168.49.1] update_tbl_admission_table Successfully Updated2020-01-07 11:10:13
[Tue 2020-01-07 11:10:13 AM] [client 192.168.49.1] update_learner_deregister_apply_table Successfully Updated2020-01-07 11:10:13
[Tue 2020-01-07 11:10:22 AM] [client 192.168.49.1] update_learner_deregister_apply_table_reject Successfully Updated2020-01-07 11:10:22
[Tue 2020-01-07 11:10:22 AM] [client 192.168.49.1] update_learner_deregister_apply_table_reject Successfully Updated2020-01-07 11:10:22
[Tue 2020-01-07 11:10:22 AM] [client 192.168.49.1] update_learner_deregister_apply_table_reject Successfully Updated2020-01-07 11:10:22
[Tue 2020-01-07 05:51:39 AM] [client 192.168.49.1] delete_biomatric_registration_entry Sucscessfully Deleted2020-01-07 05:51:39
[Tue 2020-01-07 05:51:39 AM] [client 192.168.49.1] update_tbl_admission_table Successfully Updated2020-01-07 05:51:39
[Tue 2020-01-07 11:21:39 AM] [client 192.168.49.1] update_learner_deregister_apply_table Successfully Updated2020-01-07 11:21:39
[Tue 2020-01-07 11:21:39 AM] [client 192.168.49.1] delete_biomatric_registration_entry Sucscessfully Deleted2020-01-07 11:21:39
[Tue 2020-01-07 11:21:39 AM] [client 192.168.49.1] update_tbl_admission_table Successfully Updated2020-01-07 11:21:39
[Tue 2020-01-07 11:21:39 AM] [client 192.168.49.1] update_learner_deregister_apply_table Successfully Updated2020-01-07 11:21:39
[Tue 2020-01-07 11:21:39 AM] [client 192.168.49.1] delete_biomatric_registration_entry Sucscessfully Deleted2020-01-07 11:21:39
[Tue 2020-01-07 11:21:39 AM] [client 192.168.49.1] update_tbl_admission_table Successfully Updated2020-01-07 11:21:39
[Tue 2020-01-07 11:21:40 AM] [client 192.168.49.1] update_learner_deregister_apply_table Successfully Updated2020-01-07 11:21:40
[Tue 2020-01-07 11:21:47 AM] [client 192.168.49.1] update_learner_deregister_apply_table_reject Successfully Updated2020-01-07 11:21:47
[Tue 2020-01-07 06:05:52 AM] [client 192.168.49.1] delete_biomatric_registration_entry Sucscessfully Deleted2020-01-07 06:05:52
[Tue 2020-01-07 06:05:52 AM] [client 192.168.49.1] update_tbl_admission_table Successfully Updated2020-01-07 06:05:52
[Tue 2020-01-07 11:35:52 AM] [client 192.168.49.1] update_learner_deregister_apply_table Successfully Updated2020-01-07 11:35:52
[Tue 2020-01-07 11:35:52 AM] [client 192.168.49.1] delete_biomatric_registration_entry Sucscessfully Deleted2020-01-07 11:35:52
[Tue 2020-01-07 11:35:52 AM] [client 192.168.49.1] update_tbl_admission_table Successfully Updated2020-01-07 11:35:52
[Tue 2020-01-07 11:35:52 AM] [client 192.168.49.1] update_learner_deregister_apply_table Successfully Updated2020-01-07 11:35:52
[Tue 2020-01-07 11:35:52 AM] [client 192.168.49.1] delete_biomatric_registration_entry Sucscessfully Deleted2020-01-07 11:35:52
[Tue 2020-01-07 11:35:52 AM] [client 192.168.49.1] update_tbl_admission_table Successfully Updated2020-01-07 11:35:52
[Tue 2020-01-07 11:35:52 AM] [client 192.168.49.1] update_learner_deregister_apply_table Successfully Updated2020-01-07 11:35:52
[Tue 2020-01-07 06:10:20 AM] [client 192.168.49.1] ajax request post accpect2020-01-07 06:10:20
[Tue 2020-01-07 06:10:59 AM] [client 192.168.49.1] encrypt file create2020-01-07 06:10:59
[Tue 2020-01-07 06:10:59 AM] [client 192.168.49.1] sen request to i learn2020-01-07 06:10:59
[Tue 2020-01-07 06:10:59 AM] [client 192.168.49.1] curl response2020-01-07 06:10:59{"status":"200","success":"success"}
[Tue 2020-01-07 06:10:59 AM] [client 192.168.49.1] change status to N2020-01-07 06:10:59
[Tue 2020-01-07 06:16:42 AM] [client 192.168.49.1] delete_biomatric_registration_entry Sucscessfully Deleted2020-01-07 06:16:42
[Tue 2020-01-07 06:16:42 AM] [client 192.168.49.1] update_tbl_admission_table Successfully Updated2020-01-07 06:16:42
[Tue 2020-01-07 11:46:42 AM] [client 192.168.49.1] update_learner_deregister_apply_table Successfully Updated2020-01-07 11:46:42
[Tue 2020-01-07 11:46:42 AM] [client 192.168.49.1] delete_biomatric_registration_entry Sucscessfully Deleted2020-01-07 11:46:42
[Tue 2020-01-07 11:46:42 AM] [client 192.168.49.1] update_tbl_admission_table Successfully Updated2020-01-07 11:46:42
[Tue 2020-01-07 11:46:42 AM] [client 192.168.49.1] update_learner_deregister_apply_table Successfully Updated2020-01-07 11:46:42
[Tue 2020-01-07 11:46:42 AM] [client 192.168.49.1] delete_biomatric_registration_entry Sucscessfully Deleted2020-01-07 11:46:42
[Tue 2020-01-07 11:46:42 AM] [client 192.168.49.1] update_tbl_admission_table Successfully Updated2020-01-07 11:46:42
[Tue 2020-01-07 11:46:42 AM] [client 192.168.49.1] update_learner_deregister_apply_table Successfully Updated2020-01-07 11:46:42
[Tue 2020-01-07 06:19:02 AM] [client 192.168.49.1] delete_biomatric_registration_entry Sucscessfully Deleted2020-01-07 06:19:02
[Tue 2020-01-07 06:19:02 AM] [client 192.168.49.1] update_tbl_admission_table Successfully Updated2020-01-07 06:19:02
[Tue 2020-01-07 11:49:02 AM] [client 192.168.49.1] update_learner_deregister_apply_table Successfully Updated2020-01-07 11:49:02
[Tue 2020-01-07 11:49:07 AM] [client 192.168.49.1] update_learner_deregister_apply_table_reject Successfully Updated2020-01-07 11:49:07
[Tue 2020-01-07 06:26:19 AM] [client 192.168.49.1] ajax request post accpect2020-01-07 06:26:19
[Tue 2020-01-07 06:26:30 AM] [client 192.168.49.1] encrypt file create2020-01-07 06:26:30
[Tue 2020-01-07 06:26:30 AM] [client 192.168.49.1] sen request to i learn2020-01-07 06:26:30
[Tue 2020-01-07 06:26:30 AM] [client 192.168.49.1] curl response2020-01-07 06:26:30{"status":"200","success":"success"}
[Tue 2020-01-07 06:26:30 AM] [client 192.168.49.1] change status to N2020-01-07 06:26:30
[Tue 2020-01-07 06:28:50 AM] [client 192.168.49.1] delete_biomatric_registration_entry Sucscessfully Deleted2020-01-07 06:28:50
[Tue 2020-01-07 06:28:50 AM] [client 192.168.49.1] update_tbl_admission_table Successfully Updated2020-01-07 06:28:50
[Tue 2020-01-07 11:58:50 AM] [client 192.168.49.1] update_learner_deregister_apply_table Successfully Updated2020-01-07 11:58:50
[Tue 2020-01-07 11:58:50 AM] [client 192.168.49.1] delete_biomatric_registration_entry Sucscessfully Deleted2020-01-07 11:58:50
[Tue 2020-01-07 11:58:50 AM] [client 192.168.49.1] update_tbl_admission_table Successfully Updated2020-01-07 11:58:50
[Tue 2020-01-07 11:58:50 AM] [client 192.168.49.1] update_learner_deregister_apply_table Successfully Updated2020-01-07 11:58:50
[Tue 2020-01-07 11:58:58 AM] [client 192.168.49.1] update_learner_deregister_apply_table_reject Successfully Updated2020-01-07 11:58:58
[Tue 2020-01-07 06:34:28 AM] [client 192.168.49.1] delete_biomatric_registration_entry Sucscessfully Deleted2020-01-07 06:34:28
[Tue 2020-01-07 06:34:28 AM] [client 192.168.49.1] update_tbl_admission_table Successfully Updated2020-01-07 06:34:28
[Tue 2020-01-07 12:04:28 PM] [client 192.168.49.1] update_learner_deregister_apply_table Successfully Updated2020-01-07 12:04:28
[Tue 2020-01-07 12:04:36 PM] [client 192.168.49.1] update_learner_deregister_apply_table_reject Successfully Updated2020-01-07 12:04:36
[Tue 2020-01-07 06:35:42 AM] [client 192.168.49.1] delete_biomatric_registration_entry Sucscessfully Deleted2020-01-07 06:35:42
[Tue 2020-01-07 06:35:42 AM] [client 192.168.49.1] update_tbl_admission_table Successfully Updated2020-01-07 06:35:42
[Tue 2020-01-07 12:05:42 PM] [client 192.168.49.1] update_learner_deregister_apply_table Successfully Updated2020-01-07 12:05:42
[Tue 2020-01-07 12:05:42 PM] [client 192.168.49.1] delete_biomatric_registration_entry Sucscessfully Deleted2020-01-07 12:05:42
[Tue 2020-01-07 12:05:42 PM] [client 192.168.49.1] update_tbl_admission_table Successfully Updated2020-01-07 12:05:42
[Tue 2020-01-07 12:05:42 PM] [client 192.168.49.1] update_learner_deregister_apply_table Successfully Updated2020-01-07 12:05:42
[Tue 2020-01-07 12:05:42 PM] [client 192.168.49.1] delete_biomatric_registration_entry Sucscessfully Deleted2020-01-07 12:05:42
[Tue 2020-01-07 12:05:42 PM] [client 192.168.49.1] update_tbl_admission_table Successfully Updated2020-01-07 12:05:42
[Tue 2020-01-07 12:05:42 PM] [client 192.168.49.1] update_learner_deregister_apply_table Successfully Updated2020-01-07 12:05:42
[Tue 2020-01-07 06:42:35 AM] [client 192.168.49.1] delete_biomatric_registration_entry Sucscessfully Deleted2020-01-07 06:42:35
[Tue 2020-01-07 06:42:35 AM] [client 192.168.49.1] update_tbl_admission_table Successfully Updated2020-01-07 06:42:35
[Tue 2020-01-07 12:12:35 PM] [client 192.168.49.1] update_learner_deregister_apply_table Successfully Updated2020-01-07 12:12:35
[Tue 2020-01-07 06:49:09 AM] [client 192.168.49.1] ajax request post accpect2020-01-07 06:49:09
[Tue 2020-01-07 06:49:20 AM] [client 192.168.49.1] encrypt file create2020-01-07 06:49:20
[Tue 2020-01-07 06:49:20 AM] [client 192.168.49.1] sen request to i learn2020-01-07 06:49:20
[Tue 2020-01-07 06:49:21 AM] [client 192.168.49.1] curl response2020-01-07 06:49:21{"status":"200","success":"success"}
[Tue 2020-01-07 06:49:21 AM] [client 192.168.49.1] change status to N2020-01-07 06:49:21
[Tue 2020-01-07 07:13:23 AM] [client 192.168.49.1] delete_biomatric_registration_entry Sucscessfully Deleted2020-01-07 07:13:23
[Tue 2020-01-07 07:13:23 AM] [client 192.168.49.1] update_tbl_admission_table Successfully Updated2020-01-07 07:13:23
[Tue 2020-01-07 12:43:23 PM] [client 192.168.49.1] update_learner_deregister_apply_table Successfully Updated2020-01-07 12:43:23
[Tue 2020-01-07 12:43:23 PM] [client 192.168.49.1] delete_biomatric_registration_entry Sucscessfully Deleted2020-01-07 12:43:23
[Tue 2020-01-07 12:43:23 PM] [client 192.168.49.1] update_tbl_admission_table Successfully Updated2020-01-07 12:43:23
[Tue 2020-01-07 12:43:23 PM] [client 192.168.49.1] update_learner_deregister_apply_table Successfully Updated2020-01-07 12:43:23
[Tue 2020-01-07 12:43:23 PM] [client 192.168.49.1] delete_biomatric_registration_entry Sucscessfully Deleted2020-01-07 12:43:23
[Tue 2020-01-07 12:43:23 PM] [client 192.168.49.1] update_tbl_admission_table Successfully Updated2020-01-07 12:43:23
[Tue 2020-01-07 12:43:23 PM] [client 192.168.49.1] update_learner_deregister_apply_table Successfully Updated2020-01-07 12:43:23
[Tue 2020-01-07 12:43:23 PM] [client 192.168.49.1] delete_biomatric_registration_entry Sucscessfully Deleted2020-01-07 12:43:23
[Tue 2020-01-07 12:43:23 PM] [client 192.168.49.1] update_tbl_admission_table Successfully Updated2020-01-07 12:43:23
[Tue 2020-01-07 12:43:23 PM] [client 192.168.49.1] update_learner_deregister_apply_table Successfully Updated2020-01-07 12:43:23
[Tue 2020-01-07 12:43:23 PM] [client 192.168.49.1] delete_biomatric_registration_entry Sucscessfully Deleted2020-01-07 12:43:23
[Tue 2020-01-07 12:43:23 PM] [client 192.168.49.1] update_tbl_admission_table Successfully Updated2020-01-07 12:43:23
[Tue 2020-01-07 12:43:23 PM] [client 192.168.49.1] update_learner_deregister_apply_table Successfully Updated2020-01-07 12:43:23
[Tue 2020-01-07 12:43:23 PM] [client 192.168.49.1] delete_biomatric_registration_entry Sucscessfully Deleted2020-01-07 12:43:23
[Tue 2020-01-07 12:43:23 PM] [client 192.168.49.1] update_tbl_admission_table Successfully Updated2020-01-07 12:43:23
[Tue 2020-01-07 12:43:23 PM] [client 192.168.49.1] update_learner_deregister_apply_table Successfully Updated2020-01-07 12:43:23
[Tue 2020-01-07 12:43:23 PM] [client 192.168.49.1] delete_biomatric_registration_entry Sucscessfully Deleted2020-01-07 12:43:23
[Tue 2020-01-07 12:43:23 PM] [client 192.168.49.1] update_tbl_admission_table Successfully Updated2020-01-07 12:43:23
[Tue 2020-01-07 12:43:23 PM] [client 192.168.49.1] update_learner_deregister_apply_table Successfully Updated2020-01-07 12:43:23
[Tue 2020-01-07 12:43:23 PM] [client 192.168.49.1] delete_biomatric_registration_entry Sucscessfully Deleted2020-01-07 12:43:23
[Tue 2020-01-07 12:43:23 PM] [client 192.168.49.1] update_tbl_admission_table Successfully Updated2020-01-07 12:43:23
[Tue 2020-01-07 12:43:23 PM] [client 192.168.49.1] update_learner_deregister_apply_table Successfully Updated2020-01-07 12:43:23
[Tue 2020-01-07 12:43:23 PM] [client 192.168.49.1] delete_biomatric_registration_entry Sucscessfully Deleted2020-01-07 12:43:23
[Tue 2020-01-07 12:43:23 PM] [client 192.168.49.1] update_tbl_admission_table Successfully Updated2020-01-07 12:43:23
[Tue 2020-01-07 12:43:23 PM] [client 192.168.49.1] update_learner_deregister_apply_table Successfully Updated2020-01-07 12:43:23
[Tue 2020-01-07 12:43:29 PM] [client 192.168.49.1] update_learner_deregister_apply_table_reject Successfully Updated2020-01-07 12:43:29
[Tue 2020-01-07 07:15:04 AM] [client 192.168.49.1] delete_biomatric_registration_entry Sucscessfully Deleted2020-01-07 07:15:04
[Tue 2020-01-07 07:15:04 AM] [client 192.168.49.1] update_tbl_admission_table Successfully Updated2020-01-07 07:15:04
[Tue 2020-01-07 12:45:04 PM] [client 192.168.49.1] update_learner_deregister_apply_table Successfully Updated2020-01-07 12:45:04
[Tue 2020-01-07 07:22:36 AM] [client 192.168.49.1] delete_biomatric_registration_entry Sucscessfully Deleted2020-01-07 07:22:36
[Tue 2020-01-07 07:22:36 AM] [client 192.168.49.1] update_tbl_admission_table Successfully Updated2020-01-07 07:22:36
[Tue 2020-01-07 12:52:36 PM] [client 192.168.49.1] update_learner_deregister_apply_table Successfully Updated2020-01-07 12:52:36
[Tue 2020-01-07 12:52:39 PM] [client 192.168.49.1] delete_biomatric_registration_entry Sucscessfully Deleted2020-01-07 12:52:39
[Tue 2020-01-07 12:52:39 PM] [client 192.168.49.1] update_tbl_admission_table Successfully Updated2020-01-07 12:52:39
[Tue 2020-01-07 12:52:39 PM] [client 192.168.49.1] update_learner_deregister_apply_table Successfully Updated2020-01-07 12:52:39
[Tue 2020-01-07 12:52:40 PM] [client 192.168.49.1] delete_biomatric_registration_entry Sucscessfully Deleted2020-01-07 12:52:40
[Tue 2020-01-07 12:52:40 PM] [client 192.168.49.1] update_tbl_admission_table Successfully Updated2020-01-07 12:52:40
[Tue 2020-01-07 12:52:40 PM] [client 192.168.49.1] update_learner_deregister_apply_table Successfully Updated2020-01-07 12:52:40
[Tue 2020-01-07 07:38:43 AM] [client 192.168.49.1] delete_biomatric_registration_entry Sucscessfully Deleted2020-01-07 07:38:43
[Tue 2020-01-07 07:38:43 AM] [client 192.168.49.1] update_tbl_admission_table Successfully Updated2020-01-07 07:38:43
[Tue 2020-01-07 01:08:43 PM] [client 192.168.49.1] update_learner_deregister_apply_table Successfully Updated2020-01-07 01:08:43
[Tue 2020-01-07 01:08:43 PM] [client 192.168.49.1] delete_biomatric_registration_entry Sucscessfully Deleted2020-01-07 01:08:43
[Tue 2020-01-07 01:08:43 PM] [client 192.168.49.1] update_tbl_admission_table Successfully Updated2020-01-07 01:08:43
[Tue 2020-01-07 01:08:43 PM] [client 192.168.49.1] update_learner_deregister_apply_table Successfully Updated2020-01-07 01:08:43
[Tue 2020-01-07 01:08:43 PM] [client 192.168.49.1] delete_biomatric_registration_entry Sucscessfully Deleted2020-01-07 01:08:43
[Tue 2020-01-07 01:08:43 PM] [client 192.168.49.1] update_tbl_admission_table Successfully Updated2020-01-07 01:08:43
[Tue 2020-01-07 01:08:43 PM] [client 192.168.49.1] update_learner_deregister_apply_table Successfully Updated2020-01-07 01:08:43
[Tue 2020-01-07 01:08:43 PM] [client 192.168.49.1] delete_biomatric_registration_entry Sucscessfully Deleted2020-01-07 01:08:43
[Tue 2020-01-07 01:08:43 PM] [client 192.168.49.1] update_tbl_admission_table Successfully Updated2020-01-07 01:08:43
[Tue 2020-01-07 01:08:43 PM] [client 192.168.49.1] update_learner_deregister_apply_table Successfully Updated2020-01-07 01:08:43
[Tue 2020-01-07 01:08:44 PM] [client 192.168.49.1] delete_biomatric_registration_entry Sucscessfully Deleted2020-01-07 01:08:44
[Tue 2020-01-07 01:08:44 PM] [client 192.168.49.1] update_tbl_admission_table Successfully Updated2020-01-07 01:08:44
[Tue 2020-01-07 01:08:44 PM] [client 192.168.49.1] update_learner_deregister_apply_table Successfully Updated2020-01-07 01:08:44
[Tue 2020-01-07 07:40:06 AM] [client 192.168.49.1] delete_biomatric_registration_entry Sucscessfully Deleted2020-01-07 07:40:06
[Tue 2020-01-07 07:40:06 AM] [client 192.168.49.1] update_tbl_admission_table Successfully Updated2020-01-07 07:40:06
[Tue 2020-01-07 01:10:06 PM] [client 192.168.49.1] update_learner_deregister_apply_table Successfully Updated2020-01-07 01:10:06
[Tue 2020-01-07 07:40:19 AM] [client 192.168.49.1] delete_biomatric_registration_entry Sucscessfully Deleted2020-01-07 07:40:19
[Tue 2020-01-07 07:40:19 AM] [client 192.168.49.1] update_tbl_admission_table Successfully Updated2020-01-07 07:40:19
[Tue 2020-01-07 01:10:19 PM] [client 192.168.49.1] update_learner_deregister_apply_table Successfully Updated2020-01-07 01:10:19
[Tue 2020-01-07 01:10:20 PM] [client 192.168.49.1] delete_biomatric_registration_entry Sucscessfully Deleted2020-01-07 01:10:20
[Tue 2020-01-07 01:10:20 PM] [client 192.168.49.1] update_tbl_admission_table Successfully Updated2020-01-07 01:10:20
[Tue 2020-01-07 01:10:20 PM] [client 192.168.49.1] update_learner_deregister_apply_table Successfully Updated2020-01-07 01:10:20
[Tue 2020-01-07 08:51:19 AM] [client 192.168.49.1] delete_biomatric_registration_entry Sucscessfully Deleted2020-01-07 08:51:19
[Tue 2020-01-07 08:51:19 AM] [client 192.168.49.1] update_tbl_admission_table Successfully Updated2020-01-07 08:51:19
[Tue 2020-01-07 02:21:19 PM] [client 192.168.49.1] update_learner_deregister_apply_table Successfully Updated2020-01-07 02:21:19
[Tue 2020-01-07 02:21:20 PM] [client 192.168.49.1] delete_biomatric_registration_entry Sucscessfully Deleted2020-01-07 02:21:20
[Tue 2020-01-07 02:21:20 PM] [client 192.168.49.1] update_tbl_admission_table Successfully Updated2020-01-07 02:21:20
[Tue 2020-01-07 02:21:20 PM] [client 192.168.49.1] update_learner_deregister_apply_table Successfully Updated2020-01-07 02:21:20
[Tue 2020-01-07 02:21:20 PM] [client 192.168.49.1] delete_biomatric_registration_entry Sucscessfully Deleted2020-01-07 02:21:20
[Tue 2020-01-07 02:21:20 PM] [client 192.168.49.1] update_tbl_admission_table Successfully Updated2020-01-07 02:21:20
[Tue 2020-01-07 02:21:20 PM] [client 192.168.49.1] update_learner_deregister_apply_table Successfully Updated2020-01-07 02:21:20
[Tue 2020-01-07 02:21:20 PM] [client 192.168.49.1] delete_biomatric_registration_entry Sucscessfully Deleted2020-01-07 02:21:20
[Tue 2020-01-07 02:21:20 PM] [client 192.168.49.1] update_tbl_admission_table Successfully Updated2020-01-07 02:21:20
[Tue 2020-01-07 02:21:20 PM] [client 192.168.49.1] update_learner_deregister_apply_table Successfully Updated2020-01-07 02:21:20
[Tue 2020-01-07 02:21:20 PM] [client 192.168.49.1] delete_biomatric_registration_entry Sucscessfully Deleted2020-01-07 02:21:20
[Tue 2020-01-07 02:21:20 PM] [client 192.168.49.1] update_tbl_admission_table Successfully Updated2020-01-07 02:21:20
[Tue 2020-01-07 02:21:20 PM] [client 192.168.49.1] update_learner_deregister_apply_table Successfully Updated2020-01-07 02:21:20
[Tue 2020-01-07 02:21:20 PM] [client 192.168.49.1] delete_biomatric_registration_entry Sucscessfully Deleted2020-01-07 02:21:20
[Tue 2020-01-07 02:21:20 PM] [client 192.168.49.1] update_tbl_admission_table Successfully Updated2020-01-07 02:21:20
[Tue 2020-01-07 02:21:20 PM] [client 192.168.49.1] update_learner_deregister_apply_table Successfully Updated2020-01-07 02:21:20
[Tue 2020-01-07 02:21:20 PM] [client 192.168.49.1] delete_biomatric_registration_entry Sucscessfully Deleted2020-01-07 02:21:20
[Tue 2020-01-07 02:21:20 PM] [client 192.168.49.1] update_tbl_admission_table Successfully Updated2020-01-07 02:21:20
[Tue 2020-01-07 02:21:20 PM] [client 192.168.49.1] update_learner_deregister_apply_table Successfully Updated2020-01-07 02:21:20
[Tue 2020-01-07 02:21:20 PM] [client 192.168.49.1] delete_biomatric_registration_entry Sucscessfully Deleted2020-01-07 02:21:20
[Tue 2020-01-07 02:21:20 PM] [client 192.168.49.1] update_tbl_admission_table Successfully Updated2020-01-07 02:21:20
[Tue 2020-01-07 02:21:20 PM] [client 192.168.49.1] update_learner_deregister_apply_table Successfully Updated2020-01-07 02:21:20
[Tue 2020-01-07 02:21:20 PM] [client 192.168.49.1] delete_biomatric_registration_entry Sucscessfully Deleted2020-01-07 02:21:20
[Tue 2020-01-07 02:21:20 PM] [client 192.168.49.1] update_tbl_admission_table Successfully Updated2020-01-07 02:21:20
[Tue 2020-01-07 02:21:20 PM] [client 192.168.49.1] update_learner_deregister_apply_table Successfully Updated2020-01-07 02:21:20
[Tue 2020-01-07 02:21:20 PM] [client 192.168.49.1] delete_biomatric_registration_entry Sucscessfully Deleted2020-01-07 02:21:20
[Tue 2020-01-07 02:21:20 PM] [client 192.168.49.1] update_tbl_admission_table Successfully Updated2020-01-07 02:21:20
[Tue 2020-01-07 02:21:20 PM] [client 192.168.49.1] update_learner_deregister_apply_table Successfully Updated2020-01-07 02:21:20
[Tue 2020-01-07 02:21:20 PM] [client 192.168.49.1] delete_biomatric_registration_entry Sucscessfully Deleted2020-01-07 02:21:20
[Tue 2020-01-07 02:21:20 PM] [client 192.168.49.1] update_tbl_admission_table Successfully Updated2020-01-07 02:21:20
[Tue 2020-01-07 02:21:20 PM] [client 192.168.49.1] update_learner_deregister_apply_table Successfully Updated2020-01-07 02:21:20
[Tue 2020-01-07 02:21:20 PM] [client 192.168.49.1] delete_biomatric_registration_entry Sucscessfully Deleted2020-01-07 02:21:20
[Tue 2020-01-07 02:21:20 PM] [client 192.168.49.1] update_tbl_admission_table Successfully Updated2020-01-07 02:21:20
[Tue 2020-01-07 02:21:20 PM] [client 192.168.49.1] update_learner_deregister_apply_table Successfully Updated2020-01-07 02:21:20
[Tue 2020-01-07 02:21:20 PM] [client 192.168.49.1] delete_biomatric_registration_entry Sucscessfully Deleted2020-01-07 02:21:20
[Tue 2020-01-07 02:21:20 PM] [client 192.168.49.1] update_tbl_admission_table Successfully Updated2020-01-07 02:21:20
[Tue 2020-01-07 02:21:20 PM] [client 192.168.49.1] update_learner_deregister_apply_table Successfully Updated2020-01-07 02:21:20
[Tue 2020-01-07 02:21:21 PM] [client 192.168.49.1] delete_biomatric_registration_entry Sucscessfully Deleted2020-01-07 02:21:21
[Tue 2020-01-07 02:21:21 PM] [client 192.168.49.1] update_tbl_admission_table Successfully Updated2020-01-07 02:21:21
[Tue 2020-01-07 02:21:21 PM] [client 192.168.49.1] update_learner_deregister_apply_table Successfully Updated2020-01-07 02:21:21
[Tue 2020-01-07 02:21:21 PM] [client 192.168.49.1] delete_biomatric_registration_entry Sucscessfully Deleted2020-01-07 02:21:21
[Tue 2020-01-07 02:21:21 PM] [client 192.168.49.1] update_tbl_admission_table Successfully Updated2020-01-07 02:21:21
[Tue 2020-01-07 02:21:21 PM] [client 192.168.49.1] update_learner_deregister_apply_table Successfully Updated2020-01-07 02:21:21
[Tue 2020-01-07 02:21:21 PM] [client 192.168.49.1] delete_biomatric_registration_entry Sucscessfully Deleted2020-01-07 02:21:21
[Tue 2020-01-07 02:21:21 PM] [client 192.168.49.1] update_tbl_admission_table Successfully Updated2020-01-07 02:21:21
[Tue 2020-01-07 02:21:21 PM] [client 192.168.49.1] update_learner_deregister_apply_table Successfully Updated2020-01-07 02:21:21
[Tue 2020-01-07 02:21:28 PM] [client 192.168.49.1] update_learner_deregister_apply_table_reject Successfully Updated2020-01-07 02:21:28
[Tue 2020-01-07 02:21:28 PM] [client 192.168.49.1] update_learner_deregister_apply_table_reject Successfully Updated2020-01-07 02:21:28
[Tue 2020-01-07 08:59:24 AM] [client 192.168.49.1] delete_biomatric_registration_entry Sucscessfully Deleted2020-01-07 08:59:24
[Tue 2020-01-07 08:59:24 AM] [client 192.168.49.1] update_tbl_admission_table Successfully Updated2020-01-07 08:59:24
[Tue 2020-01-07 02:29:24 PM] [client 192.168.49.1] update_learner_deregister_apply_table Successfully Updated2020-01-07 02:29:24
[Tue 2020-01-07 02:29:24 PM] [client 192.168.49.1] delete_biomatric_registration_entry Sucscessfully Deleted2020-01-07 02:29:24
[Tue 2020-01-07 02:29:24 PM] [client 192.168.49.1] update_tbl_admission_table Successfully Updated2020-01-07 02:29:24
[Tue 2020-01-07 02:29:24 PM] [client 192.168.49.1] update_learner_deregister_apply_table Successfully Updated2020-01-07 02:29:24
[Tue 2020-01-07 02:29:24 PM] [client 192.168.49.1] delete_biomatric_registration_entry Sucscessfully Deleted2020-01-07 02:29:24
[Tue 2020-01-07 02:29:24 PM] [client 192.168.49.1] update_tbl_admission_table Successfully Updated2020-01-07 02:29:24
[Tue 2020-01-07 02:29:24 PM] [client 192.168.49.1] update_learner_deregister_apply_table Successfully Updated2020-01-07 02:29:24
[Tue 2020-01-07 02:29:24 PM] [client 192.168.49.1] delete_biomatric_registration_entry Sucscessfully Deleted2020-01-07 02:29:24
[Tue 2020-01-07 02:29:24 PM] [client 192.168.49.1] update_tbl_admission_table Successfully Updated2020-01-07 02:29:24
[Tue 2020-01-07 02:29:24 PM] [client 192.168.49.1] update_learner_deregister_apply_table Successfully Updated2020-01-07 02:29:24
[Tue 2020-01-07 02:29:24 PM] [client 192.168.49.1] delete_biomatric_registration_entry Sucscessfully Deleted2020-01-07 02:29:24
[Tue 2020-01-07 02:29:24 PM] [client 192.168.49.1] update_tbl_admission_table Successfully Updated2020-01-07 02:29:24
[Tue 2020-01-07 02:29:24 PM] [client 192.168.49.1] update_learner_deregister_apply_table Successfully Updated2020-01-07 02:29:24
[Tue 2020-01-07 02:29:24 PM] [client 192.168.49.1] delete_biomatric_registration_entry Sucscessfully Deleted2020-01-07 02:29:24
[Tue 2020-01-07 02:29:24 PM] [client 192.168.49.1] update_tbl_admission_table Successfully Updated2020-01-07 02:29:24
[Tue 2020-01-07 02:29:24 PM] [client 192.168.49.1] update_learner_deregister_apply_table Successfully Updated2020-01-07 02:29:24
[Tue 2020-01-07 02:29:24 PM] [client 192.168.49.1] delete_biomatric_registration_entry Sucscessfully Deleted2020-01-07 02:29:24
[Tue 2020-01-07 02:29:24 PM] [client 192.168.49.1] update_tbl_admission_table Successfully Updated2020-01-07 02:29:24
[Tue 2020-01-07 02:29:24 PM] [client 192.168.49.1] update_learner_deregister_apply_table Successfully Updated2020-01-07 02:29:24
[Tue 2020-01-07 02:29:25 PM] [client 192.168.49.1] delete_biomatric_registration_entry Sucscessfully Deleted2020-01-07 02:29:25
[Tue 2020-01-07 02:29:25 PM] [client 192.168.49.1] update_tbl_admission_table Successfully Updated2020-01-07 02:29:25
[Tue 2020-01-07 02:29:25 PM] [client 192.168.49.1] update_learner_deregister_apply_table Successfully Updated2020-01-07 02:29:25
[Tue 2020-01-07 02:29:25 PM] [client 192.168.49.1] delete_biomatric_registration_entry Sucscessfully Deleted2020-01-07 02:29:25
[Tue 2020-01-07 02:29:25 PM] [client 192.168.49.1] update_tbl_admission_table Successfully Updated2020-01-07 02:29:25
[Tue 2020-01-07 02:29:25 PM] [client 192.168.49.1] update_learner_deregister_apply_table Successfully Updated2020-01-07 02:29:25
[Tue 2020-01-07 02:29:25 PM] [client 192.168.49.1] delete_biomatric_registration_entry Sucscessfully Deleted2020-01-07 02:29:25
[Tue 2020-01-07 02:29:25 PM] [client 192.168.49.1] update_tbl_admission_table Successfully Updated2020-01-07 02:29:25
[Tue 2020-01-07 02:29:25 PM] [client 192.168.49.1] update_learner_deregister_apply_table Successfully Updated2020-01-07 02:29:25
[Tue 2020-01-07 02:29:32 PM] [client 192.168.49.1] update_learner_deregister_apply_table_reject Successfully Updated2020-01-07 02:29:32
[Tue 2020-01-07 09:20:02 AM] [client 192.168.49.1] delete_biomatric_registration_entry Sucscessfully Deleted2020-01-07 09:20:02
[Tue 2020-01-07 09:20:02 AM] [client 192.168.49.1] update_tbl_admission_table Successfully Updated2020-01-07 09:20:02
[Tue 2020-01-07 02:50:02 PM] [client 192.168.49.1] update_learner_deregister_apply_table Successfully Updated2020-01-07 02:50:02
[Tue 2020-01-07 02:50:02 PM] [client 192.168.49.1] delete_biomatric_registration_entry Sucscessfully Deleted2020-01-07 02:50:02
[Tue 2020-01-07 02:50:02 PM] [client 192.168.49.1] update_tbl_admission_table Successfully Updated2020-01-07 02:50:02
[Tue 2020-01-07 02:50:02 PM] [client 192.168.49.1] update_learner_deregister_apply_table Successfully Updated2020-01-07 02:50:02
[Tue 2020-01-07 02:50:02 PM] [client 192.168.49.1] delete_biomatric_registration_entry Sucscessfully Deleted2020-01-07 02:50:02
[Tue 2020-01-07 02:50:02 PM] [client 192.168.49.1] update_tbl_admission_table Successfully Updated2020-01-07 02:50:02
[Tue 2020-01-07 02:50:02 PM] [client 192.168.49.1] update_learner_deregister_apply_table Successfully Updated2020-01-07 02:50:02
[Tue 2020-01-07 02:50:02 PM] [client 192.168.49.1] delete_biomatric_registration_entry Sucscessfully Deleted2020-01-07 02:50:02
[Tue 2020-01-07 02:50:02 PM] [client 192.168.49.1] update_tbl_admission_table Successfully Updated2020-01-07 02:50:02
[Tue 2020-01-07 02:50:02 PM] [client 192.168.49.1] update_learner_deregister_apply_table Successfully Updated2020-01-07 02:50:02
[Tue 2020-01-07 02:50:02 PM] [client 192.168.49.1] delete_biomatric_registration_entry Sucscessfully Deleted2020-01-07 02:50:02
[Tue 2020-01-07 02:50:02 PM] [client 192.168.49.1] update_tbl_admission_table Successfully Updated2020-01-07 02:50:02
[Tue 2020-01-07 02:50:02 PM] [client 192.168.49.1] update_learner_deregister_apply_table Successfully Updated2020-01-07 02:50:02
[Tue 2020-01-07 02:50:02 PM] [client 192.168.49.1] delete_biomatric_registration_entry Sucscessfully Deleted2020-01-07 02:50:02
[Tue 2020-01-07 02:50:02 PM] [client 192.168.49.1] update_tbl_admission_table Successfully Updated2020-01-07 02:50:02
[Tue 2020-01-07 02:50:02 PM] [client 192.168.49.1] update_learner_deregister_apply_table Successfully Updated2020-01-07 02:50:02
[Tue 2020-01-07 02:50:03 PM] [client 192.168.49.1] delete_biomatric_registration_entry Sucscessfully Deleted2020-01-07 02:50:03
[Tue 2020-01-07 02:50:03 PM] [client 192.168.49.1] update_tbl_admission_table Successfully Updated2020-01-07 02:50:03
[Tue 2020-01-07 02:50:03 PM] [client 192.168.49.1] update_learner_deregister_apply_table Successfully Updated2020-01-07 02:50:03
[Tue 2020-01-07 02:50:09 PM] [client 192.168.49.1] update_learner_deregister_apply_table_reject Successfully Updated2020-01-07 02:50:09
[Tue 2020-01-07 09:21:59 AM] [client 192.168.49.1] delete_biomatric_registration_entry Sucscessfully Deleted2020-01-07 09:21:59
[Tue 2020-01-07 09:21:59 AM] [client 192.168.49.1] update_tbl_admission_table Successfully Updated2020-01-07 09:21:59
[Tue 2020-01-07 02:51:59 PM] [client 192.168.49.1] update_learner_deregister_apply_table Successfully Updated2020-01-07 02:51:59
[Tue 2020-01-07 02:51:59 PM] [client 192.168.49.1] delete_biomatric_registration_entry Sucscessfully Deleted2020-01-07 02:51:59
[Tue 2020-01-07 02:51:59 PM] [client 192.168.49.1] update_tbl_admission_table Successfully Updated2020-01-07 02:51:59
[Tue 2020-01-07 02:51:59 PM] [client 192.168.49.1] update_learner_deregister_apply_table Successfully Updated2020-01-07 02:51:59
[Tue 2020-01-07 02:51:59 PM] [client 192.168.49.1] delete_biomatric_registration_entry Sucscessfully Deleted2020-01-07 02:51:59
[Tue 2020-01-07 02:51:59 PM] [client 192.168.49.1] update_tbl_admission_table Successfully Updated2020-01-07 02:51:59
[Tue 2020-01-07 02:51:59 PM] [client 192.168.49.1] update_learner_deregister_apply_table Successfully Updated2020-01-07 02:51:59
[Tue 2020-01-07 09:43:56 AM] [client 192.168.49.1] delete_biomatric_registration_entry Sucscessfully Deleted2020-01-07 09:43:56
[Tue 2020-01-07 09:43:56 AM] [client 192.168.49.1] update_tbl_admission_table Successfully Updated2020-01-07 09:43:56
[Tue 2020-01-07 03:13:56 PM] [client 192.168.49.1] update_learner_deregister_apply_table Successfully Updated2020-01-07 03:13:56
[Tue 2020-01-07 03:13:56 PM] [client 192.168.49.1] delete_biomatric_registration_entry Sucscessfully Deleted2020-01-07 03:13:56
[Tue 2020-01-07 03:13:56 PM] [client 192.168.49.1] update_tbl_admission_table Successfully Updated2020-01-07 03:13:56
[Tue 2020-01-07 03:13:56 PM] [client 192.168.49.1] update_learner_deregister_apply_table Successfully Updated2020-01-07 03:13:56
[Tue 2020-01-07 03:13:56 PM] [client 192.168.49.1] delete_biomatric_registration_entry Sucscessfully Deleted2020-01-07 03:13:56
[Tue 2020-01-07 03:13:56 PM] [client 192.168.49.1] update_tbl_admission_table Successfully Updated2020-01-07 03:13:56
[Tue 2020-01-07 03:13:56 PM] [client 192.168.49.1] update_learner_deregister_apply_table Successfully Updated2020-01-07 03:13:56
[Tue 2020-01-07 09:44:04 AM] [client 192.168.49.1] delete_biomatric_registration_entry Sucscessfully Deleted2020-01-07 09:44:04
[Tue 2020-01-07 09:44:04 AM] [client 192.168.49.1] update_tbl_admission_table Successfully Updated2020-01-07 09:44:04
[Tue 2020-01-07 03:14:04 PM] [client 192.168.49.1] update_learner_deregister_apply_table Successfully Updated2020-01-07 03:14:04
[Tue 2020-01-07 03:14:10 PM] [client 192.168.49.1] update_learner_deregister_apply_table_reject Successfully Updated2020-01-07 03:14:10
[Tue 2020-01-07 10:06:32 AM] [client 192.168.49.1] delete_biomatric_registration_entry Sucscessfully Deleted2020-01-07 10:06:32
[Tue 2020-01-07 10:06:32 AM] [client 192.168.49.1] update_tbl_admission_table Successfully Updated2020-01-07 10:06:32
[Tue 2020-01-07 03:36:32 PM] [client 192.168.49.1] update_learner_deregister_apply_table Successfully Updated2020-01-07 03:36:32
[Tue 2020-01-07 03:36:32 PM] [client 192.168.49.1] delete_biomatric_registration_entry Sucscessfully Deleted2020-01-07 03:36:32
[Tue 2020-01-07 03:36:32 PM] [client 192.168.49.1] update_tbl_admission_table Successfully Updated2020-01-07 03:36:32
[Tue 2020-01-07 03:36:32 PM] [client 192.168.49.1] update_learner_deregister_apply_table Successfully Updated2020-01-07 03:36:32
[Tue 2020-01-07 03:36:32 PM] [client 192.168.49.1] delete_biomatric_registration_entry Sucscessfully Deleted2020-01-07 03:36:32
[Tue 2020-01-07 03:36:32 PM] [client 192.168.49.1] update_tbl_admission_table Successfully Updated2020-01-07 03:36:32
[Tue 2020-01-07 03:36:32 PM] [client 192.168.49.1] update_learner_deregister_apply_table Successfully Updated2020-01-07 03:36:32
[Tue 2020-01-07 10:11:07 AM] [client 192.168.49.1] delete_biomatric_registration_entry Sucscessfully Deleted2020-01-07 10:11:07
[Tue 2020-01-07 10:11:07 AM] [client 192.168.49.1] update_tbl_admission_table Successfully Updated2020-01-07 10:11:07
[Tue 2020-01-07 03:41:07 PM] [client 192.168.49.1] update_learner_deregister_apply_table Successfully Updated2020-01-07 03:41:07
[Tue 2020-01-07 03:41:07 PM] [client 192.168.49.1] delete_biomatric_registration_entry Sucscessfully Deleted2020-01-07 03:41:07
[Tue 2020-01-07 03:41:07 PM] [client 192.168.49.1] update_tbl_admission_table Successfully Updated2020-01-07 03:41:07
[Tue 2020-01-07 03:41:07 PM] [client 192.168.49.1] update_learner_deregister_apply_table Successfully Updated2020-01-07 03:41:07
[Tue 2020-01-07 10:21:35 AM] [client 192.168.49.1] delete_biomatric_registration_entry Sucscessfully Deleted2020-01-07 10:21:35
[Tue 2020-01-07 10:21:35 AM] [client 192.168.49.1] update_tbl_admission_table Successfully Updated2020-01-07 10:21:35
[Tue 2020-01-07 03:51:35 PM] [client 192.168.49.1] update_learner_deregister_apply_table Successfully Updated2020-01-07 03:51:35
[Tue 2020-01-07 03:51:35 PM] [client 192.168.49.1] delete_biomatric_registration_entry Sucscessfully Deleted2020-01-07 03:51:35
[Tue 2020-01-07 03:51:35 PM] [client 192.168.49.1] update_tbl_admission_table Successfully Updated2020-01-07 03:51:35
[Tue 2020-01-07 03:51:35 PM] [client 192.168.49.1] update_learner_deregister_apply_table Successfully Updated2020-01-07 03:51:35
[Tue 2020-01-07 03:51:42 PM] [client 192.168.49.1] update_learner_deregister_apply_table_reject Successfully Updated2020-01-07 03:51:42
[Tue 2020-01-07 04:10:20 PM] [client 192.168.49.1] update_learner_deregister_apply_table_reject Successfully Updated2020-01-07 04:10:20
[Tue 2020-01-07 04:10:20 PM] [client 192.168.49.1] update_learner_deregister_apply_table_reject Successfully Updated2020-01-07 04:10:20
[Tue 2020-01-07 04:10:20 PM] [client 192.168.49.1] update_learner_deregister_apply_table_reject Successfully Updated2020-01-07 04:10:20
[Tue 2020-01-07 04:10:20 PM] [client 192.168.49.1] update_learner_deregister_apply_table_reject Successfully Updated2020-01-07 04:10:20
[Tue 2020-01-07 04:10:20 PM] [client 192.168.49.1] update_learner_deregister_apply_table_reject Successfully Updated2020-01-07 04:10:20
[Tue 2020-01-07 04:10:20 PM] [client 192.168.49.1] update_learner_deregister_apply_table_reject Successfully Updated2020-01-07 04:10:20
[Tue 2020-01-07 04:10:20 PM] [client 192.168.49.1] update_learner_deregister_apply_table_reject Successfully Updated2020-01-07 04:10:20
[Tue 2020-01-07 04:10:28 PM] [client 192.168.49.1] update_learner_deregister_apply_table_reject Successfully Updated2020-01-07 04:10:28
[Tue 2020-01-07 04:10:29 PM] [client 192.168.49.1] update_learner_deregister_apply_table_reject Successfully Updated2020-01-07 04:10:29
[Tue 2020-01-07 04:10:29 PM] [client 192.168.49.1] update_learner_deregister_apply_table_reject Successfully Updated2020-01-07 04:10:29
[Tue 2020-01-07 04:18:05 PM] [client 192.168.49.1] update_learner_deregister_apply_table_reject Successfully Updated2020-01-07 04:18:05
[Tue 2020-01-07 04:18:06 PM] [client 192.168.49.1] update_learner_deregister_apply_table_reject Successfully Updated2020-01-07 04:18:06
[Tue 2020-01-07 10:48:12 AM] [client 192.168.49.1] delete_biomatric_registration_entry Sucscessfully Deleted2020-01-07 10:48:12
[Tue 2020-01-07 10:48:12 AM] [client 192.168.49.1] update_tbl_admission_table Successfully Updated2020-01-07 10:48:12
[Tue 2020-01-07 04:18:12 PM] [client 192.168.49.1] update_learner_deregister_apply_table Successfully Updated2020-01-07 04:18:12
[Tue 2020-01-07 10:50:03 AM] [client 192.168.49.1] delete_biomatric_registration_entry Sucscessfully Deleted2020-01-07 10:50:03
[Tue 2020-01-07 10:50:03 AM] [client 192.168.49.1] update_tbl_admission_table Successfully Updated2020-01-07 10:50:03
[Tue 2020-01-07 04:20:03 PM] [client 192.168.49.1] update_learner_deregister_apply_table Successfully Updated2020-01-07 04:20:03
[Tue 2020-01-07 04:20:04 PM] [client 192.168.49.1] delete_biomatric_registration_entry Sucscessfully Deleted2020-01-07 04:20:04
[Tue 2020-01-07 04:20:04 PM] [client 192.168.49.1] update_tbl_admission_table Successfully Updated2020-01-07 04:20:04
[Tue 2020-01-07 04:20:04 PM] [client 192.168.49.1] update_learner_deregister_apply_table Successfully Updated2020-01-07 04:20:04
[Tue 2020-01-07 10:56:09 AM] [client 192.168.49.1] delete_biomatric_registration_entry Sucscessfully Deleted2020-01-07 10:56:09
[Tue 2020-01-07 10:56:09 AM] [client 192.168.49.1] update_tbl_admission_table Successfully Updated2020-01-07 10:56:09
[Tue 2020-01-07 04:26:09 PM] [client 192.168.49.1] update_learner_deregister_apply_table Successfully Updated2020-01-07 04:26:09
[Tue 2020-01-07 10:58:36 AM] [client 192.168.49.1] ajax request post accpect2020-01-07 10:58:36
[Tue 2020-01-07 10:59:17 AM] [client 192.168.49.1] encrypt file create2020-01-07 10:59:17
[Tue 2020-01-07 10:59:17 AM] [client 192.168.49.1] sen request to i learn2020-01-07 10:59:17
[Tue 2020-01-07 10:59:17 AM] [client 192.168.49.1] curl response2020-01-07 10:59:17{"status":"200","success":"success"}
[Tue 2020-01-07 10:59:17 AM] [client 192.168.49.1] change status to N2020-01-07 10:59:17
[Tue 2020-01-07 11:00:26 AM] [client 192.168.49.1] delete_biomatric_registration_entry Sucscessfully Deleted2020-01-07 11:00:26
[Tue 2020-01-07 11:00:26 AM] [client 192.168.49.1] update_tbl_admission_table Successfully Updated2020-01-07 11:00:26
[Tue 2020-01-07 04:30:26 PM] [client 192.168.49.1] update_learner_deregister_apply_table Successfully Updated2020-01-07 04:30:26
[Tue 2020-01-07 04:34:08 PM] [client 192.168.49.1] update_learner_deregister_apply_table_reject Successfully Updated2020-01-07 04:34:08
[Tue 2020-01-07 11:16:27 AM] [client 192.168.49.1] delete_biomatric_registration_entry Sucscessfully Deleted2020-01-07 11:16:27
[Tue 2020-01-07 11:16:27 AM] [client 192.168.49.1] update_tbl_admission_table Successfully Updated2020-01-07 11:16:27
[Tue 2020-01-07 04:46:27 PM] [client 192.168.49.1] update_learner_deregister_apply_table Successfully Updated2020-01-07 04:46:27
[Tue 2020-01-07 04:46:28 PM] [client 192.168.49.1] delete_biomatric_registration_entry Sucscessfully Deleted2020-01-07 04:46:28
[Tue 2020-01-07 04:46:28 PM] [client 192.168.49.1] update_tbl_admission_table Successfully Updated2020-01-07 04:46:28
[Tue 2020-01-07 04:46:28 PM] [client 192.168.49.1] update_learner_deregister_apply_table Successfully Updated2020-01-07 04:46:28
[Tue 2020-01-07 04:47:57 PM] [client 192.168.49.1] update_learner_deregister_apply_table_reject Successfully Updated2020-01-07 04:47:57
[Tue 2020-01-07 04:56:54 PM] [client 192.168.49.1] update_learner_deregister_apply_table_reject Successfully Updated2020-01-07 04:56:54
[Tue 2020-01-07 11:29:22 AM] [client 192.168.49.1] delete_biomatric_registration_entry Sucscessfully Deleted2020-01-07 11:29:22
[Tue 2020-01-07 11:29:22 AM] [client 192.168.49.1] update_tbl_admission_table Successfully Updated2020-01-07 11:29:22
[Tue 2020-01-07 04:59:22 PM] [client 192.168.49.1] update_learner_deregister_apply_table Successfully Updated2020-01-07 04:59:22
[Tue 2020-01-07 05:02:50 PM] [client 192.168.49.1] update_learner_deregister_apply_table_reject Successfully Updated2020-01-07 05:02:50
[Tue 2020-01-07 05:04:36 PM] [client 192.168.49.1] update_learner_deregister_apply_table_reject Successfully Updated2020-01-07 05:04:36
[Tue 2020-01-07 05:04:36 PM] [client 192.168.49.1] update_learner_deregister_apply_table_reject Successfully Updated2020-01-07 05:04:36
[Tue 2020-01-07 11:34:42 AM] [client 192.168.49.1] delete_biomatric_registration_entry Sucscessfully Deleted2020-01-07 11:34:42
[Tue 2020-01-07 11:34:42 AM] [client 192.168.49.1] update_tbl_admission_table Successfully Updated2020-01-07 11:34:42
[Tue 2020-01-07 05:04:42 PM] [client 192.168.49.1] update_learner_deregister_apply_table Successfully Updated2020-01-07 05:04:42
[Tue 2020-01-07 05:04:49 PM] [client 192.168.49.1] update_learner_deregister_apply_table_reject Successfully Updated2020-01-07 05:04:49
[Tue 2020-01-07 11:37:27 AM] [client 192.168.49.1] delete_biomatric_registration_entry Sucscessfully Deleted2020-01-07 11:37:27
[Tue 2020-01-07 11:37:27 AM] [client 192.168.49.1] update_tbl_admission_table Successfully Updated2020-01-07 11:37:27
[Tue 2020-01-07 05:07:27 PM] [client 192.168.49.1] update_learner_deregister_apply_table Successfully Updated2020-01-07 05:07:27
[Tue 2020-01-07 11:40:05 AM] [client 192.168.49.1] delete_biomatric_registration_entry Sucscessfully Deleted2020-01-07 11:40:05
[Tue 2020-01-07 11:40:05 AM] [client 192.168.49.1] update_tbl_admission_table Successfully Updated2020-01-07 11:40:05
[Tue 2020-01-07 05:10:05 PM] [client 192.168.49.1] update_learner_deregister_apply_table Successfully Updated2020-01-07 05:10:05
[Tue 2020-01-07 11:48:11 AM] [client 192.168.49.1] delete_biomatric_registration_entry Sucscessfully Deleted2020-01-07 11:48:11
[Tue 2020-01-07 11:48:11 AM] [client 192.168.49.1] update_tbl_admission_table Successfully Updated2020-01-07 11:48:11
[Tue 2020-01-07 05:18:11 PM] [client 192.168.49.1] update_learner_deregister_apply_table Successfully Updated2020-01-07 05:18:11
[Tue 2020-01-07 05:18:11 PM] [client 192.168.49.1] delete_biomatric_registration_entry Sucscessfully Deleted2020-01-07 05:18:11
[Tue 2020-01-07 05:18:11 PM] [client 192.168.49.1] update_tbl_admission_table Successfully Updated2020-01-07 05:18:11
[Tue 2020-01-07 05:18:11 PM] [client 192.168.49.1] update_learner_deregister_apply_table Successfully Updated2020-01-07 05:18:11
[Tue 2020-01-07 05:19:20 PM] [client 192.168.49.1] update_learner_deregister_apply_table_reject Successfully Updated2020-01-07 05:19:20
[Tue 2020-01-07 05:21:01 PM] [client 192.168.49.1] update_learner_deregister_apply_table_reject Successfully Updated2020-01-07 05:21:01
[Tue 2020-01-07 11:57:50 AM] [client 192.168.49.1] delete_biomatric_registration_entry Sucscessfully Deleted2020-01-07 11:57:50
[Tue 2020-01-07 11:57:50 AM] [client 192.168.49.1] update_tbl_admission_table Successfully Updated2020-01-07 11:57:50
[Tue 2020-01-07 05:27:50 PM] [client 192.168.49.1] update_learner_deregister_apply_table Successfully Updated2020-01-07 05:27:50
[Tue 2020-01-07 05:27:50 PM] [client 192.168.49.1] delete_biomatric_registration_entry Sucscessfully Deleted2020-01-07 05:27:50
[Tue 2020-01-07 05:27:50 PM] [client 192.168.49.1] update_tbl_admission_table Successfully Updated2020-01-07 05:27:50
[Tue 2020-01-07 05:27:50 PM] [client 192.168.49.1] update_learner_deregister_apply_table Successfully Updated2020-01-07 05:27:50
[Tue 2020-01-07 05:27:50 PM] [client 192.168.49.1] delete_biomatric_registration_entry Sucscessfully Deleted2020-01-07 05:27:50
[Tue 2020-01-07 05:27:50 PM] [client 192.168.49.1] update_tbl_admission_table Successfully Updated2020-01-07 05:27:50
[Tue 2020-01-07 05:27:50 PM] [client 192.168.49.1] update_learner_deregister_apply_table Successfully Updated2020-01-07 05:27:50
[Tue 2020-01-07 05:27:50 PM] [client 192.168.49.1] delete_biomatric_registration_entry Sucscessfully Deleted2020-01-07 05:27:50
[Tue 2020-01-07 05:27:50 PM] [client 192.168.49.1] update_tbl_admission_table Successfully Updated2020-01-07 05:27:50
[Tue 2020-01-07 05:27:50 PM] [client 192.168.49.1] update_learner_deregister_apply_table Successfully Updated2020-01-07 05:27:50
[Tue 2020-01-07 05:27:50 PM] [client 192.168.49.1] delete_biomatric_registration_entry Sucscessfully Deleted2020-01-07 05:27:50
[Tue 2020-01-07 05:27:50 PM] [client 192.168.49.1] update_tbl_admission_table Successfully Updated2020-01-07 05:27:50
[Tue 2020-01-07 05:27:50 PM] [client 192.168.49.1] update_learner_deregister_apply_table Successfully Updated2020-01-07 05:27:50
