[Fri 2019-12-20 03:58:54 AM] [client 192.168.49.1] delete_biomatric_registration_entry Sucscessfully Deleted2019-12-20 03:58:54
[Fri 2019-12-20 03:58:54 AM] [client 192.168.49.1] update_tbl_admission_table Successfully Updated2019-12-20 03:58:54
[Fri 2019-12-20 09:28:54 AM] [client 192.168.49.1] update_learner_deregister_apply_table Successfully Updated2019-12-20 09:28:54
[Fri 2019-12-20 09:28:54 AM] [client 192.168.49.1] delete_biomatric_registration_entry Sucscessfully Deleted2019-12-20 09:28:54
[Fri 2019-12-20 09:28:54 AM] [client 192.168.49.1] update_tbl_admission_table Successfully Updated2019-12-20 09:28:54
[Fri 2019-12-20 09:28:54 AM] [client 192.168.49.1] update_learner_deregister_apply_table Successfully Updated2019-12-20 09:28:54
[Fri 2019-12-20 09:28:54 AM] [client 192.168.49.1] delete_biomatric_registration_entry Sucscessfully Deleted2019-12-20 09:28:54
[Fri 2019-12-20 09:28:54 AM] [client 192.168.49.1] update_tbl_admission_table Successfully Updated2019-12-20 09:28:54
[Fri 2019-12-20 09:28:54 AM] [client 192.168.49.1] update_learner_deregister_apply_table Successfully Updated2019-12-20 09:28:54
[Fri 2019-12-20 09:28:54 AM] [client 192.168.49.1] delete_biomatric_registration_entry Sucscessfully Deleted2019-12-20 09:28:54
[Fri 2019-12-20 09:28:54 AM] [client 192.168.49.1] update_tbl_admission_table Successfully Updated2019-12-20 09:28:54
[Fri 2019-12-20 09:28:54 AM] [client 192.168.49.1] update_learner_deregister_apply_table Successfully Updated2019-12-20 09:28:54
[Fri 2019-12-20 09:28:54 AM] [client 192.168.49.1] delete_biomatric_registration_entry Sucscessfully Deleted2019-12-20 09:28:54
[Fri 2019-12-20 09:28:54 AM] [client 192.168.49.1] update_tbl_admission_table Successfully Updated2019-12-20 09:28:54
[Fri 2019-12-20 09:28:54 AM] [client 192.168.49.1] update_learner_deregister_apply_table Successfully Updated2019-12-20 09:28:54
[Fri 2019-12-20 09:28:54 AM] [client 192.168.49.1] delete_biomatric_registration_entry Sucscessfully Deleted2019-12-20 09:28:54
[Fri 2019-12-20 09:28:54 AM] [client 192.168.49.1] update_tbl_admission_table Successfully Updated2019-12-20 09:28:54
[Fri 2019-12-20 09:28:54 AM] [client 192.168.49.1] update_learner_deregister_apply_table Successfully Updated2019-12-20 09:28:54
[Fri 2019-12-20 09:28:54 AM] [client 192.168.49.1] delete_biomatric_registration_entry Sucscessfully Deleted2019-12-20 09:28:54
[Fri 2019-12-20 09:28:54 AM] [client 192.168.49.1] update_tbl_admission_table Successfully Updated2019-12-20 09:28:54
[Fri 2019-12-20 09:28:54 AM] [client 192.168.49.1] update_learner_deregister_apply_table Successfully Updated2019-12-20 09:28:54
[Fri 2019-12-20 09:28:54 AM] [client 192.168.49.1] delete_biomatric_registration_entry Sucscessfully Deleted2019-12-20 09:28:54
[Fri 2019-12-20 09:28:54 AM] [client 192.168.49.1] update_tbl_admission_table Successfully Updated2019-12-20 09:28:54
[Fri 2019-12-20 09:28:54 AM] [client 192.168.49.1] update_learner_deregister_apply_table Successfully Updated2019-12-20 09:28:54
[Fri 2019-12-20 04:05:33 AM] [client 192.168.49.1] delete_biomatric_registration_entry Sucscessfully Deleted2019-12-20 04:05:33
[Fri 2019-12-20 04:05:33 AM] [client 192.168.49.1] update_tbl_admission_table Successfully Updated2019-12-20 04:05:33
[Fri 2019-12-20 09:35:33 AM] [client 192.168.49.1] update_learner_deregister_apply_table Successfully Updated2019-12-20 09:35:33
[Fri 2019-12-20 09:35:33 AM] [client 192.168.49.1] delete_biomatric_registration_entry Sucscessfully Deleted2019-12-20 09:35:33
[Fri 2019-12-20 09:35:33 AM] [client 192.168.49.1] update_tbl_admission_table Successfully Updated2019-12-20 09:35:33
[Fri 2019-12-20 09:35:33 AM] [client 192.168.49.1] update_learner_deregister_apply_table Successfully Updated2019-12-20 09:35:33
[Fri 2019-12-20 04:14:31 AM] [client 192.168.49.1] delete_biomatric_registration_entry Sucscessfully Deleted2019-12-20 04:14:31
[Fri 2019-12-20 04:14:31 AM] [client 192.168.49.1] update_tbl_admission_table Successfully Updated2019-12-20 04:14:31
[Fri 2019-12-20 09:44:31 AM] [client 192.168.49.1] update_learner_deregister_apply_table Successfully Updated2019-12-20 09:44:31
[Fri 2019-12-20 04:30:53 AM] [client 192.168.49.1] delete_biomatric_registration_entry Sucscessfully Deleted2019-12-20 04:30:53
[Fri 2019-12-20 04:30:53 AM] [client 192.168.49.1] update_tbl_admission_table Successfully Updated2019-12-20 04:30:53
[Fri 2019-12-20 10:00:53 AM] [client 192.168.49.1] update_learner_deregister_apply_table Successfully Updated2019-12-20 10:00:53
[Fri 2019-12-20 10:00:53 AM] [client 192.168.49.1] delete_biomatric_registration_entry Sucscessfully Deleted2019-12-20 10:00:53
[Fri 2019-12-20 10:00:53 AM] [client 192.168.49.1] update_tbl_admission_table Successfully Updated2019-12-20 10:00:53
[Fri 2019-12-20 10:00:53 AM] [client 192.168.49.1] update_learner_deregister_apply_table Successfully Updated2019-12-20 10:00:53
[Fri 2019-12-20 10:00:53 AM] [client 192.168.49.1] delete_biomatric_registration_entry Sucscessfully Deleted2019-12-20 10:00:53
[Fri 2019-12-20 10:00:53 AM] [client 192.168.49.1] update_tbl_admission_table Successfully Updated2019-12-20 10:00:53
[Fri 2019-12-20 10:00:53 AM] [client 192.168.49.1] update_learner_deregister_apply_table Successfully Updated2019-12-20 10:00:53
[Fri 2019-12-20 10:00:53 AM] [client 192.168.49.1] delete_biomatric_registration_entry Sucscessfully Deleted2019-12-20 10:00:53
[Fri 2019-12-20 10:00:53 AM] [client 192.168.49.1] update_tbl_admission_table Successfully Updated2019-12-20 10:00:53
[Fri 2019-12-20 10:00:53 AM] [client 192.168.49.1] update_learner_deregister_apply_table Successfully Updated2019-12-20 10:00:53
[Fri 2019-12-20 10:00:53 AM] [client 192.168.49.1] delete_biomatric_registration_entry Sucscessfully Deleted2019-12-20 10:00:53
[Fri 2019-12-20 10:00:53 AM] [client 192.168.49.1] update_tbl_admission_table Successfully Updated2019-12-20 10:00:53
[Fri 2019-12-20 10:00:53 AM] [client 192.168.49.1] update_learner_deregister_apply_table Successfully Updated2019-12-20 10:00:53
[Fri 2019-12-20 10:00:53 AM] [client 192.168.49.1] delete_biomatric_registration_entry Sucscessfully Deleted2019-12-20 10:00:53
[Fri 2019-12-20 10:00:53 AM] [client 192.168.49.1] update_tbl_admission_table Successfully Updated2019-12-20 10:00:53
[Fri 2019-12-20 10:00:53 AM] [client 192.168.49.1] update_learner_deregister_apply_table Successfully Updated2019-12-20 10:00:53
[Fri 2019-12-20 10:00:54 AM] [client 192.168.49.1] delete_biomatric_registration_entry Sucscessfully Deleted2019-12-20 10:00:54
[Fri 2019-12-20 10:00:54 AM] [client 192.168.49.1] update_tbl_admission_table Successfully Updated2019-12-20 10:00:54
[Fri 2019-12-20 10:00:54 AM] [client 192.168.49.1] update_learner_deregister_apply_table Successfully Updated2019-12-20 10:00:54
[Fri 2019-12-20 10:00:54 AM] [client 192.168.49.1] delete_biomatric_registration_entry Sucscessfully Deleted2019-12-20 10:00:54
[Fri 2019-12-20 10:00:54 AM] [client 192.168.49.1] update_tbl_admission_table Successfully Updated2019-12-20 10:00:54
[Fri 2019-12-20 10:00:54 AM] [client 192.168.49.1] update_learner_deregister_apply_table Successfully Updated2019-12-20 10:00:54
[Fri 2019-12-20 10:00:54 AM] [client 192.168.49.1] delete_biomatric_registration_entry Sucscessfully Deleted2019-12-20 10:00:54
[Fri 2019-12-20 10:00:54 AM] [client 192.168.49.1] update_tbl_admission_table Successfully Updated2019-12-20 10:00:54
[Fri 2019-12-20 10:00:54 AM] [client 192.168.49.1] update_learner_deregister_apply_table Successfully Updated2019-12-20 10:00:54
[Fri 2019-12-20 10:00:54 AM] [client 192.168.49.1] delete_biomatric_registration_entry Sucscessfully Deleted2019-12-20 10:00:54
[Fri 2019-12-20 10:00:54 AM] [client 192.168.49.1] update_tbl_admission_table Successfully Updated2019-12-20 10:00:54
[Fri 2019-12-20 10:00:54 AM] [client 192.168.49.1] update_learner_deregister_apply_table Successfully Updated2019-12-20 10:00:54
[Fri 2019-12-20 10:00:54 AM] [client 192.168.49.1] delete_biomatric_registration_entry Sucscessfully Deleted2019-12-20 10:00:54
[Fri 2019-12-20 10:00:54 AM] [client 192.168.49.1] update_tbl_admission_table Successfully Updated2019-12-20 10:00:54
[Fri 2019-12-20 10:00:54 AM] [client 192.168.49.1] update_learner_deregister_apply_table Successfully Updated2019-12-20 10:00:54
[Fri 2019-12-20 10:00:54 AM] [client 192.168.49.1] delete_biomatric_registration_entry Sucscessfully Deleted2019-12-20 10:00:54
[Fri 2019-12-20 10:00:54 AM] [client 192.168.49.1] update_tbl_admission_table Successfully Updated2019-12-20 10:00:54
[Fri 2019-12-20 10:00:54 AM] [client 192.168.49.1] update_learner_deregister_apply_table Successfully Updated2019-12-20 10:00:54
[Fri 2019-12-20 04:33:14 AM] [client 192.168.49.1] delete_biomatric_registration_entry Sucscessfully Deleted2019-12-20 04:33:14
[Fri 2019-12-20 04:33:14 AM] [client 192.168.49.1] update_tbl_admission_table Successfully Updated2019-12-20 04:33:14
[Fri 2019-12-20 10:03:14 AM] [client 192.168.49.1] update_learner_deregister_apply_table Successfully Updated2019-12-20 10:03:14
[Fri 2019-12-20 04:33:43 AM] [client 192.168.49.1] delete_biomatric_registration_entry Sucscessfully Deleted2019-12-20 04:33:43
[Fri 2019-12-20 04:33:43 AM] [client 192.168.49.1] update_tbl_admission_table Successfully Updated2019-12-20 04:33:43
[Fri 2019-12-20 10:03:43 AM] [client 192.168.49.1] update_learner_deregister_apply_table Successfully Updated2019-12-20 10:03:43
[Fri 2019-12-20 10:03:43 AM] [client 192.168.49.1] delete_biomatric_registration_entry Sucscessfully Deleted2019-12-20 10:03:43
[Fri 2019-12-20 10:03:43 AM] [client 192.168.49.1] update_tbl_admission_table Successfully Updated2019-12-20 10:03:43
[Fri 2019-12-20 10:03:43 AM] [client 192.168.49.1] update_learner_deregister_apply_table Successfully Updated2019-12-20 10:03:43
[Fri 2019-12-20 04:34:12 AM] [client 192.168.49.1] delete_biomatric_registration_entry Sucscessfully Deleted2019-12-20 04:34:12
[Fri 2019-12-20 04:34:12 AM] [client 192.168.49.1] update_tbl_admission_table Successfully Updated2019-12-20 04:34:12
[Fri 2019-12-20 10:04:12 AM] [client 192.168.49.1] update_learner_deregister_apply_table Successfully Updated2019-12-20 10:04:12
[Fri 2019-12-20 04:37:35 AM] [client 192.168.49.1] delete_biomatric_registration_entry Sucscessfully Deleted2019-12-20 04:37:35
[Fri 2019-12-20 04:37:35 AM] [client 192.168.49.1] update_tbl_admission_table Successfully Updated2019-12-20 04:37:35
[Fri 2019-12-20 10:07:35 AM] [client 192.168.49.1] update_learner_deregister_apply_table Successfully Updated2019-12-20 10:07:35
[Fri 2019-12-20 10:07:35 AM] [client 192.168.49.1] delete_biomatric_registration_entry Sucscessfully Deleted2019-12-20 10:07:35
[Fri 2019-12-20 10:07:35 AM] [client 192.168.49.1] update_tbl_admission_table Successfully Updated2019-12-20 10:07:35
[Fri 2019-12-20 10:07:35 AM] [client 192.168.49.1] update_learner_deregister_apply_table Successfully Updated2019-12-20 10:07:35
[Fri 2019-12-20 10:07:35 AM] [client 192.168.49.1] delete_biomatric_registration_entry Sucscessfully Deleted2019-12-20 10:07:35
[Fri 2019-12-20 10:07:35 AM] [client 192.168.49.1] update_tbl_admission_table Successfully Updated2019-12-20 10:07:35
[Fri 2019-12-20 10:07:35 AM] [client 192.168.49.1] update_learner_deregister_apply_table Successfully Updated2019-12-20 10:07:35
[Fri 2019-12-20 04:41:32 AM] [client 192.168.49.1] delete_biomatric_registration_entry Sucscessfully Deleted2019-12-20 04:41:32
[Fri 2019-12-20 04:41:32 AM] [client 192.168.49.1] update_tbl_admission_table Successfully Updated2019-12-20 04:41:32
[Fri 2019-12-20 10:11:32 AM] [client 192.168.49.1] update_learner_deregister_apply_table Successfully Updated2019-12-20 10:11:32
[Fri 2019-12-20 10:11:38 AM] [client 192.168.49.1] update_learner_deregister_apply_table_reject Successfully Updated2019-12-20 10:11:38
[Fri 2019-12-20 10:11:38 AM] [client 192.168.49.1] update_learner_deregister_apply_table_reject Successfully Updated2019-12-20 10:11:38
[Fri 2019-12-20 04:50:32 AM] [client 192.168.49.1] delete_biomatric_registration_entry Sucscessfully Deleted2019-12-20 04:50:32
[Fri 2019-12-20 04:50:32 AM] [client 192.168.49.1] update_tbl_admission_table Successfully Updated2019-12-20 04:50:32
[Fri 2019-12-20 10:20:32 AM] [client 192.168.49.1] update_learner_deregister_apply_table Successfully Updated2019-12-20 10:20:32
[Fri 2019-12-20 10:20:32 AM] [client 192.168.49.1] delete_biomatric_registration_entry Sucscessfully Deleted2019-12-20 10:20:32
[Fri 2019-12-20 10:20:32 AM] [client 192.168.49.1] update_tbl_admission_table Successfully Updated2019-12-20 10:20:32
[Fri 2019-12-20 10:20:32 AM] [client 192.168.49.1] update_learner_deregister_apply_table Successfully Updated2019-12-20 10:20:32
[Fri 2019-12-20 10:20:39 AM] [client 192.168.49.1] update_learner_deregister_apply_table_reject Successfully Updated2019-12-20 10:20:39
[Fri 2019-12-20 05:07:24 AM] [client 192.168.49.1] delete_biomatric_registration_entry Sucscessfully Deleted2019-12-20 05:07:24
[Fri 2019-12-20 05:07:24 AM] [client 192.168.49.1] update_tbl_admission_table Successfully Updated2019-12-20 05:07:24
[Fri 2019-12-20 10:37:24 AM] [client 192.168.49.1] update_learner_deregister_apply_table Successfully Updated2019-12-20 10:37:24
[Fri 2019-12-20 05:16:29 AM] [client 192.168.49.1] delete_biomatric_registration_entry Sucscessfully Deleted2019-12-20 05:16:29
[Fri 2019-12-20 05:16:29 AM] [client 192.168.49.1] update_tbl_admission_table Successfully Updated2019-12-20 05:16:29
[Fri 2019-12-20 10:46:29 AM] [client 192.168.49.1] update_learner_deregister_apply_table Successfully Updated2019-12-20 10:46:29
[Fri 2019-12-20 10:46:29 AM] [client 192.168.49.1] delete_biomatric_registration_entry Sucscessfully Deleted2019-12-20 10:46:29
[Fri 2019-12-20 10:46:29 AM] [client 192.168.49.1] update_tbl_admission_table Successfully Updated2019-12-20 10:46:29
[Fri 2019-12-20 10:46:29 AM] [client 192.168.49.1] update_learner_deregister_apply_table Successfully Updated2019-12-20 10:46:29
[Fri 2019-12-20 10:46:36 AM] [client 192.168.49.1] update_learner_deregister_apply_table_reject Successfully Updated2019-12-20 10:46:36
[Fri 2019-12-20 05:55:18 AM] [client 192.168.49.1] delete_biomatric_registration_entry Sucscessfully Deleted2019-12-20 05:55:18
[Fri 2019-12-20 05:55:18 AM] [client 192.168.49.1] update_tbl_admission_table Successfully Updated2019-12-20 05:55:18
[Fri 2019-12-20 11:25:18 AM] [client 192.168.49.1] update_learner_deregister_apply_table Successfully Updated2019-12-20 11:25:18
[Fri 2019-12-20 11:25:19 AM] [client 192.168.49.1] delete_biomatric_registration_entry Sucscessfully Deleted2019-12-20 11:25:19
[Fri 2019-12-20 11:25:19 AM] [client 192.168.49.1] update_tbl_admission_table Successfully Updated2019-12-20 11:25:19
[Fri 2019-12-20 11:25:19 AM] [client 192.168.49.1] update_learner_deregister_apply_table Successfully Updated2019-12-20 11:25:19
[Fri 2019-12-20 11:25:19 AM] [client 192.168.49.1] delete_biomatric_registration_entry Sucscessfully Deleted2019-12-20 11:25:19
[Fri 2019-12-20 11:25:19 AM] [client 192.168.49.1] update_tbl_admission_table Successfully Updated2019-12-20 11:25:19
[Fri 2019-12-20 11:25:19 AM] [client 192.168.49.1] update_learner_deregister_apply_table Successfully Updated2019-12-20 11:25:19
[Fri 2019-12-20 11:25:19 AM] [client 192.168.49.1] delete_biomatric_registration_entry Sucscessfully Deleted2019-12-20 11:25:19
[Fri 2019-12-20 11:25:19 AM] [client 192.168.49.1] update_tbl_admission_table Successfully Updated2019-12-20 11:25:19
[Fri 2019-12-20 11:25:19 AM] [client 192.168.49.1] update_learner_deregister_apply_table Successfully Updated2019-12-20 11:25:19
[Fri 2019-12-20 11:25:29 AM] [client 192.168.49.1] update_learner_deregister_apply_table_reject Successfully Updated2019-12-20 11:25:29
[Fri 2019-12-20 11:25:29 AM] [client 192.168.49.1] update_learner_deregister_apply_table_reject Successfully Updated2019-12-20 11:25:29
[Fri 2019-12-20 11:25:29 AM] [client 192.168.49.1] update_learner_deregister_apply_table_reject Successfully Updated2019-12-20 11:25:29
[Fri 2019-12-20 06:03:58 AM] [client 192.168.49.1] delete_biomatric_registration_entry Sucscessfully Deleted2019-12-20 06:03:58
[Fri 2019-12-20 06:03:58 AM] [client 192.168.49.1] update_tbl_admission_table Successfully Updated2019-12-20 06:03:58
[Fri 2019-12-20 11:33:58 AM] [client 192.168.49.1] update_learner_deregister_apply_table Successfully Updated2019-12-20 11:33:58
[Fri 2019-12-20 11:34:03 AM] [client 192.168.49.1] update_learner_deregister_apply_table_reject Successfully Updated2019-12-20 11:34:03
[Fri 2019-12-20 06:07:27 AM] [client 192.168.49.1] delete_biomatric_registration_entry Sucscessfully Deleted2019-12-20 06:07:27
[Fri 2019-12-20 06:07:27 AM] [client 192.168.49.1] update_tbl_admission_table Successfully Updated2019-12-20 06:07:27
[Fri 2019-12-20 11:37:27 AM] [client 192.168.49.1] update_learner_deregister_apply_table Successfully Updated2019-12-20 11:37:27
[Fri 2019-12-20 11:37:27 AM] [client 192.168.49.1] delete_biomatric_registration_entry Sucscessfully Deleted2019-12-20 11:37:27
[Fri 2019-12-20 11:37:27 AM] [client 192.168.49.1] update_tbl_admission_table Successfully Updated2019-12-20 11:37:27
[Fri 2019-12-20 11:37:27 AM] [client 192.168.49.1] update_learner_deregister_apply_table Successfully Updated2019-12-20 11:37:27
[Fri 2019-12-20 11:37:27 AM] [client 192.168.49.1] delete_biomatric_registration_entry Sucscessfully Deleted2019-12-20 11:37:27
[Fri 2019-12-20 11:37:27 AM] [client 192.168.49.1] update_tbl_admission_table Successfully Updated2019-12-20 11:37:27
[Fri 2019-12-20 11:37:27 AM] [client 192.168.49.1] update_learner_deregister_apply_table Successfully Updated2019-12-20 11:37:27
[Fri 2019-12-20 06:14:08 AM] [client 192.168.49.1] delete_biomatric_registration_entry Sucscessfully Deleted2019-12-20 06:14:08
[Fri 2019-12-20 06:14:08 AM] [client 192.168.49.1] update_tbl_admission_table Successfully Updated2019-12-20 06:14:08
[Fri 2019-12-20 11:44:08 AM] [client 192.168.49.1] update_learner_deregister_apply_table Successfully Updated2019-12-20 11:44:08
[Fri 2019-12-20 06:27:45 AM] [client 192.168.49.1] delete_biomatric_registration_entry Sucscessfully Deleted2019-12-20 06:27:45
[Fri 2019-12-20 06:27:45 AM] [client 192.168.49.1] update_tbl_admission_table Successfully Updated2019-12-20 06:27:45
[Fri 2019-12-20 11:57:45 AM] [client 192.168.49.1] update_learner_deregister_apply_table Successfully Updated2019-12-20 11:57:45
[Fri 2019-12-20 11:57:46 AM] [client 192.168.49.1] delete_biomatric_registration_entry Sucscessfully Deleted2019-12-20 11:57:46
[Fri 2019-12-20 11:57:46 AM] [client 192.168.49.1] update_tbl_admission_table Successfully Updated2019-12-20 11:57:46
[Fri 2019-12-20 11:57:46 AM] [client 192.168.49.1] update_learner_deregister_apply_table Successfully Updated2019-12-20 11:57:46
[Fri 2019-12-20 11:57:46 AM] [client 192.168.49.1] delete_biomatric_registration_entry Sucscessfully Deleted2019-12-20 11:57:46
[Fri 2019-12-20 11:57:46 AM] [client 192.168.49.1] update_tbl_admission_table Successfully Updated2019-12-20 11:57:46
[Fri 2019-12-20 11:57:46 AM] [client 192.168.49.1] update_learner_deregister_apply_table Successfully Updated2019-12-20 11:57:46
[Fri 2019-12-20 11:57:46 AM] [client 192.168.49.1] delete_biomatric_registration_entry Sucscessfully Deleted2019-12-20 11:57:46
[Fri 2019-12-20 11:57:46 AM] [client 192.168.49.1] update_tbl_admission_table Successfully Updated2019-12-20 11:57:46
[Fri 2019-12-20 11:57:46 AM] [client 192.168.49.1] update_learner_deregister_apply_table Successfully Updated2019-12-20 11:57:46
[Fri 2019-12-20 11:57:46 AM] [client 192.168.49.1] delete_biomatric_registration_entry Sucscessfully Deleted2019-12-20 11:57:46
[Fri 2019-12-20 11:57:46 AM] [client 192.168.49.1] update_tbl_admission_table Successfully Updated2019-12-20 11:57:46
[Fri 2019-12-20 11:57:46 AM] [client 192.168.49.1] update_learner_deregister_apply_table Successfully Updated2019-12-20 11:57:46
[Fri 2019-12-20 11:57:46 AM] [client 192.168.49.1] delete_biomatric_registration_entry Sucscessfully Deleted2019-12-20 11:57:46
[Fri 2019-12-20 11:57:46 AM] [client 192.168.49.1] update_tbl_admission_table Successfully Updated2019-12-20 11:57:46
[Fri 2019-12-20 11:57:46 AM] [client 192.168.49.1] update_learner_deregister_apply_table Successfully Updated2019-12-20 11:57:46
[Fri 2019-12-20 11:57:46 AM] [client 192.168.49.1] delete_biomatric_registration_entry Sucscessfully Deleted2019-12-20 11:57:46
[Fri 2019-12-20 11:57:46 AM] [client 192.168.49.1] update_tbl_admission_table Successfully Updated2019-12-20 11:57:46
[Fri 2019-12-20 11:57:46 AM] [client 192.168.49.1] update_learner_deregister_apply_table Successfully Updated2019-12-20 11:57:46
[Fri 2019-12-20 06:31:52 AM] [client 192.168.49.1] delete_biomatric_registration_entry Sucscessfully Deleted2019-12-20 06:31:52
[Fri 2019-12-20 06:31:52 AM] [client 192.168.49.1] update_tbl_admission_table Successfully Updated2019-12-20 06:31:52
[Fri 2019-12-20 12:01:52 PM] [client 192.168.49.1] update_learner_deregister_apply_table Successfully Updated2019-12-20 12:01:52
[Fri 2019-12-20 12:16:50 PM] [client 192.168.49.1] update_learner_deregister_apply_table_reject Successfully Updated2019-12-20 12:16:50
[Fri 2019-12-20 06:51:25 AM] [client 192.168.49.1] delete_biomatric_registration_entry Sucscessfully Deleted2019-12-20 06:51:25
[Fri 2019-12-20 06:51:25 AM] [client 192.168.49.1] update_tbl_admission_table Successfully Updated2019-12-20 06:51:25
[Fri 2019-12-20 12:21:25 PM] [client 192.168.49.1] update_learner_deregister_apply_table Successfully Updated2019-12-20 12:21:25
[Fri 2019-12-20 07:17:42 AM] [client 192.168.49.1] delete_biomatric_registration_entry Sucscessfully Deleted2019-12-20 07:17:42
[Fri 2019-12-20 07:17:42 AM] [client 192.168.49.1] update_tbl_admission_table Successfully Updated2019-12-20 07:17:42
[Fri 2019-12-20 12:47:42 PM] [client 192.168.49.1] update_learner_deregister_apply_table Successfully Updated2019-12-20 12:47:42
[Fri 2019-12-20 12:47:43 PM] [client 192.168.49.1] delete_biomatric_registration_entry Sucscessfully Deleted2019-12-20 12:47:43
[Fri 2019-12-20 12:47:43 PM] [client 192.168.49.1] update_tbl_admission_table Successfully Updated2019-12-20 12:47:43
[Fri 2019-12-20 12:47:43 PM] [client 192.168.49.1] update_learner_deregister_apply_table Successfully Updated2019-12-20 12:47:43
[Fri 2019-12-20 07:29:27 AM] [client 192.168.49.1] delete_biomatric_registration_entry Sucscessfully Deleted2019-12-20 07:29:27
[Fri 2019-12-20 07:29:27 AM] [client 192.168.49.1] update_tbl_admission_table Successfully Updated2019-12-20 07:29:27
[Fri 2019-12-20 12:59:27 PM] [client 192.168.49.1] update_learner_deregister_apply_table Successfully Updated2019-12-20 12:59:27
[Fri 2019-12-20 12:59:27 PM] [client 192.168.49.1] delete_biomatric_registration_entry Sucscessfully Deleted2019-12-20 12:59:27
[Fri 2019-12-20 12:59:27 PM] [client 192.168.49.1] update_tbl_admission_table Successfully Updated2019-12-20 12:59:27
[Fri 2019-12-20 12:59:27 PM] [client 192.168.49.1] update_learner_deregister_apply_table Successfully Updated2019-12-20 12:59:27
[Fri 2019-12-20 07:44:02 AM] [client 192.168.49.1] delete_biomatric_registration_entry Sucscessfully Deleted2019-12-20 07:44:02
[Fri 2019-12-20 07:44:02 AM] [client 192.168.49.1] update_tbl_admission_table Successfully Updated2019-12-20 07:44:02
[Fri 2019-12-20 01:14:02 PM] [client 192.168.49.1] update_learner_deregister_apply_table Successfully Updated2019-12-20 01:14:02
[Fri 2019-12-20 07:56:16 AM] [client 192.168.49.1] delete_biomatric_registration_entry Sucscessfully Deleted2019-12-20 07:56:16
[Fri 2019-12-20 07:56:16 AM] [client 192.168.49.1] update_tbl_admission_table Successfully Updated2019-12-20 07:56:16
[Fri 2019-12-20 01:26:16 PM] [client 192.168.49.1] update_learner_deregister_apply_table Successfully Updated2019-12-20 01:26:16
[Fri 2019-12-20 08:41:19 AM] [client 192.168.49.1] delete_biomatric_registration_entry Sucscessfully Deleted2019-12-20 08:41:19
[Fri 2019-12-20 08:41:19 AM] [client 192.168.49.1] update_tbl_admission_table Successfully Updated2019-12-20 08:41:19
[Fri 2019-12-20 02:11:19 PM] [client 192.168.49.1] update_learner_deregister_apply_table Successfully Updated2019-12-20 02:11:19
[Fri 2019-12-20 02:11:19 PM] [client 192.168.49.1] delete_biomatric_registration_entry Sucscessfully Deleted2019-12-20 02:11:19
[Fri 2019-12-20 02:11:19 PM] [client 192.168.49.1] update_tbl_admission_table Successfully Updated2019-12-20 02:11:19
[Fri 2019-12-20 02:11:19 PM] [client 192.168.49.1] update_learner_deregister_apply_table Successfully Updated2019-12-20 02:11:19
[Fri 2019-12-20 02:11:19 PM] [client 192.168.49.1] delete_biomatric_registration_entry Sucscessfully Deleted2019-12-20 02:11:19
[Fri 2019-12-20 02:11:19 PM] [client 192.168.49.1] update_tbl_admission_table Successfully Updated2019-12-20 02:11:19
[Fri 2019-12-20 02:11:19 PM] [client 192.168.49.1] update_learner_deregister_apply_table Successfully Updated2019-12-20 02:11:19
[Fri 2019-12-20 02:11:19 PM] [client 192.168.49.1] delete_biomatric_registration_entry Sucscessfully Deleted2019-12-20 02:11:19
[Fri 2019-12-20 02:11:19 PM] [client 192.168.49.1] update_tbl_admission_table Successfully Updated2019-12-20 02:11:19
[Fri 2019-12-20 02:11:19 PM] [client 192.168.49.1] update_learner_deregister_apply_table Successfully Updated2019-12-20 02:11:19
[Fri 2019-12-20 02:11:19 PM] [client 192.168.49.1] delete_biomatric_registration_entry Sucscessfully Deleted2019-12-20 02:11:19
[Fri 2019-12-20 02:11:19 PM] [client 192.168.49.1] update_tbl_admission_table Successfully Updated2019-12-20 02:11:19
[Fri 2019-12-20 02:11:19 PM] [client 192.168.49.1] update_learner_deregister_apply_table Successfully Updated2019-12-20 02:11:19
[Fri 2019-12-20 02:11:19 PM] [client 192.168.49.1] delete_biomatric_registration_entry Sucscessfully Deleted2019-12-20 02:11:19
[Fri 2019-12-20 02:11:19 PM] [client 192.168.49.1] update_tbl_admission_table Successfully Updated2019-12-20 02:11:19
[Fri 2019-12-20 02:11:19 PM] [client 192.168.49.1] update_learner_deregister_apply_table Successfully Updated2019-12-20 02:11:19
[Fri 2019-12-20 02:11:19 PM] [client 192.168.49.1] delete_biomatric_registration_entry Sucscessfully Deleted2019-12-20 02:11:19
[Fri 2019-12-20 02:11:19 PM] [client 192.168.49.1] update_tbl_admission_table Successfully Updated2019-12-20 02:11:19
[Fri 2019-12-20 02:11:19 PM] [client 192.168.49.1] update_learner_deregister_apply_table Successfully Updated2019-12-20 02:11:19
[Fri 2019-12-20 02:11:19 PM] [client 192.168.49.1] delete_biomatric_registration_entry Sucscessfully Deleted2019-12-20 02:11:19
[Fri 2019-12-20 02:11:19 PM] [client 192.168.49.1] update_tbl_admission_table Successfully Updated2019-12-20 02:11:19
[Fri 2019-12-20 02:11:19 PM] [client 192.168.49.1] update_learner_deregister_apply_table Successfully Updated2019-12-20 02:11:19
[Fri 2019-12-20 08:42:37 AM] [client 192.168.49.1] delete_biomatric_registration_entry Sucscessfully Deleted2019-12-20 08:42:37
[Fri 2019-12-20 08:42:37 AM] [client 192.168.49.1] update_tbl_admission_table Successfully Updated2019-12-20 08:42:37
[Fri 2019-12-20 02:12:37 PM] [client 192.168.49.1] update_learner_deregister_apply_table Successfully Updated2019-12-20 02:12:37
[Fri 2019-12-20 02:12:37 PM] [client 192.168.49.1] delete_biomatric_registration_entry Sucscessfully Deleted2019-12-20 02:12:37
[Fri 2019-12-20 02:12:37 PM] [client 192.168.49.1] update_tbl_admission_table Successfully Updated2019-12-20 02:12:37
[Fri 2019-12-20 02:12:37 PM] [client 192.168.49.1] update_learner_deregister_apply_table Successfully Updated2019-12-20 02:12:37
[Fri 2019-12-20 09:02:36 AM] [client 192.168.49.1] delete_biomatric_registration_entry Sucscessfully Deleted2019-12-20 09:02:36
[Fri 2019-12-20 09:02:36 AM] [client 192.168.49.1] update_tbl_admission_table Successfully Updated2019-12-20 09:02:36
[Fri 2019-12-20 02:32:36 PM] [client 192.168.49.1] update_learner_deregister_apply_table Successfully Updated2019-12-20 02:32:36
[Fri 2019-12-20 02:32:36 PM] [client 192.168.49.1] delete_biomatric_registration_entry Sucscessfully Deleted2019-12-20 02:32:36
[Fri 2019-12-20 02:32:36 PM] [client 192.168.49.1] update_tbl_admission_table Successfully Updated2019-12-20 02:32:36
[Fri 2019-12-20 02:32:36 PM] [client 192.168.49.1] update_learner_deregister_apply_table Successfully Updated2019-12-20 02:32:36
[Fri 2019-12-20 02:32:36 PM] [client 192.168.49.1] delete_biomatric_registration_entry Sucscessfully Deleted2019-12-20 02:32:36
[Fri 2019-12-20 02:32:36 PM] [client 192.168.49.1] update_tbl_admission_table Successfully Updated2019-12-20 02:32:36
[Fri 2019-12-20 02:32:36 PM] [client 192.168.49.1] update_learner_deregister_apply_table Successfully Updated2019-12-20 02:32:36
[Fri 2019-12-20 02:32:36 PM] [client 192.168.49.1] delete_biomatric_registration_entry Sucscessfully Deleted2019-12-20 02:32:36
[Fri 2019-12-20 02:32:36 PM] [client 192.168.49.1] update_tbl_admission_table Successfully Updated2019-12-20 02:32:36
[Fri 2019-12-20 02:32:36 PM] [client 192.168.49.1] update_learner_deregister_apply_table Successfully Updated2019-12-20 02:32:36
[Fri 2019-12-20 02:32:36 PM] [client 192.168.49.1] delete_biomatric_registration_entry Sucscessfully Deleted2019-12-20 02:32:36
[Fri 2019-12-20 02:32:36 PM] [client 192.168.49.1] update_tbl_admission_table Successfully Updated2019-12-20 02:32:36
[Fri 2019-12-20 02:32:36 PM] [client 192.168.49.1] update_learner_deregister_apply_table Successfully Updated2019-12-20 02:32:36
[Fri 2019-12-20 02:32:36 PM] [client 192.168.49.1] delete_biomatric_registration_entry Sucscessfully Deleted2019-12-20 02:32:36
[Fri 2019-12-20 02:32:36 PM] [client 192.168.49.1] update_tbl_admission_table Successfully Updated2019-12-20 02:32:36
[Fri 2019-12-20 02:32:36 PM] [client 192.168.49.1] update_learner_deregister_apply_table Successfully Updated2019-12-20 02:32:36
[Fri 2019-12-20 02:32:43 PM] [client 192.168.49.1] update_learner_deregister_apply_table_reject Successfully Updated2019-12-20 02:32:43
[Fri 2019-12-20 09:12:06 AM] [client 192.168.49.1] delete_biomatric_registration_entry Sucscessfully Deleted2019-12-20 09:12:06
[Fri 2019-12-20 09:12:06 AM] [client 192.168.49.1] update_tbl_admission_table Successfully Updated2019-12-20 09:12:06
[Fri 2019-12-20 02:42:06 PM] [client 192.168.49.1] update_learner_deregister_apply_table Successfully Updated2019-12-20 02:42:06
[Fri 2019-12-20 02:42:06 PM] [client 192.168.49.1] delete_biomatric_registration_entry Sucscessfully Deleted2019-12-20 02:42:06
[Fri 2019-12-20 02:42:06 PM] [client 192.168.49.1] update_tbl_admission_table Successfully Updated2019-12-20 02:42:06
[Fri 2019-12-20 02:42:06 PM] [client 192.168.49.1] update_learner_deregister_apply_table Successfully Updated2019-12-20 02:42:06
[Fri 2019-12-20 02:42:12 PM] [client 192.168.49.1] update_learner_deregister_apply_table_reject Successfully Updated2019-12-20 02:42:12
[Fri 2019-12-20 09:26:13 AM] [client 192.168.49.1] delete_biomatric_registration_entry Sucscessfully Deleted2019-12-20 09:26:13
[Fri 2019-12-20 09:26:13 AM] [client 192.168.49.1] update_tbl_admission_table Successfully Updated2019-12-20 09:26:13
[Fri 2019-12-20 02:56:13 PM] [client 192.168.49.1] update_learner_deregister_apply_table Successfully Updated2019-12-20 02:56:13
[Fri 2019-12-20 02:56:13 PM] [client 192.168.49.1] delete_biomatric_registration_entry Sucscessfully Deleted2019-12-20 02:56:13
[Fri 2019-12-20 02:56:13 PM] [client 192.168.49.1] update_tbl_admission_table Successfully Updated2019-12-20 02:56:13
[Fri 2019-12-20 02:56:13 PM] [client 192.168.49.1] update_learner_deregister_apply_table Successfully Updated2019-12-20 02:56:13
[Fri 2019-12-20 02:56:13 PM] [client 192.168.49.1] delete_biomatric_registration_entry Sucscessfully Deleted2019-12-20 02:56:13
[Fri 2019-12-20 02:56:13 PM] [client 192.168.49.1] update_tbl_admission_table Successfully Updated2019-12-20 02:56:13
[Fri 2019-12-20 02:56:13 PM] [client 192.168.49.1] update_learner_deregister_apply_table Successfully Updated2019-12-20 02:56:13
[Fri 2019-12-20 02:56:13 PM] [client 192.168.49.1] delete_biomatric_registration_entry Sucscessfully Deleted2019-12-20 02:56:13
[Fri 2019-12-20 02:56:13 PM] [client 192.168.49.1] update_tbl_admission_table Successfully Updated2019-12-20 02:56:13
[Fri 2019-12-20 02:56:13 PM] [client 192.168.49.1] update_learner_deregister_apply_table Successfully Updated2019-12-20 02:56:13
[Fri 2019-12-20 09:42:07 AM] [client 192.168.49.1] delete_biomatric_registration_entry Sucscessfully Deleted2019-12-20 09:42:07
[Fri 2019-12-20 09:42:07 AM] [client 192.168.49.1] update_tbl_admission_table Successfully Updated2019-12-20 09:42:07
[Fri 2019-12-20 03:12:07 PM] [client 192.168.49.1] update_learner_deregister_apply_table Successfully Updated2019-12-20 03:12:07
[Fri 2019-12-20 03:12:08 PM] [client 192.168.49.1] delete_biomatric_registration_entry Sucscessfully Deleted2019-12-20 03:12:08
[Fri 2019-12-20 03:12:08 PM] [client 192.168.49.1] update_tbl_admission_table Successfully Updated2019-12-20 03:12:08
[Fri 2019-12-20 03:12:08 PM] [client 192.168.49.1] update_learner_deregister_apply_table Successfully Updated2019-12-20 03:12:08
[Fri 2019-12-20 09:51:03 AM] [client 192.168.49.1] delete_biomatric_registration_entry Sucscessfully Deleted2019-12-20 09:51:03
[Fri 2019-12-20 09:51:03 AM] [client 192.168.49.1] update_tbl_admission_table Successfully Updated2019-12-20 09:51:03
[Fri 2019-12-20 03:21:03 PM] [client 192.168.49.1] update_learner_deregister_apply_table Successfully Updated2019-12-20 03:21:03
[Fri 2019-12-20 10:04:49 AM] [client 192.168.49.1] delete_biomatric_registration_entry Sucscessfully Deleted2019-12-20 10:04:49
[Fri 2019-12-20 10:04:49 AM] [client 192.168.49.1] update_tbl_admission_table Successfully Updated2019-12-20 10:04:49
[Fri 2019-12-20 03:34:49 PM] [client 192.168.49.1] update_learner_deregister_apply_table Successfully Updated2019-12-20 03:34:49
[Fri 2019-12-20 03:34:50 PM] [client 192.168.49.1] delete_biomatric_registration_entry Sucscessfully Deleted2019-12-20 03:34:50
[Fri 2019-12-20 03:34:50 PM] [client 192.168.49.1] update_tbl_admission_table Successfully Updated2019-12-20 03:34:50
[Fri 2019-12-20 03:34:50 PM] [client 192.168.49.1] update_learner_deregister_apply_table Successfully Updated2019-12-20 03:34:50
[Fri 2019-12-20 03:34:50 PM] [client 192.168.49.1] delete_biomatric_registration_entry Sucscessfully Deleted2019-12-20 03:34:50
[Fri 2019-12-20 03:34:50 PM] [client 192.168.49.1] update_tbl_admission_table Successfully Updated2019-12-20 03:34:50
[Fri 2019-12-20 03:34:50 PM] [client 192.168.49.1] update_learner_deregister_apply_table Successfully Updated2019-12-20 03:34:50
[Fri 2019-12-20 10:11:43 AM] [client 192.168.49.1] delete_biomatric_registration_entry Sucscessfully Deleted2019-12-20 10:11:43
[Fri 2019-12-20 10:11:43 AM] [client 192.168.49.1] update_tbl_admission_table Successfully Updated2019-12-20 10:11:43
[Fri 2019-12-20 03:41:43 PM] [client 192.168.49.1] update_learner_deregister_apply_table Successfully Updated2019-12-20 03:41:43
[Fri 2019-12-20 03:41:43 PM] [client 192.168.49.1] delete_biomatric_registration_entry Sucscessfully Deleted2019-12-20 03:41:43
[Fri 2019-12-20 03:41:43 PM] [client 192.168.49.1] update_tbl_admission_table Successfully Updated2019-12-20 03:41:43
[Fri 2019-12-20 03:41:43 PM] [client 192.168.49.1] update_learner_deregister_apply_table Successfully Updated2019-12-20 03:41:43
[Fri 2019-12-20 10:15:29 AM] [client 192.168.49.1] Batch Code Passed : 183 2019-12-20 10:15:29
[Fri 2019-12-20 10:15:29 AM] [client 192.168.49.1] CURL request Post : {"action":"ileandatasycn","ccode":"1","batches":"183"} 2019-12-20 10:15:29
[Fri 2019-12-20 10:15:34 AM] [client 192.168.49.1] CURL response : {"status":"200","success":"ilearn_assessementfinalresult.txt"} 2019-12-20 10:15:34
[Fri 2019-12-20 10:15:45 AM] [client 192.168.49.1] Ileaen_StatusUpdate Call : ilearn_assessementfinalresult.txt 2019-12-20 10:15:45
[Fri 2019-12-20 10:16:25 AM] [client 192.168.49.1] Batch Code Passed : 190,186 2019-12-20 10:16:25
[Fri 2019-12-20 10:16:25 AM] [client 192.168.49.1] CURL request Post : {"action":"ileandatasycn","ccode":"1","batches":"190,186"} 2019-12-20 10:16:25
[Fri 2019-12-20 10:16:30 AM] [client 192.168.49.1] CURL response : {"status":"200","success":"ilearn_assessementfinalresult.txt"} 2019-12-20 10:16:30
[Fri 2019-12-20 10:16:41 AM] [client 192.168.49.1] Ileaen_StatusUpdate Call : ilearn_assessementfinalresult.txt 2019-12-20 10:16:41
[Fri 2019-12-20 10:17:05 AM] [client 192.168.49.1] delete_biomatric_registration_entry Sucscessfully Deleted2019-12-20 10:17:05
[Fri 2019-12-20 10:17:05 AM] [client 192.168.49.1] update_tbl_admission_table Successfully Updated2019-12-20 10:17:05
[Fri 2019-12-20 03:47:05 PM] [client 192.168.49.1] update_learner_deregister_apply_table Successfully Updated2019-12-20 03:47:05
[Fri 2019-12-20 10:17:29 AM] [client 192.168.49.1] Batch Code Passed : 205,202,198,194 2019-12-20 10:17:29
[Fri 2019-12-20 10:17:29 AM] [client 192.168.49.1] CURL request Post : {"action":"ileandatasycn","ccode":"1","batches":"205,202,198,194"} 2019-12-20 10:17:29
[Fri 2019-12-20 10:17:33 AM] [client 192.168.49.1] CURL response : {"status":"200","success":"ilearn_assessementfinalresult.txt"} 2019-12-20 10:17:33
[Fri 2019-12-20 10:17:47 AM] [client 192.168.49.1] Ileaen_StatusUpdate Call : ilearn_assessementfinalresult.txt 2019-12-20 10:17:47
[Fri 2019-12-20 10:18:23 AM] [client 192.168.49.1] Batch Code Passed : 211,208 2019-12-20 10:18:23
[Fri 2019-12-20 10:18:23 AM] [client 192.168.49.1] CURL request Post : {"action":"ileandatasycn","ccode":"1","batches":"211,208"} 2019-12-20 10:18:23
[Fri 2019-12-20 10:18:26 AM] [client 192.168.49.1] CURL response : {"status":"200","success":"ilearn_assessementfinalresult.txt"} 2019-12-20 10:18:26
[Fri 2019-12-20 10:18:30 AM] [client 192.168.49.1] Ileaen_StatusUpdate Call : ilearn_assessementfinalresult.txt 2019-12-20 10:18:30
[Fri 2019-12-20 10:18:46 AM] [client 192.168.49.1] Batch Code Passed : 215 2019-12-20 10:18:46
[Fri 2019-12-20 10:18:46 AM] [client 192.168.49.1] CURL request Post : {"action":"ileandatasycn","ccode":"1","batches":"215"} 2019-12-20 10:18:46
[Fri 2019-12-20 10:18:50 AM] [client 192.168.49.1] CURL response : {"status":"200","success":"ilearn_assessementfinalresult.txt"} 2019-12-20 10:18:50
[Fri 2019-12-20 10:19:05 AM] [client 192.168.49.1] Ileaen_StatusUpdate Call : ilearn_assessementfinalresult.txt 2019-12-20 10:19:05
[Fri 2019-12-20 10:19:39 AM] [client 192.168.49.1] Batch Code Passed : 218 2019-12-20 10:19:39
[Fri 2019-12-20 10:19:39 AM] [client 192.168.49.1] CURL request Post : {"action":"ileandatasycn","ccode":"1","batches":"218"} 2019-12-20 10:19:39
[Fri 2019-12-20 10:19:44 AM] [client 192.168.49.1] CURL response : {"status":"200","success":"ilearn_assessementfinalresult.txt"} 2019-12-20 10:19:44
[Fri 2019-12-20 10:19:56 AM] [client 192.168.49.1] Ileaen_StatusUpdate Call : ilearn_assessementfinalresult.txt 2019-12-20 10:19:56
[Fri 2019-12-20 10:20:40 AM] [client 192.168.49.1] Batch Code Passed : 222 2019-12-20 10:20:40
[Fri 2019-12-20 10:20:40 AM] [client 192.168.49.1] CURL request Post : {"action":"ileandatasycn","ccode":"1","batches":"222"} 2019-12-20 10:20:40
[Fri 2019-12-20 10:20:44 AM] [client 192.168.49.1] CURL response : {"status":"200","success":"ilearn_assessementfinalresult.txt"} 2019-12-20 10:20:44
[Fri 2019-12-20 10:20:53 AM] [client 192.168.49.1] Ileaen_StatusUpdate Call : ilearn_assessementfinalresult.txt 2019-12-20 10:20:53
[Fri 2019-12-20 10:24:41 AM] [client 192.168.49.1] Batch Code Passed : 227 2019-12-20 10:24:41
[Fri 2019-12-20 10:24:41 AM] [client 192.168.49.1] CURL request Post : {"action":"ileandatasycn","ccode":"1","batches":"227"} 2019-12-20 10:24:41
[Fri 2019-12-20 10:24:45 AM] [client 192.168.49.1] CURL response : {"status":"200","success":"ilearn_assessementfinalresult.txt"} 2019-12-20 10:24:45
[Fri 2019-12-20 10:24:52 AM] [client 192.168.49.1] Ileaen_StatusUpdate Call : ilearn_assessementfinalresult.txt 2019-12-20 10:24:52
[Fri 2019-12-20 10:25:33 AM] [client 192.168.49.1] Batch Code Passed : 232 2019-12-20 10:25:33
[Fri 2019-12-20 10:25:33 AM] [client 192.168.49.1] CURL request Post : {"action":"ileandatasycn","ccode":"1","batches":"232"} 2019-12-20 10:25:33
[Fri 2019-12-20 10:25:36 AM] [client 192.168.49.1] CURL response : {"status":"200","success":"ilearn_assessementfinalresult.txt"} 2019-12-20 10:25:36
[Fri 2019-12-20 10:25:42 AM] [client 192.168.49.1] Ileaen_StatusUpdate Call : ilearn_assessementfinalresult.txt 2019-12-20 10:25:42
[Fri 2019-12-20 10:26:06 AM] [client 192.168.49.1] Batch Code Passed : 236 2019-12-20 10:26:06
[Fri 2019-12-20 10:26:06 AM] [client 192.168.49.1] CURL request Post : {"action":"ileandatasycn","ccode":"1","batches":"236"} 2019-12-20 10:26:06
[Fri 2019-12-20 10:26:09 AM] [client 192.168.49.1] CURL response : {"status":"200","success":"ilearn_assessementfinalresult.txt"} 2019-12-20 10:26:09
[Fri 2019-12-20 10:26:13 AM] [client 192.168.49.1] Ileaen_StatusUpdate Call : ilearn_assessementfinalresult.txt 2019-12-20 10:26:13
[Fri 2019-12-20 10:27:45 AM] [client 192.168.49.1] Batch Code Passed : 237,233,228,223,219,216,212,209,206,203,199,195,191,187,184 2019-12-20 10:27:45
[Fri 2019-12-20 10:27:45 AM] [client 192.168.49.1] CURL request Post : {"action":"ileandatasycn","ccode":"4","batches":"237,233,228,223,219,216,212,209,206,203,199,195,191,187,184"} 2019-12-20 10:27:45
[Fri 2019-12-20 10:27:49 AM] [client 192.168.49.1] CURL response : {"status":"200","success":"ilearn_assessementfinalresult.txt"} 2019-12-20 10:27:49
[Fri 2019-12-20 10:27:51 AM] [client 192.168.49.1] Ileaen_StatusUpdate Call : ilearn_assessementfinalresult.txt 2019-12-20 10:27:51
[Fri 2019-12-20 10:31:49 AM] [client 192.168.49.1] delete_biomatric_registration_entry Sucscessfully Deleted2019-12-20 10:31:49
[Fri 2019-12-20 10:31:49 AM] [client 192.168.49.1] update_tbl_admission_table Successfully Updated2019-12-20 10:31:49
[Fri 2019-12-20 04:01:49 PM] [client 192.168.49.1] update_learner_deregister_apply_table Successfully Updated2019-12-20 04:01:49
[Fri 2019-12-20 04:01:49 PM] [client 192.168.49.1] delete_biomatric_registration_entry Sucscessfully Deleted2019-12-20 04:01:49
[Fri 2019-12-20 04:01:49 PM] [client 192.168.49.1] update_tbl_admission_table Successfully Updated2019-12-20 04:01:49
[Fri 2019-12-20 04:01:49 PM] [client 192.168.49.1] update_learner_deregister_apply_table Successfully Updated2019-12-20 04:01:49
[Fri 2019-12-20 04:01:49 PM] [client 192.168.49.1] delete_biomatric_registration_entry Sucscessfully Deleted2019-12-20 04:01:49
[Fri 2019-12-20 04:01:49 PM] [client 192.168.49.1] update_tbl_admission_table Successfully Updated2019-12-20 04:01:49
[Fri 2019-12-20 04:01:49 PM] [client 192.168.49.1] update_learner_deregister_apply_table Successfully Updated2019-12-20 04:01:49
[Fri 2019-12-20 10:41:05 AM] [client 192.168.49.1] delete_biomatric_registration_entry Sucscessfully Deleted2019-12-20 10:41:05
[Fri 2019-12-20 10:41:06 AM] [client 192.168.49.1] update_tbl_admission_table Successfully Updated2019-12-20 10:41:06
[Fri 2019-12-20 04:11:06 PM] [client 192.168.49.1] update_learner_deregister_apply_table Successfully Updated2019-12-20 04:11:06
[Fri 2019-12-20 10:42:49 AM] [client 192.168.49.1] delete_biomatric_registration_entry Sucscessfully Deleted2019-12-20 10:42:49
[Fri 2019-12-20 10:42:49 AM] [client 192.168.49.1] update_tbl_admission_table Successfully Updated2019-12-20 10:42:49
[Fri 2019-12-20 04:12:49 PM] [client 192.168.49.1] update_learner_deregister_apply_table Successfully Updated2019-12-20 04:12:49
[Fri 2019-12-20 04:12:49 PM] [client 192.168.49.1] delete_biomatric_registration_entry Sucscessfully Deleted2019-12-20 04:12:49
[Fri 2019-12-20 04:12:49 PM] [client 192.168.49.1] update_tbl_admission_table Successfully Updated2019-12-20 04:12:49
[Fri 2019-12-20 04:12:49 PM] [client 192.168.49.1] update_learner_deregister_apply_table Successfully Updated2019-12-20 04:12:49
[Fri 2019-12-20 10:44:39 AM] [client 192.168.49.1] delete_biomatric_registration_entry Sucscessfully Deleted2019-12-20 10:44:39
[Fri 2019-12-20 10:44:39 AM] [client 192.168.49.1] update_tbl_admission_table Successfully Updated2019-12-20 10:44:39
[Fri 2019-12-20 04:14:39 PM] [client 192.168.49.1] update_learner_deregister_apply_table Successfully Updated2019-12-20 04:14:39
[Fri 2019-12-20 11:04:33 AM] [client 192.168.49.1] delete_biomatric_registration_entry Sucscessfully Deleted2019-12-20 11:04:33
[Fri 2019-12-20 11:04:33 AM] [client 192.168.49.1] update_tbl_admission_table Successfully Updated2019-12-20 11:04:33
[Fri 2019-12-20 04:34:33 PM] [client 192.168.49.1] update_learner_deregister_apply_table Successfully Updated2019-12-20 04:34:33
[Fri 2019-12-20 04:34:33 PM] [client 192.168.49.1] delete_biomatric_registration_entry Sucscessfully Deleted2019-12-20 04:34:33
[Fri 2019-12-20 04:34:33 PM] [client 192.168.49.1] update_tbl_admission_table Successfully Updated2019-12-20 04:34:33
[Fri 2019-12-20 04:34:33 PM] [client 192.168.49.1] update_learner_deregister_apply_table Successfully Updated2019-12-20 04:34:33
[Fri 2019-12-20 04:34:33 PM] [client 192.168.49.1] delete_biomatric_registration_entry Sucscessfully Deleted2019-12-20 04:34:33
[Fri 2019-12-20 04:34:33 PM] [client 192.168.49.1] update_tbl_admission_table Successfully Updated2019-12-20 04:34:33
[Fri 2019-12-20 04:34:33 PM] [client 192.168.49.1] update_learner_deregister_apply_table Successfully Updated2019-12-20 04:34:33
[Fri 2019-12-20 04:34:40 PM] [client 192.168.49.1] update_learner_deregister_apply_table_reject Successfully Updated2019-12-20 04:34:40
[Fri 2019-12-20 11:07:41 AM] [client 192.168.49.1] delete_biomatric_registration_entry Sucscessfully Deleted2019-12-20 11:07:41
[Fri 2019-12-20 11:07:41 AM] [client 192.168.49.1] update_tbl_admission_table Successfully Updated2019-12-20 11:07:41
[Fri 2019-12-20 04:37:41 PM] [client 192.168.49.1] update_learner_deregister_apply_table Successfully Updated2019-12-20 04:37:41
[Fri 2019-12-20 04:37:47 PM] [client 192.168.49.1] update_learner_deregister_apply_table_reject Successfully Updated2019-12-20 04:37:47
[Fri 2019-12-20 11:16:15 AM] [client 192.168.49.1] delete_biomatric_registration_entry Sucscessfully Deleted2019-12-20 11:16:15
[Fri 2019-12-20 11:16:15 AM] [client 192.168.49.1] update_tbl_admission_table Successfully Updated2019-12-20 11:16:15
[Fri 2019-12-20 04:46:15 PM] [client 192.168.49.1] update_learner_deregister_apply_table Successfully Updated2019-12-20 04:46:15
[Fri 2019-12-20 11:22:21 AM] [client 192.168.49.1] delete_biomatric_registration_entry Sucscessfully Deleted2019-12-20 11:22:21
[Fri 2019-12-20 11:22:21 AM] [client 192.168.49.1] update_tbl_admission_table Successfully Updated2019-12-20 11:22:21
[Fri 2019-12-20 04:52:21 PM] [client 192.168.49.1] update_learner_deregister_apply_table Successfully Updated2019-12-20 04:52:21
[Fri 2019-12-20 11:29:28 AM] [client 192.168.49.1] delete_biomatric_registration_entry Sucscessfully Deleted2019-12-20 11:29:28
[Fri 2019-12-20 11:29:28 AM] [client 192.168.49.1] update_tbl_admission_table Successfully Updated2019-12-20 11:29:28
[Fri 2019-12-20 04:59:28 PM] [client 192.168.49.1] update_learner_deregister_apply_table Successfully Updated2019-12-20 04:59:28
[Fri 2019-12-20 04:59:29 PM] [client 192.168.49.1] delete_biomatric_registration_entry Sucscessfully Deleted2019-12-20 04:59:29
[Fri 2019-12-20 04:59:29 PM] [client 192.168.49.1] update_tbl_admission_table Successfully Updated2019-12-20 04:59:29
[Fri 2019-12-20 04:59:29 PM] [client 192.168.49.1] update_learner_deregister_apply_table Successfully Updated2019-12-20 04:59:29
[Fri 2019-12-20 04:59:29 PM] [client 192.168.49.1] delete_biomatric_registration_entry Sucscessfully Deleted2019-12-20 04:59:29
[Fri 2019-12-20 04:59:29 PM] [client 192.168.49.1] update_tbl_admission_table Successfully Updated2019-12-20 04:59:29
[Fri 2019-12-20 04:59:29 PM] [client 192.168.49.1] update_learner_deregister_apply_table Successfully Updated2019-12-20 04:59:29
[Fri 2019-12-20 04:59:29 PM] [client 192.168.49.1] delete_biomatric_registration_entry Sucscessfully Deleted2019-12-20 04:59:29
[Fri 2019-12-20 04:59:29 PM] [client 192.168.49.1] update_tbl_admission_table Successfully Updated2019-12-20 04:59:29
[Fri 2019-12-20 04:59:29 PM] [client 192.168.49.1] update_learner_deregister_apply_table Successfully Updated2019-12-20 04:59:29
[Fri 2019-12-20 04:59:29 PM] [client 192.168.49.1] delete_biomatric_registration_entry Sucscessfully Deleted2019-12-20 04:59:29
[Fri 2019-12-20 04:59:29 PM] [client 192.168.49.1] update_tbl_admission_table Successfully Updated2019-12-20 04:59:29
[Fri 2019-12-20 04:59:29 PM] [client 192.168.49.1] update_learner_deregister_apply_table Successfully Updated2019-12-20 04:59:29
[Fri 2019-12-20 04:59:35 PM] [client 192.168.49.1] update_learner_deregister_apply_table_reject Successfully Updated2019-12-20 04:59:35
[Fri 2019-12-20 11:34:37 AM] [client 192.168.49.1] ajax request post accpect2019-12-20 11:34:37
[Fri 2019-12-20 11:35:16 AM] [client 192.168.49.1] delete_biomatric_registration_entry Sucscessfully Deleted2019-12-20 11:35:16
[Fri 2019-12-20 11:35:16 AM] [client 192.168.49.1] update_tbl_admission_table Successfully Updated2019-12-20 11:35:16
[Fri 2019-12-20 05:05:16 PM] [client 192.168.49.1] update_learner_deregister_apply_table Successfully Updated2019-12-20 05:05:16
[Fri 2019-12-20 11:35:25 AM] [client 192.168.49.1] encrypt file create2019-12-20 11:35:25
[Fri 2019-12-20 11:35:25 AM] [client 192.168.49.1] sen request to i learn2019-12-20 11:35:25
[Fri 2019-12-20 11:35:26 AM] [client 192.168.49.1] curl response2019-12-20 11:35:26{"status":"200","success":"success"}
[Fri 2019-12-20 11:35:26 AM] [client 192.168.49.1] change status to N2019-12-20 11:35:26
[Fri 2019-12-20 11:35:37 AM] [client 192.168.49.1] ajax request post accpect2019-12-20 11:35:37
[Fri 2019-12-20 11:35:48 AM] [client 192.168.49.1] encrypt file create2019-12-20 11:35:48
[Fri 2019-12-20 11:35:48 AM] [client 192.168.49.1] sen request to i learn2019-12-20 11:35:48
[Fri 2019-12-20 11:35:48 AM] [client 192.168.49.1] curl response2019-12-20 11:35:48{"status":"200","success":"success"}
[Fri 2019-12-20 11:35:48 AM] [client 192.168.49.1] change status to N2019-12-20 11:35:48
[Fri 2019-12-20 11:36:01 AM] [client 192.168.49.1] ajax request post accpect2019-12-20 11:36:01
[Fri 2019-12-20 11:36:13 AM] [client 192.168.49.1] encrypt file create2019-12-20 11:36:13
[Fri 2019-12-20 11:36:13 AM] [client 192.168.49.1] sen request to i learn2019-12-20 11:36:13
[Fri 2019-12-20 11:36:13 AM] [client 192.168.49.1] curl response2019-12-20 11:36:13{"status":"200","success":"success"}
[Fri 2019-12-20 11:36:13 AM] [client 192.168.49.1] change status to N2019-12-20 11:36:13
[Fri 2019-12-20 11:40:11 AM] [client 192.168.49.1] delete_biomatric_registration_entry Sucscessfully Deleted2019-12-20 11:40:11
[Fri 2019-12-20 11:40:11 AM] [client 192.168.49.1] update_tbl_admission_table Successfully Updated2019-12-20 11:40:11
[Fri 2019-12-20 05:10:11 PM] [client 192.168.49.1] update_learner_deregister_apply_table Successfully Updated2019-12-20 05:10:11
[Fri 2019-12-20 05:13:49 PM] [client 192.168.49.1] update_learner_deregister_apply_table_reject Successfully Updated2019-12-20 05:13:49
[Fri 2019-12-20 05:31:10 PM] [client 192.168.49.1] update_learner_deregister_apply_table_reject Successfully Updated2019-12-20 05:31:10
[Fri 2019-12-20 12:01:16 PM] [client 192.168.49.1] delete_biomatric_registration_entry Sucscessfully Deleted2019-12-20 12:01:16
[Fri 2019-12-20 12:01:16 PM] [client 192.168.49.1] update_tbl_admission_table Successfully Updated2019-12-20 12:01:16
[Fri 2019-12-20 05:31:16 PM] [client 192.168.49.1] update_learner_deregister_apply_table Successfully Updated2019-12-20 05:31:16
[Fri 2019-12-20 12:05:49 PM] [client 192.168.49.1] delete_biomatric_registration_entry Sucscessfully Deleted2019-12-20 12:05:49
[Fri 2019-12-20 12:05:49 PM] [client 192.168.49.1] update_tbl_admission_table Successfully Updated2019-12-20 12:05:49
[Fri 2019-12-20 05:35:49 PM] [client 192.168.49.1] update_learner_deregister_apply_table Successfully Updated2019-12-20 05:35:49
[Fri 2019-12-20 05:35:49 PM] [client 192.168.49.1] delete_biomatric_registration_entry Sucscessfully Deleted2019-12-20 05:35:49
[Fri 2019-12-20 05:35:49 PM] [client 192.168.49.1] update_tbl_admission_table Successfully Updated2019-12-20 05:35:49
[Fri 2019-12-20 05:35:49 PM] [client 192.168.49.1] update_learner_deregister_apply_table Successfully Updated2019-12-20 05:35:49
[Fri 2019-12-20 05:35:49 PM] [client 192.168.49.1] delete_biomatric_registration_entry Sucscessfully Deleted2019-12-20 05:35:49
[Fri 2019-12-20 05:35:49 PM] [client 192.168.49.1] update_tbl_admission_table Successfully Updated2019-12-20 05:35:49
[Fri 2019-12-20 05:35:49 PM] [client 192.168.49.1] update_learner_deregister_apply_table Successfully Updated2019-12-20 05:35:49
[Fri 2019-12-20 12:06:28 PM] [client 192.168.49.1] delete_biomatric_registration_entry Sucscessfully Deleted2019-12-20 12:06:28
[Fri 2019-12-20 12:06:29 PM] [client 192.168.49.1] update_tbl_admission_table Successfully Updated2019-12-20 12:06:29
[Fri 2019-12-20 05:36:29 PM] [client 192.168.49.1] update_learner_deregister_apply_table Successfully Updated2019-12-20 05:36:29
[Fri 2019-12-20 12:11:47 PM] [client 192.168.49.1] delete_biomatric_registration_entry Sucscessfully Deleted2019-12-20 12:11:47
[Fri 2019-12-20 12:11:47 PM] [client 192.168.49.1] update_tbl_admission_table Successfully Updated2019-12-20 12:11:47
[Fri 2019-12-20 05:41:47 PM] [client 192.168.49.1] update_learner_deregister_apply_table Successfully Updated2019-12-20 05:41:47
[Fri 2019-12-20 12:17:55 PM] [client 192.168.49.1] delete_biomatric_registration_entry Sucscessfully Deleted2019-12-20 12:17:55
[Fri 2019-12-20 12:17:55 PM] [client 192.168.49.1] update_tbl_admission_table Successfully Updated2019-12-20 12:17:55
[Fri 2019-12-20 05:47:55 PM] [client 192.168.49.1] update_learner_deregister_apply_table Successfully Updated2019-12-20 05:47:55
[Fri 2019-12-20 05:47:55 PM] [client 192.168.49.1] delete_biomatric_registration_entry Sucscessfully Deleted2019-12-20 05:47:55
[Fri 2019-12-20 05:47:55 PM] [client 192.168.49.1] update_tbl_admission_table Successfully Updated2019-12-20 05:47:55
[Fri 2019-12-20 05:47:55 PM] [client 192.168.49.1] update_learner_deregister_apply_table Successfully Updated2019-12-20 05:47:55
[Fri 2019-12-20 12:33:26 PM] [client 192.168.49.1] delete_biomatric_registration_entry Sucscessfully Deleted2019-12-20 12:33:26
[Fri 2019-12-20 12:33:26 PM] [client 192.168.49.1] update_tbl_admission_table Successfully Updated2019-12-20 12:33:26
[Fri 2019-12-20 06:03:26 PM] [client 192.168.49.1] update_learner_deregister_apply_table Successfully Updated2019-12-20 06:03:26
[Fri 2019-12-20 12:38:29 PM] [client 192.168.49.1] delete_biomatric_registration_entry Sucscessfully Deleted2019-12-20 12:38:29
[Fri 2019-12-20 12:38:29 PM] [client 192.168.49.1] update_tbl_admission_table Successfully Updated2019-12-20 12:38:29
[Fri 2019-12-20 06:08:29 PM] [client 192.168.49.1] update_learner_deregister_apply_table Successfully Updated2019-12-20 06:08:29
