[Wed 2019-10-23 04:08:14 AM] [client 192.168.49.1] delete_biomatric_registration_entry Sucscessfully Deleted2019-10-23 04:08:14
[Wed 2019-10-23 04:08:14 AM] [client 192.168.49.1] update_tbl_admission_table Successfully Updated2019-10-23 04:08:14
[Wed 2019-10-23 09:38:14 AM] [client 192.168.49.1] update_learner_deregister_apply_table Successfully Updated2019-10-23 09:38:14
[Wed 2019-10-23 09:38:14 AM] [client 192.168.49.1] delete_biomatric_registration_entry Sucscessfully Deleted2019-10-23 09:38:14
[Wed 2019-10-23 09:38:14 AM] [client 192.168.49.1] update_tbl_admission_table Successfully Updated2019-10-23 09:38:14
[Wed 2019-10-23 09:38:14 AM] [client 192.168.49.1] update_learner_deregister_apply_table Successfully Updated2019-10-23 09:38:14
[Wed 2019-10-23 09:38:14 AM] [client 192.168.49.1] delete_biomatric_registration_entry Sucscessfully Deleted2019-10-23 09:38:14
[Wed 2019-10-23 09:38:14 AM] [client 192.168.49.1] update_tbl_admission_table Successfully Updated2019-10-23 09:38:14
[Wed 2019-10-23 09:38:14 AM] [client 192.168.49.1] update_learner_deregister_apply_table Successfully Updated2019-10-23 09:38:14
[Wed 2019-10-23 09:38:14 AM] [client 192.168.49.1] delete_biomatric_registration_entry Sucscessfully Deleted2019-10-23 09:38:14
[Wed 2019-10-23 09:38:14 AM] [client 192.168.49.1] update_tbl_admission_table Successfully Updated2019-10-23 09:38:14
[Wed 2019-10-23 09:38:14 AM] [client 192.168.49.1] update_learner_deregister_apply_table Successfully Updated2019-10-23 09:38:14
[Wed 2019-10-23 09:38:14 AM] [client 192.168.49.1] delete_biomatric_registration_entry Sucscessfully Deleted2019-10-23 09:38:14
[Wed 2019-10-23 09:38:14 AM] [client 192.168.49.1] update_tbl_admission_table Successfully Updated2019-10-23 09:38:14
[Wed 2019-10-23 09:38:14 AM] [client 192.168.49.1] update_learner_deregister_apply_table Successfully Updated2019-10-23 09:38:14
[Wed 2019-10-23 09:38:14 AM] [client 192.168.49.1] delete_biomatric_registration_entry Sucscessfully Deleted2019-10-23 09:38:14
[Wed 2019-10-23 09:38:14 AM] [client 192.168.49.1] update_tbl_admission_table Successfully Updated2019-10-23 09:38:14
[Wed 2019-10-23 09:38:14 AM] [client 192.168.49.1] update_learner_deregister_apply_table Successfully Updated2019-10-23 09:38:14
[Wed 2019-10-23 09:38:14 AM] [client 192.168.49.1] delete_biomatric_registration_entry Sucscessfully Deleted2019-10-23 09:38:14
[Wed 2019-10-23 09:38:14 AM] [client 192.168.49.1] update_tbl_admission_table Successfully Updated2019-10-23 09:38:14
[Wed 2019-10-23 09:38:14 AM] [client 192.168.49.1] update_learner_deregister_apply_table Successfully Updated2019-10-23 09:38:14
[Wed 2019-10-23 09:38:14 AM] [client 192.168.49.1] delete_biomatric_registration_entry Sucscessfully Deleted2019-10-23 09:38:14
[Wed 2019-10-23 09:38:14 AM] [client 192.168.49.1] update_tbl_admission_table Successfully Updated2019-10-23 09:38:14
[Wed 2019-10-23 09:38:14 AM] [client 192.168.49.1] update_learner_deregister_apply_table Successfully Updated2019-10-23 09:38:14
[Wed 2019-10-23 09:38:14 AM] [client 192.168.49.1] delete_biomatric_registration_entry Sucscessfully Deleted2019-10-23 09:38:14
[Wed 2019-10-23 09:38:14 AM] [client 192.168.49.1] update_tbl_admission_table Successfully Updated2019-10-23 09:38:14
[Wed 2019-10-23 09:38:14 AM] [client 192.168.49.1] update_learner_deregister_apply_table Successfully Updated2019-10-23 09:38:14
[Wed 2019-10-23 09:38:14 AM] [client 192.168.49.1] delete_biomatric_registration_entry Sucscessfully Deleted2019-10-23 09:38:14
[Wed 2019-10-23 09:38:14 AM] [client 192.168.49.1] update_tbl_admission_table Successfully Updated2019-10-23 09:38:14
[Wed 2019-10-23 09:38:14 AM] [client 192.168.49.1] update_learner_deregister_apply_table Successfully Updated2019-10-23 09:38:14
[Wed 2019-10-23 09:38:14 AM] [client 192.168.49.1] delete_biomatric_registration_entry Sucscessfully Deleted2019-10-23 09:38:14
[Wed 2019-10-23 09:38:14 AM] [client 192.168.49.1] update_tbl_admission_table Successfully Updated2019-10-23 09:38:14
[Wed 2019-10-23 09:38:14 AM] [client 192.168.49.1] update_learner_deregister_apply_table Successfully Updated2019-10-23 09:38:14
[Wed 2019-10-23 09:38:14 AM] [client 192.168.49.1] delete_biomatric_registration_entry Sucscessfully Deleted2019-10-23 09:38:14
[Wed 2019-10-23 09:38:14 AM] [client 192.168.49.1] update_tbl_admission_table Successfully Updated2019-10-23 09:38:14
[Wed 2019-10-23 09:38:14 AM] [client 192.168.49.1] update_learner_deregister_apply_table Successfully Updated2019-10-23 09:38:14
[Wed 2019-10-23 09:38:14 AM] [client 192.168.49.1] delete_biomatric_registration_entry Sucscessfully Deleted2019-10-23 09:38:14
[Wed 2019-10-23 09:38:14 AM] [client 192.168.49.1] update_tbl_admission_table Successfully Updated2019-10-23 09:38:14
[Wed 2019-10-23 09:38:14 AM] [client 192.168.49.1] update_learner_deregister_apply_table Successfully Updated2019-10-23 09:38:14
[Wed 2019-10-23 09:38:15 AM] [client 192.168.49.1] delete_biomatric_registration_entry Sucscessfully Deleted2019-10-23 09:38:15
[Wed 2019-10-23 09:38:15 AM] [client 192.168.49.1] update_tbl_admission_table Successfully Updated2019-10-23 09:38:15
[Wed 2019-10-23 09:38:15 AM] [client 192.168.49.1] update_learner_deregister_apply_table Successfully Updated2019-10-23 09:38:15
[Wed 2019-10-23 09:38:15 AM] [client 192.168.49.1] delete_biomatric_registration_entry Sucscessfully Deleted2019-10-23 09:38:15
[Wed 2019-10-23 09:38:15 AM] [client 192.168.49.1] update_tbl_admission_table Successfully Updated2019-10-23 09:38:15
[Wed 2019-10-23 09:38:15 AM] [client 192.168.49.1] update_learner_deregister_apply_table Successfully Updated2019-10-23 09:38:15
[Wed 2019-10-23 09:38:15 AM] [client 192.168.49.1] delete_biomatric_registration_entry Sucscessfully Deleted2019-10-23 09:38:15
[Wed 2019-10-23 09:38:15 AM] [client 192.168.49.1] update_tbl_admission_table Successfully Updated2019-10-23 09:38:15
[Wed 2019-10-23 09:38:15 AM] [client 192.168.49.1] update_learner_deregister_apply_table Successfully Updated2019-10-23 09:38:15
[Wed 2019-10-23 09:38:15 AM] [client 192.168.49.1] delete_biomatric_registration_entry Sucscessfully Deleted2019-10-23 09:38:15
[Wed 2019-10-23 09:38:15 AM] [client 192.168.49.1] update_tbl_admission_table Successfully Updated2019-10-23 09:38:15
[Wed 2019-10-23 09:38:15 AM] [client 192.168.49.1] update_learner_deregister_apply_table Successfully Updated2019-10-23 09:38:15
[Wed 2019-10-23 09:38:15 AM] [client 192.168.49.1] delete_biomatric_registration_entry Sucscessfully Deleted2019-10-23 09:38:15
[Wed 2019-10-23 09:38:15 AM] [client 192.168.49.1] update_tbl_admission_table Successfully Updated2019-10-23 09:38:15
[Wed 2019-10-23 09:38:15 AM] [client 192.168.49.1] update_learner_deregister_apply_table Successfully Updated2019-10-23 09:38:15
[Wed 2019-10-23 09:38:15 AM] [client 192.168.49.1] delete_biomatric_registration_entry Sucscessfully Deleted2019-10-23 09:38:15
[Wed 2019-10-23 09:38:15 AM] [client 192.168.49.1] update_tbl_admission_table Successfully Updated2019-10-23 09:38:15
[Wed 2019-10-23 09:38:15 AM] [client 192.168.49.1] update_learner_deregister_apply_table Successfully Updated2019-10-23 09:38:15
[Wed 2019-10-23 09:38:15 AM] [client 192.168.49.1] delete_biomatric_registration_entry Sucscessfully Deleted2019-10-23 09:38:15
[Wed 2019-10-23 09:38:15 AM] [client 192.168.49.1] update_tbl_admission_table Successfully Updated2019-10-23 09:38:15
[Wed 2019-10-23 09:38:15 AM] [client 192.168.49.1] update_learner_deregister_apply_table Successfully Updated2019-10-23 09:38:15
[Wed 2019-10-23 09:38:15 AM] [client 192.168.49.1] delete_biomatric_registration_entry Sucscessfully Deleted2019-10-23 09:38:15
[Wed 2019-10-23 09:38:15 AM] [client 192.168.49.1] update_tbl_admission_table Successfully Updated2019-10-23 09:38:15
[Wed 2019-10-23 09:38:15 AM] [client 192.168.49.1] update_learner_deregister_apply_table Successfully Updated2019-10-23 09:38:15
[Wed 2019-10-23 09:38:15 AM] [client 192.168.49.1] delete_biomatric_registration_entry Sucscessfully Deleted2019-10-23 09:38:15
[Wed 2019-10-23 09:38:15 AM] [client 192.168.49.1] update_tbl_admission_table Successfully Updated2019-10-23 09:38:15
[Wed 2019-10-23 09:38:15 AM] [client 192.168.49.1] update_learner_deregister_apply_table Successfully Updated2019-10-23 09:38:15
[Wed 2019-10-23 09:38:15 AM] [client 192.168.49.1] delete_biomatric_registration_entry Sucscessfully Deleted2019-10-23 09:38:15
[Wed 2019-10-23 09:38:15 AM] [client 192.168.49.1] update_tbl_admission_table Successfully Updated2019-10-23 09:38:15
[Wed 2019-10-23 09:38:15 AM] [client 192.168.49.1] update_learner_deregister_apply_table Successfully Updated2019-10-23 09:38:15
[Wed 2019-10-23 09:38:15 AM] [client 192.168.49.1] delete_biomatric_registration_entry Sucscessfully Deleted2019-10-23 09:38:15
[Wed 2019-10-23 09:38:15 AM] [client 192.168.49.1] update_tbl_admission_table Successfully Updated2019-10-23 09:38:15
[Wed 2019-10-23 09:38:15 AM] [client 192.168.49.1] update_learner_deregister_apply_table Successfully Updated2019-10-23 09:38:15
[Wed 2019-10-23 09:38:15 AM] [client 192.168.49.1] delete_biomatric_registration_entry Sucscessfully Deleted2019-10-23 09:38:15
[Wed 2019-10-23 09:38:15 AM] [client 192.168.49.1] update_tbl_admission_table Successfully Updated2019-10-23 09:38:15
[Wed 2019-10-23 09:38:15 AM] [client 192.168.49.1] update_learner_deregister_apply_table Successfully Updated2019-10-23 09:38:15
[Wed 2019-10-23 09:38:16 AM] [client 192.168.49.1] delete_biomatric_registration_entry Sucscessfully Deleted2019-10-23 09:38:16
[Wed 2019-10-23 09:38:16 AM] [client 192.168.49.1] update_tbl_admission_table Successfully Updated2019-10-23 09:38:16
[Wed 2019-10-23 09:38:16 AM] [client 192.168.49.1] update_learner_deregister_apply_table Successfully Updated2019-10-23 09:38:16
[Wed 2019-10-23 09:38:16 AM] [client 192.168.49.1] delete_biomatric_registration_entry Sucscessfully Deleted2019-10-23 09:38:16
[Wed 2019-10-23 09:38:16 AM] [client 192.168.49.1] update_tbl_admission_table Successfully Updated2019-10-23 09:38:16
[Wed 2019-10-23 09:38:16 AM] [client 192.168.49.1] update_learner_deregister_apply_table Successfully Updated2019-10-23 09:38:16
[Wed 2019-10-23 09:38:16 AM] [client 192.168.49.1] delete_biomatric_registration_entry Sucscessfully Deleted2019-10-23 09:38:16
[Wed 2019-10-23 09:38:16 AM] [client 192.168.49.1] update_tbl_admission_table Successfully Updated2019-10-23 09:38:16
[Wed 2019-10-23 09:38:16 AM] [client 192.168.49.1] update_learner_deregister_apply_table Successfully Updated2019-10-23 09:38:16
[Wed 2019-10-23 09:38:16 AM] [client 192.168.49.1] delete_biomatric_registration_entry Sucscessfully Deleted2019-10-23 09:38:16
[Wed 2019-10-23 09:38:16 AM] [client 192.168.49.1] update_tbl_admission_table Successfully Updated2019-10-23 09:38:16
[Wed 2019-10-23 09:38:16 AM] [client 192.168.49.1] update_learner_deregister_apply_table Successfully Updated2019-10-23 09:38:16
[Wed 2019-10-23 09:38:16 AM] [client 192.168.49.1] delete_biomatric_registration_entry Sucscessfully Deleted2019-10-23 09:38:16
[Wed 2019-10-23 09:38:16 AM] [client 192.168.49.1] update_tbl_admission_table Successfully Updated2019-10-23 09:38:16
[Wed 2019-10-23 09:38:16 AM] [client 192.168.49.1] update_learner_deregister_apply_table Successfully Updated2019-10-23 09:38:16
[Wed 2019-10-23 09:38:16 AM] [client 192.168.49.1] delete_biomatric_registration_entry Sucscessfully Deleted2019-10-23 09:38:16
[Wed 2019-10-23 09:38:16 AM] [client 192.168.49.1] update_tbl_admission_table Successfully Updated2019-10-23 09:38:16
[Wed 2019-10-23 09:38:16 AM] [client 192.168.49.1] update_learner_deregister_apply_table Successfully Updated2019-10-23 09:38:16
[Wed 2019-10-23 09:38:16 AM] [client 192.168.49.1] delete_biomatric_registration_entry Sucscessfully Deleted2019-10-23 09:38:16
[Wed 2019-10-23 09:38:16 AM] [client 192.168.49.1] update_tbl_admission_table Successfully Updated2019-10-23 09:38:16
[Wed 2019-10-23 09:38:16 AM] [client 192.168.49.1] update_learner_deregister_apply_table Successfully Updated2019-10-23 09:38:16
[Wed 2019-10-23 09:38:16 AM] [client 192.168.49.1] delete_biomatric_registration_entry Sucscessfully Deleted2019-10-23 09:38:16
[Wed 2019-10-23 09:38:16 AM] [client 192.168.49.1] update_tbl_admission_table Successfully Updated2019-10-23 09:38:16
[Wed 2019-10-23 09:38:16 AM] [client 192.168.49.1] update_learner_deregister_apply_table Successfully Updated2019-10-23 09:38:16
[Wed 2019-10-23 09:38:16 AM] [client 192.168.49.1] delete_biomatric_registration_entry Sucscessfully Deleted2019-10-23 09:38:16
[Wed 2019-10-23 09:38:16 AM] [client 192.168.49.1] update_tbl_admission_table Successfully Updated2019-10-23 09:38:16
[Wed 2019-10-23 09:38:16 AM] [client 192.168.49.1] update_learner_deregister_apply_table Successfully Updated2019-10-23 09:38:16
[Wed 2019-10-23 09:38:16 AM] [client 192.168.49.1] delete_biomatric_registration_entry Sucscessfully Deleted2019-10-23 09:38:16
[Wed 2019-10-23 09:38:16 AM] [client 192.168.49.1] update_tbl_admission_table Successfully Updated2019-10-23 09:38:16
[Wed 2019-10-23 09:38:16 AM] [client 192.168.49.1] update_learner_deregister_apply_table Successfully Updated2019-10-23 09:38:16
[Wed 2019-10-23 09:38:16 AM] [client 192.168.49.1] delete_biomatric_registration_entry Sucscessfully Deleted2019-10-23 09:38:16
[Wed 2019-10-23 09:38:16 AM] [client 192.168.49.1] update_tbl_admission_table Successfully Updated2019-10-23 09:38:16
[Wed 2019-10-23 09:38:16 AM] [client 192.168.49.1] update_learner_deregister_apply_table Successfully Updated2019-10-23 09:38:16
[Wed 2019-10-23 09:38:17 AM] [client 192.168.49.1] delete_biomatric_registration_entry Sucscessfully Deleted2019-10-23 09:38:17
[Wed 2019-10-23 09:38:17 AM] [client 192.168.49.1] update_tbl_admission_table Successfully Updated2019-10-23 09:38:17
[Wed 2019-10-23 09:38:17 AM] [client 192.168.49.1] update_learner_deregister_apply_table Successfully Updated2019-10-23 09:38:17
[Wed 2019-10-23 09:38:17 AM] [client 192.168.49.1] delete_biomatric_registration_entry Sucscessfully Deleted2019-10-23 09:38:17
[Wed 2019-10-23 09:38:17 AM] [client 192.168.49.1] update_tbl_admission_table Successfully Updated2019-10-23 09:38:17
[Wed 2019-10-23 09:38:17 AM] [client 192.168.49.1] update_learner_deregister_apply_table Successfully Updated2019-10-23 09:38:17
[Wed 2019-10-23 09:38:20 AM] [client 192.168.49.1] delete_biomatric_registration_entry Sucscessfully Deleted2019-10-23 09:38:20
[Wed 2019-10-23 09:38:20 AM] [client 192.168.49.1] update_tbl_admission_table Successfully Updated2019-10-23 09:38:20
[Wed 2019-10-23 09:38:20 AM] [client 192.168.49.1] update_learner_deregister_apply_table Successfully Updated2019-10-23 09:38:20
[Wed 2019-10-23 09:38:20 AM] [client 192.168.49.1] delete_biomatric_registration_entry Sucscessfully Deleted2019-10-23 09:38:20
[Wed 2019-10-23 09:38:20 AM] [client 192.168.49.1] update_tbl_admission_table Successfully Updated2019-10-23 09:38:20
[Wed 2019-10-23 09:38:20 AM] [client 192.168.49.1] update_learner_deregister_apply_table Successfully Updated2019-10-23 09:38:20
[Wed 2019-10-23 09:38:20 AM] [client 192.168.49.1] delete_biomatric_registration_entry Sucscessfully Deleted2019-10-23 09:38:20
[Wed 2019-10-23 09:38:20 AM] [client 192.168.49.1] update_tbl_admission_table Successfully Updated2019-10-23 09:38:20
[Wed 2019-10-23 09:38:20 AM] [client 192.168.49.1] update_learner_deregister_apply_table Successfully Updated2019-10-23 09:38:20
[Wed 2019-10-23 09:38:20 AM] [client 192.168.49.1] delete_biomatric_registration_entry Sucscessfully Deleted2019-10-23 09:38:20
[Wed 2019-10-23 09:38:20 AM] [client 192.168.49.1] update_tbl_admission_table Successfully Updated2019-10-23 09:38:20
[Wed 2019-10-23 09:38:20 AM] [client 192.168.49.1] update_learner_deregister_apply_table Successfully Updated2019-10-23 09:38:20
[Wed 2019-10-23 09:38:20 AM] [client 192.168.49.1] delete_biomatric_registration_entry Sucscessfully Deleted2019-10-23 09:38:20
[Wed 2019-10-23 09:38:20 AM] [client 192.168.49.1] update_tbl_admission_table Successfully Updated2019-10-23 09:38:20
[Wed 2019-10-23 09:38:20 AM] [client 192.168.49.1] update_learner_deregister_apply_table Successfully Updated2019-10-23 09:38:20
[Wed 2019-10-23 09:38:20 AM] [client 192.168.49.1] delete_biomatric_registration_entry Sucscessfully Deleted2019-10-23 09:38:20
[Wed 2019-10-23 09:38:20 AM] [client 192.168.49.1] update_tbl_admission_table Successfully Updated2019-10-23 09:38:20
[Wed 2019-10-23 09:38:20 AM] [client 192.168.49.1] update_learner_deregister_apply_table Successfully Updated2019-10-23 09:38:20
[Wed 2019-10-23 09:38:20 AM] [client 192.168.49.1] delete_biomatric_registration_entry Sucscessfully Deleted2019-10-23 09:38:20
[Wed 2019-10-23 09:38:20 AM] [client 192.168.49.1] update_tbl_admission_table Successfully Updated2019-10-23 09:38:20
[Wed 2019-10-23 09:38:20 AM] [client 192.168.49.1] update_learner_deregister_apply_table Successfully Updated2019-10-23 09:38:20
[Wed 2019-10-23 09:38:54 AM] [client 192.168.49.1] update_learner_deregister_apply_table_reject Successfully Updated2019-10-23 09:38:54
[Wed 2019-10-23 09:38:54 AM] [client 192.168.49.1] update_learner_deregister_apply_table_reject Successfully Updated2019-10-23 09:38:54
[Wed 2019-10-23 09:38:54 AM] [client 192.168.49.1] update_learner_deregister_apply_table_reject Successfully Updated2019-10-23 09:38:54
[Wed 2019-10-23 09:38:54 AM] [client 192.168.49.1] update_learner_deregister_apply_table_reject Successfully Updated2019-10-23 09:38:54
[Wed 2019-10-23 09:38:54 AM] [client 192.168.49.1] update_learner_deregister_apply_table_reject Successfully Updated2019-10-23 09:38:54
[Wed 2019-10-23 09:38:55 AM] [client 192.168.49.1] update_learner_deregister_apply_table_reject Successfully Updated2019-10-23 09:38:55
[Wed 2019-10-23 09:38:55 AM] [client 192.168.49.1] update_learner_deregister_apply_table_reject Successfully Updated2019-10-23 09:38:55
[Wed 2019-10-23 09:38:55 AM] [client 192.168.49.1] update_learner_deregister_apply_table_reject Successfully Updated2019-10-23 09:38:55
[Wed 2019-10-23 04:09:02 AM] [client 192.168.49.1] delete_biomatric_registration_entry Sucscessfully Deleted2019-10-23 04:09:02
[Wed 2019-10-23 04:09:02 AM] [client 192.168.49.1] update_tbl_admission_table Successfully Updated2019-10-23 04:09:02
[Wed 2019-10-23 09:39:02 AM] [client 192.168.49.1] update_learner_deregister_apply_table Successfully Updated2019-10-23 09:39:02
[Wed 2019-10-23 09:39:02 AM] [client 192.168.49.1] delete_biomatric_registration_entry Sucscessfully Deleted2019-10-23 09:39:02
[Wed 2019-10-23 09:39:02 AM] [client 192.168.49.1] update_tbl_admission_table Successfully Updated2019-10-23 09:39:02
[Wed 2019-10-23 09:39:02 AM] [client 192.168.49.1] update_learner_deregister_apply_table Successfully Updated2019-10-23 09:39:02
[Wed 2019-10-23 09:39:02 AM] [client 192.168.49.1] delete_biomatric_registration_entry Sucscessfully Deleted2019-10-23 09:39:02
[Wed 2019-10-23 09:39:02 AM] [client 192.168.49.1] update_tbl_admission_table Successfully Updated2019-10-23 09:39:02
[Wed 2019-10-23 09:39:02 AM] [client 192.168.49.1] update_learner_deregister_apply_table Successfully Updated2019-10-23 09:39:02
[Wed 2019-10-23 09:39:02 AM] [client 192.168.49.1] delete_biomatric_registration_entry Sucscessfully Deleted2019-10-23 09:39:02
[Wed 2019-10-23 09:39:02 AM] [client 192.168.49.1] update_tbl_admission_table Successfully Updated2019-10-23 09:39:02
[Wed 2019-10-23 09:39:02 AM] [client 192.168.49.1] update_learner_deregister_apply_table Successfully Updated2019-10-23 09:39:02
[Wed 2019-10-23 09:39:02 AM] [client 192.168.49.1] delete_biomatric_registration_entry Sucscessfully Deleted2019-10-23 09:39:02
[Wed 2019-10-23 09:39:02 AM] [client 192.168.49.1] update_tbl_admission_table Successfully Updated2019-10-23 09:39:02
[Wed 2019-10-23 09:39:02 AM] [client 192.168.49.1] update_learner_deregister_apply_table Successfully Updated2019-10-23 09:39:02
[Wed 2019-10-23 09:39:02 AM] [client 192.168.49.1] delete_biomatric_registration_entry Sucscessfully Deleted2019-10-23 09:39:02
[Wed 2019-10-23 09:39:02 AM] [client 192.168.49.1] update_tbl_admission_table Successfully Updated2019-10-23 09:39:02
[Wed 2019-10-23 09:39:02 AM] [client 192.168.49.1] update_learner_deregister_apply_table Successfully Updated2019-10-23 09:39:02
[Wed 2019-10-23 09:39:03 AM] [client 192.168.49.1] delete_biomatric_registration_entry Sucscessfully Deleted2019-10-23 09:39:03
[Wed 2019-10-23 09:39:03 AM] [client 192.168.49.1] update_tbl_admission_table Successfully Updated2019-10-23 09:39:03
[Wed 2019-10-23 09:39:03 AM] [client 192.168.49.1] update_learner_deregister_apply_table Successfully Updated2019-10-23 09:39:03
[Wed 2019-10-23 09:39:03 AM] [client 192.168.49.1] delete_biomatric_registration_entry Sucscessfully Deleted2019-10-23 09:39:03
[Wed 2019-10-23 09:39:03 AM] [client 192.168.49.1] update_tbl_admission_table Successfully Updated2019-10-23 09:39:03
[Wed 2019-10-23 09:39:03 AM] [client 192.168.49.1] update_learner_deregister_apply_table Successfully Updated2019-10-23 09:39:03
[Wed 2019-10-23 09:39:03 AM] [client 192.168.49.1] delete_biomatric_registration_entry Sucscessfully Deleted2019-10-23 09:39:03
[Wed 2019-10-23 09:39:03 AM] [client 192.168.49.1] update_tbl_admission_table Successfully Updated2019-10-23 09:39:03
[Wed 2019-10-23 09:39:03 AM] [client 192.168.49.1] update_learner_deregister_apply_table Successfully Updated2019-10-23 09:39:03
[Wed 2019-10-23 09:39:03 AM] [client 192.168.49.1] delete_biomatric_registration_entry Sucscessfully Deleted2019-10-23 09:39:03
[Wed 2019-10-23 09:39:03 AM] [client 192.168.49.1] update_tbl_admission_table Successfully Updated2019-10-23 09:39:03
[Wed 2019-10-23 09:39:03 AM] [client 192.168.49.1] update_learner_deregister_apply_table Successfully Updated2019-10-23 09:39:03
[Wed 2019-10-23 09:39:03 AM] [client 192.168.49.1] delete_biomatric_registration_entry Sucscessfully Deleted2019-10-23 09:39:03
[Wed 2019-10-23 09:39:03 AM] [client 192.168.49.1] update_tbl_admission_table Successfully Updated2019-10-23 09:39:03
[Wed 2019-10-23 09:39:03 AM] [client 192.168.49.1] update_learner_deregister_apply_table Successfully Updated2019-10-23 09:39:03
[Wed 2019-10-23 04:11:34 AM] [client 192.168.49.1] delete_biomatric_registration_entry Sucscessfully Deleted2019-10-23 04:11:34
[Wed 2019-10-23 04:11:34 AM] [client 192.168.49.1] update_tbl_admission_table Successfully Updated2019-10-23 04:11:34
[Wed 2019-10-23 09:41:34 AM] [client 192.168.49.1] update_learner_deregister_apply_table Successfully Updated2019-10-23 09:41:34
[Wed 2019-10-23 09:41:40 AM] [client 192.168.49.1] update_learner_deregister_apply_table_reject Successfully Updated2019-10-23 09:41:40
[Wed 2019-10-23 04:18:21 AM] [client 192.168.49.1] delete_biomatric_registration_entry Sucscessfully Deleted2019-10-23 04:18:21
[Wed 2019-10-23 04:18:21 AM] [client 192.168.49.1] update_tbl_admission_table Successfully Updated2019-10-23 04:18:21
[Wed 2019-10-23 09:48:21 AM] [client 192.168.49.1] update_learner_deregister_apply_table Successfully Updated2019-10-23 09:48:21
[Wed 2019-10-23 09:48:21 AM] [client 192.168.49.1] delete_biomatric_registration_entry Sucscessfully Deleted2019-10-23 09:48:21
[Wed 2019-10-23 09:48:21 AM] [client 192.168.49.1] update_tbl_admission_table Successfully Updated2019-10-23 09:48:21
[Wed 2019-10-23 09:48:21 AM] [client 192.168.49.1] update_learner_deregister_apply_table Successfully Updated2019-10-23 09:48:21
[Wed 2019-10-23 09:48:21 AM] [client 192.168.49.1] delete_biomatric_registration_entry Sucscessfully Deleted2019-10-23 09:48:21
[Wed 2019-10-23 09:48:21 AM] [client 192.168.49.1] update_tbl_admission_table Successfully Updated2019-10-23 09:48:21
[Wed 2019-10-23 09:48:21 AM] [client 192.168.49.1] update_learner_deregister_apply_table Successfully Updated2019-10-23 09:48:21
[Wed 2019-10-23 09:48:28 AM] [client 192.168.49.1] update_learner_deregister_apply_table_reject Successfully Updated2019-10-23 09:48:28
[Wed 2019-10-23 04:23:13 AM] [client 192.168.49.1] ajax request post accpect2019-10-23 04:23:13
[Wed 2019-10-23 04:23:30 AM] [client 192.168.49.1] encrypt file create2019-10-23 04:23:30
[Wed 2019-10-23 04:23:30 AM] [client 192.168.49.1] sen request to i learn2019-10-23 04:23:30
[Wed 2019-10-23 04:23:30 AM] [client 192.168.49.1] curl response2019-10-23 04:23:30{"status":"200","success":"success"}
[Wed 2019-10-23 04:23:30 AM] [client 192.168.49.1] change status to N2019-10-23 04:23:30
[Wed 2019-10-23 04:24:12 AM] [client 192.168.49.1] ajax request post accpect2019-10-23 04:24:12
[Wed 2019-10-23 04:24:25 AM] [client 192.168.49.1] encrypt file create2019-10-23 04:24:25
[Wed 2019-10-23 04:24:25 AM] [client 192.168.49.1] sen request to i learn2019-10-23 04:24:25
[Wed 2019-10-23 04:24:25 AM] [client 192.168.49.1] curl response2019-10-23 04:24:25{"status":"200","success":"success"}
[Wed 2019-10-23 04:24:25 AM] [client 192.168.49.1] change status to N2019-10-23 04:24:25
[Wed 2019-10-23 04:32:31 AM] [client 192.168.49.1] delete_biomatric_registration_entry Sucscessfully Deleted2019-10-23 04:32:31
[Wed 2019-10-23 04:32:31 AM] [client 192.168.49.1] update_tbl_admission_table Successfully Updated2019-10-23 04:32:31
[Wed 2019-10-23 10:02:31 AM] [client 192.168.49.1] update_learner_deregister_apply_table Successfully Updated2019-10-23 10:02:31
[Wed 2019-10-23 04:57:37 AM] [client 192.168.49.1] delete_biomatric_registration_entry Sucscessfully Deleted2019-10-23 04:57:37
[Wed 2019-10-23 04:57:37 AM] [client 192.168.49.1] update_tbl_admission_table Successfully Updated2019-10-23 04:57:37
[Wed 2019-10-23 10:27:37 AM] [client 192.168.49.1] update_learner_deregister_apply_table Successfully Updated2019-10-23 10:27:37
[Wed 2019-10-23 10:27:37 AM] [client 192.168.49.1] delete_biomatric_registration_entry Sucscessfully Deleted2019-10-23 10:27:37
[Wed 2019-10-23 10:27:37 AM] [client 192.168.49.1] update_tbl_admission_table Successfully Updated2019-10-23 10:27:37
[Wed 2019-10-23 10:27:37 AM] [client 192.168.49.1] update_learner_deregister_apply_table Successfully Updated2019-10-23 10:27:37
[Wed 2019-10-23 10:27:37 AM] [client 192.168.49.1] delete_biomatric_registration_entry Sucscessfully Deleted2019-10-23 10:27:37
[Wed 2019-10-23 10:27:37 AM] [client 192.168.49.1] update_tbl_admission_table Successfully Updated2019-10-23 10:27:37
[Wed 2019-10-23 10:27:37 AM] [client 192.168.49.1] update_learner_deregister_apply_table Successfully Updated2019-10-23 10:27:37
[Wed 2019-10-23 10:27:37 AM] [client 192.168.49.1] delete_biomatric_registration_entry Sucscessfully Deleted2019-10-23 10:27:37
[Wed 2019-10-23 10:27:37 AM] [client 192.168.49.1] update_tbl_admission_table Successfully Updated2019-10-23 10:27:37
[Wed 2019-10-23 10:27:37 AM] [client 192.168.49.1] update_learner_deregister_apply_table Successfully Updated2019-10-23 10:27:37
[Wed 2019-10-23 10:27:38 AM] [client 192.168.49.1] delete_biomatric_registration_entry Sucscessfully Deleted2019-10-23 10:27:38
[Wed 2019-10-23 10:27:38 AM] [client 192.168.49.1] update_tbl_admission_table Successfully Updated2019-10-23 10:27:38
[Wed 2019-10-23 10:27:38 AM] [client 192.168.49.1] update_learner_deregister_apply_table Successfully Updated2019-10-23 10:27:38
[Wed 2019-10-23 10:27:38 AM] [client 192.168.49.1] delete_biomatric_registration_entry Sucscessfully Deleted2019-10-23 10:27:38
[Wed 2019-10-23 10:27:38 AM] [client 192.168.49.1] update_tbl_admission_table Successfully Updated2019-10-23 10:27:38
[Wed 2019-10-23 10:27:38 AM] [client 192.168.49.1] update_learner_deregister_apply_table Successfully Updated2019-10-23 10:27:38
[Wed 2019-10-23 10:27:38 AM] [client 192.168.49.1] delete_biomatric_registration_entry Sucscessfully Deleted2019-10-23 10:27:38
[Wed 2019-10-23 10:27:38 AM] [client 192.168.49.1] update_tbl_admission_table Successfully Updated2019-10-23 10:27:38
[Wed 2019-10-23 10:27:38 AM] [client 192.168.49.1] update_learner_deregister_apply_table Successfully Updated2019-10-23 10:27:38
[Wed 2019-10-23 10:27:38 AM] [client 192.168.49.1] delete_biomatric_registration_entry Sucscessfully Deleted2019-10-23 10:27:38
[Wed 2019-10-23 10:27:38 AM] [client 192.168.49.1] update_tbl_admission_table Successfully Updated2019-10-23 10:27:38
[Wed 2019-10-23 10:27:38 AM] [client 192.168.49.1] update_learner_deregister_apply_table Successfully Updated2019-10-23 10:27:38
[Wed 2019-10-23 10:27:38 AM] [client 192.168.49.1] delete_biomatric_registration_entry Sucscessfully Deleted2019-10-23 10:27:38
[Wed 2019-10-23 10:27:38 AM] [client 192.168.49.1] update_tbl_admission_table Successfully Updated2019-10-23 10:27:38
[Wed 2019-10-23 10:27:38 AM] [client 192.168.49.1] update_learner_deregister_apply_table Successfully Updated2019-10-23 10:27:38
[Wed 2019-10-23 10:27:38 AM] [client 192.168.49.1] delete_biomatric_registration_entry Sucscessfully Deleted2019-10-23 10:27:38
[Wed 2019-10-23 10:27:38 AM] [client 192.168.49.1] update_tbl_admission_table Successfully Updated2019-10-23 10:27:38
[Wed 2019-10-23 10:27:38 AM] [client 192.168.49.1] update_learner_deregister_apply_table Successfully Updated2019-10-23 10:27:38
[Wed 2019-10-23 10:27:38 AM] [client 192.168.49.1] delete_biomatric_registration_entry Sucscessfully Deleted2019-10-23 10:27:38
[Wed 2019-10-23 10:27:38 AM] [client 192.168.49.1] update_tbl_admission_table Successfully Updated2019-10-23 10:27:38
[Wed 2019-10-23 10:27:38 AM] [client 192.168.49.1] update_learner_deregister_apply_table Successfully Updated2019-10-23 10:27:38
[Wed 2019-10-23 10:27:38 AM] [client 192.168.49.1] delete_biomatric_registration_entry Sucscessfully Deleted2019-10-23 10:27:38
[Wed 2019-10-23 10:27:38 AM] [client 192.168.49.1] update_tbl_admission_table Successfully Updated2019-10-23 10:27:38
[Wed 2019-10-23 10:27:38 AM] [client 192.168.49.1] update_learner_deregister_apply_table Successfully Updated2019-10-23 10:27:38
[Wed 2019-10-23 04:57:49 AM] [client 192.168.49.1] delete_biomatric_registration_entry Sucscessfully Deleted2019-10-23 04:57:49
[Wed 2019-10-23 04:57:49 AM] [client 192.168.49.1] update_tbl_admission_table Successfully Updated2019-10-23 04:57:49
[Wed 2019-10-23 10:27:49 AM] [client 192.168.49.1] update_learner_deregister_apply_table Successfully Updated2019-10-23 10:27:49
[Wed 2019-10-23 10:27:49 AM] [client 192.168.49.1] delete_biomatric_registration_entry Sucscessfully Deleted2019-10-23 10:27:49
[Wed 2019-10-23 10:27:49 AM] [client 192.168.49.1] update_tbl_admission_table Successfully Updated2019-10-23 10:27:49
[Wed 2019-10-23 10:27:49 AM] [client 192.168.49.1] update_learner_deregister_apply_table Successfully Updated2019-10-23 10:27:49
[Wed 2019-10-23 05:45:19 AM] [client 192.168.49.1] delete_biomatric_registration_entry Sucscessfully Deleted2019-10-23 05:45:19
[Wed 2019-10-23 05:45:19 AM] [client 192.168.49.1] update_tbl_admission_table Successfully Updated2019-10-23 05:45:19
[Wed 2019-10-23 11:15:19 AM] [client 192.168.49.1] update_learner_deregister_apply_table Successfully Updated2019-10-23 11:15:19
[Wed 2019-10-23 11:15:19 AM] [client 192.168.49.1] delete_biomatric_registration_entry Sucscessfully Deleted2019-10-23 11:15:19
[Wed 2019-10-23 11:15:19 AM] [client 192.168.49.1] update_tbl_admission_table Successfully Updated2019-10-23 11:15:19
[Wed 2019-10-23 11:15:19 AM] [client 192.168.49.1] update_learner_deregister_apply_table Successfully Updated2019-10-23 11:15:19
[Wed 2019-10-23 11:15:19 AM] [client 192.168.49.1] delete_biomatric_registration_entry Sucscessfully Deleted2019-10-23 11:15:19
[Wed 2019-10-23 11:15:19 AM] [client 192.168.49.1] update_tbl_admission_table Successfully Updated2019-10-23 11:15:19
[Wed 2019-10-23 11:15:19 AM] [client 192.168.49.1] update_learner_deregister_apply_table Successfully Updated2019-10-23 11:15:19
[Wed 2019-10-23 11:15:19 AM] [client 192.168.49.1] delete_biomatric_registration_entry Sucscessfully Deleted2019-10-23 11:15:19
[Wed 2019-10-23 11:15:19 AM] [client 192.168.49.1] update_tbl_admission_table Successfully Updated2019-10-23 11:15:19
[Wed 2019-10-23 11:15:19 AM] [client 192.168.49.1] update_learner_deregister_apply_table Successfully Updated2019-10-23 11:15:19
[Wed 2019-10-23 11:15:19 AM] [client 192.168.49.1] delete_biomatric_registration_entry Sucscessfully Deleted2019-10-23 11:15:19
[Wed 2019-10-23 11:15:19 AM] [client 192.168.49.1] update_tbl_admission_table Successfully Updated2019-10-23 11:15:19
[Wed 2019-10-23 11:15:19 AM] [client 192.168.49.1] update_learner_deregister_apply_table Successfully Updated2019-10-23 11:15:19
[Wed 2019-10-23 11:15:19 AM] [client 192.168.49.1] delete_biomatric_registration_entry Sucscessfully Deleted2019-10-23 11:15:19
[Wed 2019-10-23 11:15:19 AM] [client 192.168.49.1] update_tbl_admission_table Successfully Updated2019-10-23 11:15:19
[Wed 2019-10-23 11:15:19 AM] [client 192.168.49.1] update_learner_deregister_apply_table Successfully Updated2019-10-23 11:15:19
[Wed 2019-10-23 11:15:19 AM] [client 192.168.49.1] delete_biomatric_registration_entry Sucscessfully Deleted2019-10-23 11:15:19
[Wed 2019-10-23 11:15:19 AM] [client 192.168.49.1] update_tbl_admission_table Successfully Updated2019-10-23 11:15:19
[Wed 2019-10-23 11:15:19 AM] [client 192.168.49.1] update_learner_deregister_apply_table Successfully Updated2019-10-23 11:15:19
[Wed 2019-10-23 11:15:19 AM] [client 192.168.49.1] delete_biomatric_registration_entry Sucscessfully Deleted2019-10-23 11:15:19
[Wed 2019-10-23 11:15:19 AM] [client 192.168.49.1] update_tbl_admission_table Successfully Updated2019-10-23 11:15:19
[Wed 2019-10-23 11:15:19 AM] [client 192.168.49.1] update_learner_deregister_apply_table Successfully Updated2019-10-23 11:15:19
[Wed 2019-10-23 11:15:19 AM] [client 192.168.49.1] delete_biomatric_registration_entry Sucscessfully Deleted2019-10-23 11:15:19
[Wed 2019-10-23 11:15:19 AM] [client 192.168.49.1] update_tbl_admission_table Successfully Updated2019-10-23 11:15:19
[Wed 2019-10-23 11:15:19 AM] [client 192.168.49.1] update_learner_deregister_apply_table Successfully Updated2019-10-23 11:15:19
[Wed 2019-10-23 11:15:29 AM] [client 192.168.49.1] update_learner_deregister_apply_table_reject Successfully Updated2019-10-23 11:15:29
[Wed 2019-10-23 11:15:29 AM] [client 192.168.49.1] update_learner_deregister_apply_table_reject Successfully Updated2019-10-23 11:15:29
[Wed 2019-10-23 11:15:30 AM] [client 192.168.49.1] update_learner_deregister_apply_table_reject Successfully Updated2019-10-23 11:15:30
[Wed 2019-10-23 05:58:42 AM] [client 192.168.49.1] delete_biomatric_registration_entry Sucscessfully Deleted2019-10-23 05:58:42
[Wed 2019-10-23 05:58:42 AM] [client 192.168.49.1] update_tbl_admission_table Successfully Updated2019-10-23 05:58:42
[Wed 2019-10-23 11:28:42 AM] [client 192.168.49.1] update_learner_deregister_apply_table Successfully Updated2019-10-23 11:28:42
[Wed 2019-10-23 11:28:42 AM] [client 192.168.49.1] delete_biomatric_registration_entry Sucscessfully Deleted2019-10-23 11:28:42
[Wed 2019-10-23 11:28:42 AM] [client 192.168.49.1] update_tbl_admission_table Successfully Updated2019-10-23 11:28:42
[Wed 2019-10-23 11:28:42 AM] [client 192.168.49.1] update_learner_deregister_apply_table Successfully Updated2019-10-23 11:28:42
[Wed 2019-10-23 11:28:42 AM] [client 192.168.49.1] delete_biomatric_registration_entry Sucscessfully Deleted2019-10-23 11:28:42
[Wed 2019-10-23 11:28:42 AM] [client 192.168.49.1] update_tbl_admission_table Successfully Updated2019-10-23 11:28:42
[Wed 2019-10-23 11:28:42 AM] [client 192.168.49.1] update_learner_deregister_apply_table Successfully Updated2019-10-23 11:28:42
[Wed 2019-10-23 11:28:58 AM] [client 192.168.49.1] update_learner_deregister_apply_table_reject Successfully Updated2019-10-23 11:28:58
[Wed 2019-10-23 11:28:58 AM] [client 192.168.49.1] update_learner_deregister_apply_table_reject Successfully Updated2019-10-23 11:28:58
[Wed 2019-10-23 06:48:12 AM] [client 192.168.49.1] delete_biomatric_registration_entry Sucscessfully Deleted2019-10-23 06:48:12
[Wed 2019-10-23 06:48:12 AM] [client 192.168.49.1] update_tbl_admission_table Successfully Updated2019-10-23 06:48:12
[Wed 2019-10-23 12:18:12 PM] [client 192.168.49.1] update_learner_deregister_apply_table Successfully Updated2019-10-23 12:18:12
[Wed 2019-10-23 12:18:12 PM] [client 192.168.49.1] delete_biomatric_registration_entry Sucscessfully Deleted2019-10-23 12:18:12
[Wed 2019-10-23 12:18:12 PM] [client 192.168.49.1] update_tbl_admission_table Successfully Updated2019-10-23 12:18:12
[Wed 2019-10-23 12:18:12 PM] [client 192.168.49.1] update_learner_deregister_apply_table Successfully Updated2019-10-23 12:18:12
[Wed 2019-10-23 12:18:12 PM] [client 192.168.49.1] delete_biomatric_registration_entry Sucscessfully Deleted2019-10-23 12:18:12
[Wed 2019-10-23 12:18:12 PM] [client 192.168.49.1] update_tbl_admission_table Successfully Updated2019-10-23 12:18:12
[Wed 2019-10-23 12:18:12 PM] [client 192.168.49.1] update_learner_deregister_apply_table Successfully Updated2019-10-23 12:18:12
[Wed 2019-10-23 12:18:13 PM] [client 192.168.49.1] delete_biomatric_registration_entry Sucscessfully Deleted2019-10-23 12:18:13
[Wed 2019-10-23 12:18:13 PM] [client 192.168.49.1] update_tbl_admission_table Successfully Updated2019-10-23 12:18:13
[Wed 2019-10-23 12:18:13 PM] [client 192.168.49.1] update_learner_deregister_apply_table Successfully Updated2019-10-23 12:18:13
[Wed 2019-10-23 12:18:13 PM] [client 192.168.49.1] delete_biomatric_registration_entry Sucscessfully Deleted2019-10-23 12:18:13
[Wed 2019-10-23 12:18:13 PM] [client 192.168.49.1] update_tbl_admission_table Successfully Updated2019-10-23 12:18:13
[Wed 2019-10-23 12:18:13 PM] [client 192.168.49.1] update_learner_deregister_apply_table Successfully Updated2019-10-23 12:18:13
[Wed 2019-10-23 12:18:13 PM] [client 192.168.49.1] delete_biomatric_registration_entry Sucscessfully Deleted2019-10-23 12:18:13
[Wed 2019-10-23 12:18:13 PM] [client 192.168.49.1] update_tbl_admission_table Successfully Updated2019-10-23 12:18:13
[Wed 2019-10-23 12:18:13 PM] [client 192.168.49.1] update_learner_deregister_apply_table Successfully Updated2019-10-23 12:18:13
[Wed 2019-10-23 12:18:13 PM] [client 192.168.49.1] delete_biomatric_registration_entry Sucscessfully Deleted2019-10-23 12:18:13
[Wed 2019-10-23 12:18:13 PM] [client 192.168.49.1] update_tbl_admission_table Successfully Updated2019-10-23 12:18:13
[Wed 2019-10-23 12:18:13 PM] [client 192.168.49.1] update_learner_deregister_apply_table Successfully Updated2019-10-23 12:18:13
[Wed 2019-10-23 12:18:13 PM] [client 192.168.49.1] delete_biomatric_registration_entry Sucscessfully Deleted2019-10-23 12:18:13
[Wed 2019-10-23 12:18:13 PM] [client 192.168.49.1] update_tbl_admission_table Successfully Updated2019-10-23 12:18:13
[Wed 2019-10-23 12:18:13 PM] [client 192.168.49.1] update_learner_deregister_apply_table Successfully Updated2019-10-23 12:18:13
[Wed 2019-10-23 12:18:13 PM] [client 192.168.49.1] delete_biomatric_registration_entry Sucscessfully Deleted2019-10-23 12:18:13
[Wed 2019-10-23 12:18:13 PM] [client 192.168.49.1] update_tbl_admission_table Successfully Updated2019-10-23 12:18:13
[Wed 2019-10-23 12:18:13 PM] [client 192.168.49.1] update_learner_deregister_apply_table Successfully Updated2019-10-23 12:18:13
[Wed 2019-10-23 12:18:13 PM] [client 192.168.49.1] delete_biomatric_registration_entry Sucscessfully Deleted2019-10-23 12:18:13
[Wed 2019-10-23 12:18:13 PM] [client 192.168.49.1] update_tbl_admission_table Successfully Updated2019-10-23 12:18:13
[Wed 2019-10-23 12:18:13 PM] [client 192.168.49.1] update_learner_deregister_apply_table Successfully Updated2019-10-23 12:18:13
[Wed 2019-10-23 12:18:13 PM] [client 192.168.49.1] delete_biomatric_registration_entry Sucscessfully Deleted2019-10-23 12:18:13
[Wed 2019-10-23 12:18:13 PM] [client 192.168.49.1] update_tbl_admission_table Successfully Updated2019-10-23 12:18:13
[Wed 2019-10-23 12:18:13 PM] [client 192.168.49.1] update_learner_deregister_apply_table Successfully Updated2019-10-23 12:18:13
[Wed 2019-10-23 12:18:14 PM] [client 192.168.49.1] delete_biomatric_registration_entry Sucscessfully Deleted2019-10-23 12:18:14
[Wed 2019-10-23 12:18:14 PM] [client 192.168.49.1] update_tbl_admission_table Successfully Updated2019-10-23 12:18:14
[Wed 2019-10-23 12:18:14 PM] [client 192.168.49.1] update_learner_deregister_apply_table Successfully Updated2019-10-23 12:18:14
[Wed 2019-10-23 12:18:14 PM] [client 192.168.49.1] delete_biomatric_registration_entry Sucscessfully Deleted2019-10-23 12:18:14
[Wed 2019-10-23 12:18:14 PM] [client 192.168.49.1] update_tbl_admission_table Successfully Updated2019-10-23 12:18:14
[Wed 2019-10-23 12:18:14 PM] [client 192.168.49.1] update_learner_deregister_apply_table Successfully Updated2019-10-23 12:18:14
[Wed 2019-10-23 12:18:14 PM] [client 192.168.49.1] delete_biomatric_registration_entry Sucscessfully Deleted2019-10-23 12:18:14
[Wed 2019-10-23 12:18:14 PM] [client 192.168.49.1] update_tbl_admission_table Successfully Updated2019-10-23 12:18:14
[Wed 2019-10-23 12:18:14 PM] [client 192.168.49.1] update_learner_deregister_apply_table Successfully Updated2019-10-23 12:18:14
[Wed 2019-10-23 12:18:14 PM] [client 192.168.49.1] delete_biomatric_registration_entry Sucscessfully Deleted2019-10-23 12:18:14
[Wed 2019-10-23 12:18:14 PM] [client 192.168.49.1] update_tbl_admission_table Successfully Updated2019-10-23 12:18:14
[Wed 2019-10-23 12:18:14 PM] [client 192.168.49.1] update_learner_deregister_apply_table Successfully Updated2019-10-23 12:18:14
[Wed 2019-10-23 12:18:45 PM] [client 192.168.49.1] update_learner_deregister_apply_table_reject Successfully Updated2019-10-23 12:18:45
[Wed 2019-10-23 12:18:45 PM] [client 192.168.49.1] update_learner_deregister_apply_table_reject Successfully Updated2019-10-23 12:18:45
[Wed 2019-10-23 12:18:46 PM] [client 192.168.49.1] update_learner_deregister_apply_table_reject Successfully Updated2019-10-23 12:18:46
[Wed 2019-10-23 12:18:46 PM] [client 192.168.49.1] update_learner_deregister_apply_table_reject Successfully Updated2019-10-23 12:18:46
[Wed 2019-10-23 12:18:46 PM] [client 192.168.49.1] update_learner_deregister_apply_table_reject Successfully Updated2019-10-23 12:18:46
[Wed 2019-10-23 12:18:46 PM] [client 192.168.49.1] update_learner_deregister_apply_table_reject Successfully Updated2019-10-23 12:18:46
[Wed 2019-10-23 12:18:46 PM] [client 192.168.49.1] update_learner_deregister_apply_table_reject Successfully Updated2019-10-23 12:18:46
[Wed 2019-10-23 12:18:46 PM] [client 192.168.49.1] update_learner_deregister_apply_table_reject Successfully Updated2019-10-23 12:18:46
[Wed 2019-10-23 12:18:46 PM] [client 192.168.49.1] update_learner_deregister_apply_table_reject Successfully Updated2019-10-23 12:18:46
[Wed 2019-10-23 07:03:22 AM] [client 192.168.49.1] delete_biomatric_registration_entry Sucscessfully Deleted2019-10-23 07:03:22
[Wed 2019-10-23 07:03:22 AM] [client 192.168.49.1] update_tbl_admission_table Successfully Updated2019-10-23 07:03:22
[Wed 2019-10-23 12:33:22 PM] [client 192.168.49.1] update_learner_deregister_apply_table Successfully Updated2019-10-23 12:33:22
[Wed 2019-10-23 12:33:23 PM] [client 192.168.49.1] delete_biomatric_registration_entry Sucscessfully Deleted2019-10-23 12:33:23
[Wed 2019-10-23 12:33:23 PM] [client 192.168.49.1] update_tbl_admission_table Successfully Updated2019-10-23 12:33:23
[Wed 2019-10-23 12:33:23 PM] [client 192.168.49.1] update_learner_deregister_apply_table Successfully Updated2019-10-23 12:33:23
[Wed 2019-10-23 12:34:27 PM] [client 192.168.49.1] update_learner_deregister_apply_table_reject Successfully Updated2019-10-23 12:34:27
[Wed 2019-10-23 07:11:22 AM] [client 192.168.49.1] delete_biomatric_registration_entry Sucscessfully Deleted2019-10-23 07:11:22
[Wed 2019-10-23 07:11:22 AM] [client 192.168.49.1] update_tbl_admission_table Successfully Updated2019-10-23 07:11:22
[Wed 2019-10-23 12:41:22 PM] [client 192.168.49.1] update_learner_deregister_apply_table Successfully Updated2019-10-23 12:41:22
[Wed 2019-10-23 07:32:31 AM] [client 192.168.49.1] delete_biomatric_registration_entry Sucscessfully Deleted2019-10-23 07:32:31
[Wed 2019-10-23 07:32:31 AM] [client 192.168.49.1] update_tbl_admission_table Successfully Updated2019-10-23 07:32:31
[Wed 2019-10-23 01:02:31 PM] [client 192.168.49.1] update_learner_deregister_apply_table Successfully Updated2019-10-23 01:02:31
[Wed 2019-10-23 01:02:31 PM] [client 192.168.49.1] delete_biomatric_registration_entry Sucscessfully Deleted2019-10-23 01:02:31
[Wed 2019-10-23 01:02:31 PM] [client 192.168.49.1] update_tbl_admission_table Successfully Updated2019-10-23 01:02:31
[Wed 2019-10-23 01:02:31 PM] [client 192.168.49.1] update_learner_deregister_apply_table Successfully Updated2019-10-23 01:02:31
[Wed 2019-10-23 01:02:31 PM] [client 192.168.49.1] delete_biomatric_registration_entry Sucscessfully Deleted2019-10-23 01:02:31
[Wed 2019-10-23 01:02:31 PM] [client 192.168.49.1] update_tbl_admission_table Successfully Updated2019-10-23 01:02:31
[Wed 2019-10-23 01:02:31 PM] [client 192.168.49.1] update_learner_deregister_apply_table Successfully Updated2019-10-23 01:02:31
[Wed 2019-10-23 01:02:31 PM] [client 192.168.49.1] delete_biomatric_registration_entry Sucscessfully Deleted2019-10-23 01:02:31
[Wed 2019-10-23 01:02:31 PM] [client 192.168.49.1] update_tbl_admission_table Successfully Updated2019-10-23 01:02:31
[Wed 2019-10-23 01:02:31 PM] [client 192.168.49.1] update_learner_deregister_apply_table Successfully Updated2019-10-23 01:02:31
[Wed 2019-10-23 01:02:31 PM] [client 192.168.49.1] delete_biomatric_registration_entry Sucscessfully Deleted2019-10-23 01:02:31
[Wed 2019-10-23 01:02:31 PM] [client 192.168.49.1] update_tbl_admission_table Successfully Updated2019-10-23 01:02:31
[Wed 2019-10-23 01:02:31 PM] [client 192.168.49.1] update_learner_deregister_apply_table Successfully Updated2019-10-23 01:02:31
[Wed 2019-10-23 01:02:31 PM] [client 192.168.49.1] delete_biomatric_registration_entry Sucscessfully Deleted2019-10-23 01:02:31
[Wed 2019-10-23 01:02:31 PM] [client 192.168.49.1] update_tbl_admission_table Successfully Updated2019-10-23 01:02:31
[Wed 2019-10-23 01:02:31 PM] [client 192.168.49.1] update_learner_deregister_apply_table Successfully Updated2019-10-23 01:02:31
[Wed 2019-10-23 01:02:31 PM] [client 192.168.49.1] delete_biomatric_registration_entry Sucscessfully Deleted2019-10-23 01:02:31
[Wed 2019-10-23 01:02:31 PM] [client 192.168.49.1] update_tbl_admission_table Successfully Updated2019-10-23 01:02:31
[Wed 2019-10-23 01:02:31 PM] [client 192.168.49.1] update_learner_deregister_apply_table Successfully Updated2019-10-23 01:02:31
[Wed 2019-10-23 07:54:39 AM] [client 192.168.49.1] delete_biomatric_registration_entry Sucscessfully Deleted2019-10-23 07:54:39
[Wed 2019-10-23 07:54:39 AM] [client 192.168.49.1] update_tbl_admission_table Successfully Updated2019-10-23 07:54:39
[Wed 2019-10-23 01:24:39 PM] [client 192.168.49.1] update_learner_deregister_apply_table Successfully Updated2019-10-23 01:24:39
[Wed 2019-10-23 01:24:39 PM] [client 192.168.49.1] delete_biomatric_registration_entry Sucscessfully Deleted2019-10-23 01:24:39
[Wed 2019-10-23 01:24:39 PM] [client 192.168.49.1] update_tbl_admission_table Successfully Updated2019-10-23 01:24:39
[Wed 2019-10-23 01:24:39 PM] [client 192.168.49.1] update_learner_deregister_apply_table Successfully Updated2019-10-23 01:24:39
[Wed 2019-10-23 01:24:39 PM] [client 192.168.49.1] delete_biomatric_registration_entry Sucscessfully Deleted2019-10-23 01:24:39
[Wed 2019-10-23 01:24:39 PM] [client 192.168.49.1] update_tbl_admission_table Successfully Updated2019-10-23 01:24:39
[Wed 2019-10-23 01:24:39 PM] [client 192.168.49.1] update_learner_deregister_apply_table Successfully Updated2019-10-23 01:24:39
[Wed 2019-10-23 01:24:39 PM] [client 192.168.49.1] delete_biomatric_registration_entry Sucscessfully Deleted2019-10-23 01:24:39
[Wed 2019-10-23 01:24:39 PM] [client 192.168.49.1] update_tbl_admission_table Successfully Updated2019-10-23 01:24:39
[Wed 2019-10-23 01:24:39 PM] [client 192.168.49.1] update_learner_deregister_apply_table Successfully Updated2019-10-23 01:24:39
[Wed 2019-10-23 01:24:39 PM] [client 192.168.49.1] delete_biomatric_registration_entry Sucscessfully Deleted2019-10-23 01:24:39
[Wed 2019-10-23 01:24:39 PM] [client 192.168.49.1] update_tbl_admission_table Successfully Updated2019-10-23 01:24:39
[Wed 2019-10-23 01:24:39 PM] [client 192.168.49.1] update_learner_deregister_apply_table Successfully Updated2019-10-23 01:24:39
[Wed 2019-10-23 01:24:39 PM] [client 192.168.49.1] delete_biomatric_registration_entry Sucscessfully Deleted2019-10-23 01:24:39
[Wed 2019-10-23 01:24:39 PM] [client 192.168.49.1] update_tbl_admission_table Successfully Updated2019-10-23 01:24:39
[Wed 2019-10-23 01:24:39 PM] [client 192.168.49.1] update_learner_deregister_apply_table Successfully Updated2019-10-23 01:24:39
[Wed 2019-10-23 01:24:39 PM] [client 192.168.49.1] delete_biomatric_registration_entry Sucscessfully Deleted2019-10-23 01:24:39
[Wed 2019-10-23 01:24:39 PM] [client 192.168.49.1] update_tbl_admission_table Successfully Updated2019-10-23 01:24:39
[Wed 2019-10-23 01:24:39 PM] [client 192.168.49.1] update_learner_deregister_apply_table Successfully Updated2019-10-23 01:24:39
[Wed 2019-10-23 01:24:39 PM] [client 192.168.49.1] delete_biomatric_registration_entry Sucscessfully Deleted2019-10-23 01:24:39
[Wed 2019-10-23 01:24:39 PM] [client 192.168.49.1] update_tbl_admission_table Successfully Updated2019-10-23 01:24:39
[Wed 2019-10-23 01:24:39 PM] [client 192.168.49.1] update_learner_deregister_apply_table Successfully Updated2019-10-23 01:24:39
[Wed 2019-10-23 01:24:39 PM] [client 192.168.49.1] delete_biomatric_registration_entry Sucscessfully Deleted2019-10-23 01:24:39
[Wed 2019-10-23 01:24:39 PM] [client 192.168.49.1] update_tbl_admission_table Successfully Updated2019-10-23 01:24:39
[Wed 2019-10-23 01:24:39 PM] [client 192.168.49.1] update_learner_deregister_apply_table Successfully Updated2019-10-23 01:24:39
[Wed 2019-10-23 01:24:40 PM] [client 192.168.49.1] delete_biomatric_registration_entry Sucscessfully Deleted2019-10-23 01:24:40
[Wed 2019-10-23 01:24:40 PM] [client 192.168.49.1] update_tbl_admission_table Successfully Updated2019-10-23 01:24:40
[Wed 2019-10-23 01:24:40 PM] [client 192.168.49.1] update_learner_deregister_apply_table Successfully Updated2019-10-23 01:24:40
[Wed 2019-10-23 01:24:40 PM] [client 192.168.49.1] delete_biomatric_registration_entry Sucscessfully Deleted2019-10-23 01:24:40
[Wed 2019-10-23 01:24:40 PM] [client 192.168.49.1] update_tbl_admission_table Successfully Updated2019-10-23 01:24:40
[Wed 2019-10-23 01:24:40 PM] [client 192.168.49.1] update_learner_deregister_apply_table Successfully Updated2019-10-23 01:24:40
[Wed 2019-10-23 01:24:40 PM] [client 192.168.49.1] delete_biomatric_registration_entry Sucscessfully Deleted2019-10-23 01:24:40
[Wed 2019-10-23 01:24:40 PM] [client 192.168.49.1] update_tbl_admission_table Successfully Updated2019-10-23 01:24:40
[Wed 2019-10-23 01:24:40 PM] [client 192.168.49.1] update_learner_deregister_apply_table Successfully Updated2019-10-23 01:24:40
[Wed 2019-10-23 01:24:40 PM] [client 192.168.49.1] delete_biomatric_registration_entry Sucscessfully Deleted2019-10-23 01:24:40
[Wed 2019-10-23 01:24:40 PM] [client 192.168.49.1] update_tbl_admission_table Successfully Updated2019-10-23 01:24:40
[Wed 2019-10-23 01:24:40 PM] [client 192.168.49.1] update_learner_deregister_apply_table Successfully Updated2019-10-23 01:24:40
[Wed 2019-10-23 02:00:23 PM] [client 192.168.49.1] update_learner_deregister_apply_table_reject Successfully Updated2019-10-23 02:00:23
[Wed 2019-10-23 02:00:23 PM] [client 192.168.49.1] update_learner_deregister_apply_table_reject Successfully Updated2019-10-23 02:00:23
[Wed 2019-10-23 02:00:23 PM] [client 192.168.49.1] update_learner_deregister_apply_table_reject Successfully Updated2019-10-23 02:00:23
[Wed 2019-10-23 02:00:23 PM] [client 192.168.49.1] update_learner_deregister_apply_table_reject Successfully Updated2019-10-23 02:00:23
[Wed 2019-10-23 08:35:02 AM] [client 192.168.49.1] delete_biomatric_registration_entry Sucscessfully Deleted2019-10-23 08:35:02
[Wed 2019-10-23 08:35:02 AM] [client 192.168.49.1] update_tbl_admission_table Successfully Updated2019-10-23 08:35:02
[Wed 2019-10-23 02:05:02 PM] [client 192.168.49.1] update_learner_deregister_apply_table Successfully Updated2019-10-23 02:05:02
[Wed 2019-10-23 09:07:42 AM] [client 192.168.49.1] delete_biomatric_registration_entry Sucscessfully Deleted2019-10-23 09:07:42
[Wed 2019-10-23 09:07:42 AM] [client 192.168.49.1] update_tbl_admission_table Successfully Updated2019-10-23 09:07:42
[Wed 2019-10-23 02:37:42 PM] [client 192.168.49.1] update_learner_deregister_apply_table Successfully Updated2019-10-23 02:37:42
[Wed 2019-10-23 02:37:42 PM] [client 192.168.49.1] delete_biomatric_registration_entry Sucscessfully Deleted2019-10-23 02:37:42
[Wed 2019-10-23 02:37:42 PM] [client 192.168.49.1] update_tbl_admission_table Successfully Updated2019-10-23 02:37:42
[Wed 2019-10-23 02:37:42 PM] [client 192.168.49.1] update_learner_deregister_apply_table Successfully Updated2019-10-23 02:37:42
[Wed 2019-10-23 09:50:30 AM] [client 192.168.49.1] delete_biomatric_registration_entry Sucscessfully Deleted2019-10-23 09:50:30
[Wed 2019-10-23 09:50:30 AM] [client 192.168.49.1] update_tbl_admission_table Successfully Updated2019-10-23 09:50:30
[Wed 2019-10-23 03:20:30 PM] [client 192.168.49.1] update_learner_deregister_apply_table Successfully Updated2019-10-23 03:20:30
[Wed 2019-10-23 03:20:30 PM] [client 192.168.49.1] delete_biomatric_registration_entry Sucscessfully Deleted2019-10-23 03:20:30
[Wed 2019-10-23 03:20:30 PM] [client 192.168.49.1] update_tbl_admission_table Successfully Updated2019-10-23 03:20:30
[Wed 2019-10-23 03:20:30 PM] [client 192.168.49.1] update_learner_deregister_apply_table Successfully Updated2019-10-23 03:20:30
[Wed 2019-10-23 03:20:31 PM] [client 192.168.49.1] delete_biomatric_registration_entry Sucscessfully Deleted2019-10-23 03:20:31
[Wed 2019-10-23 03:20:31 PM] [client 192.168.49.1] update_tbl_admission_table Successfully Updated2019-10-23 03:20:31
[Wed 2019-10-23 03:20:31 PM] [client 192.168.49.1] update_learner_deregister_apply_table Successfully Updated2019-10-23 03:20:31
[Wed 2019-10-23 03:20:31 PM] [client 192.168.49.1] delete_biomatric_registration_entry Sucscessfully Deleted2019-10-23 03:20:31
[Wed 2019-10-23 03:20:31 PM] [client 192.168.49.1] update_tbl_admission_table Successfully Updated2019-10-23 03:20:31
[Wed 2019-10-23 03:20:31 PM] [client 192.168.49.1] update_learner_deregister_apply_table Successfully Updated2019-10-23 03:20:31
[Wed 2019-10-23 03:20:31 PM] [client 192.168.49.1] delete_biomatric_registration_entry Sucscessfully Deleted2019-10-23 03:20:31
[Wed 2019-10-23 03:20:31 PM] [client 192.168.49.1] update_tbl_admission_table Successfully Updated2019-10-23 03:20:31
[Wed 2019-10-23 03:20:31 PM] [client 192.168.49.1] update_learner_deregister_apply_table Successfully Updated2019-10-23 03:20:31
[Wed 2019-10-23 03:20:31 PM] [client 192.168.49.1] delete_biomatric_registration_entry Sucscessfully Deleted2019-10-23 03:20:31
[Wed 2019-10-23 03:20:31 PM] [client 192.168.49.1] update_tbl_admission_table Successfully Updated2019-10-23 03:20:31
[Wed 2019-10-23 03:20:31 PM] [client 192.168.49.1] update_learner_deregister_apply_table Successfully Updated2019-10-23 03:20:31
[Wed 2019-10-23 03:20:31 PM] [client 192.168.49.1] delete_biomatric_registration_entry Sucscessfully Deleted2019-10-23 03:20:31
[Wed 2019-10-23 03:20:31 PM] [client 192.168.49.1] update_tbl_admission_table Successfully Updated2019-10-23 03:20:31
[Wed 2019-10-23 03:20:31 PM] [client 192.168.49.1] update_learner_deregister_apply_table Successfully Updated2019-10-23 03:20:31
[Wed 2019-10-23 03:20:31 PM] [client 192.168.49.1] delete_biomatric_registration_entry Sucscessfully Deleted2019-10-23 03:20:31
[Wed 2019-10-23 03:20:31 PM] [client 192.168.49.1] update_tbl_admission_table Successfully Updated2019-10-23 03:20:31
[Wed 2019-10-23 03:20:31 PM] [client 192.168.49.1] update_learner_deregister_apply_table Successfully Updated2019-10-23 03:20:31
[Wed 2019-10-23 03:20:31 PM] [client 192.168.49.1] delete_biomatric_registration_entry Sucscessfully Deleted2019-10-23 03:20:31
[Wed 2019-10-23 03:20:31 PM] [client 192.168.49.1] update_tbl_admission_table Successfully Updated2019-10-23 03:20:31
[Wed 2019-10-23 03:20:31 PM] [client 192.168.49.1] update_learner_deregister_apply_table Successfully Updated2019-10-23 03:20:31
[Wed 2019-10-23 03:20:31 PM] [client 192.168.49.1] delete_biomatric_registration_entry Sucscessfully Deleted2019-10-23 03:20:31
[Wed 2019-10-23 03:20:31 PM] [client 192.168.49.1] update_tbl_admission_table Successfully Updated2019-10-23 03:20:31
[Wed 2019-10-23 03:20:31 PM] [client 192.168.49.1] update_learner_deregister_apply_table Successfully Updated2019-10-23 03:20:31
[Wed 2019-10-23 03:20:31 PM] [client 192.168.49.1] delete_biomatric_registration_entry Sucscessfully Deleted2019-10-23 03:20:31
[Wed 2019-10-23 03:20:31 PM] [client 192.168.49.1] update_tbl_admission_table Successfully Updated2019-10-23 03:20:31
[Wed 2019-10-23 03:20:31 PM] [client 192.168.49.1] update_learner_deregister_apply_table Successfully Updated2019-10-23 03:20:31
[Wed 2019-10-23 03:20:38 PM] [client 192.168.49.1] update_learner_deregister_apply_table_reject Successfully Updated2019-10-23 03:20:38
[Wed 2019-10-23 03:20:38 PM] [client 192.168.49.1] update_learner_deregister_apply_table_reject Successfully Updated2019-10-23 03:20:38
[Wed 2019-10-23 03:20:38 PM] [client 192.168.49.1] update_learner_deregister_apply_table_reject Successfully Updated2019-10-23 03:20:38
[Wed 2019-10-23 03:20:38 PM] [client 192.168.49.1] update_learner_deregister_apply_table_reject Successfully Updated2019-10-23 03:20:38
[Wed 2019-10-23 10:28:19 AM] [client 192.168.49.1] delete_biomatric_registration_entry Sucscessfully Deleted2019-10-23 10:28:19
[Wed 2019-10-23 10:28:19 AM] [client 192.168.49.1] update_tbl_admission_table Successfully Updated2019-10-23 10:28:19
[Wed 2019-10-23 03:58:19 PM] [client 192.168.49.1] update_learner_deregister_apply_table Successfully Updated2019-10-23 03:58:19
[Wed 2019-10-23 03:58:19 PM] [client 192.168.49.1] delete_biomatric_registration_entry Sucscessfully Deleted2019-10-23 03:58:19
[Wed 2019-10-23 03:58:19 PM] [client 192.168.49.1] update_tbl_admission_table Successfully Updated2019-10-23 03:58:19
[Wed 2019-10-23 03:58:19 PM] [client 192.168.49.1] update_learner_deregister_apply_table Successfully Updated2019-10-23 03:58:19
[Wed 2019-10-23 03:58:19 PM] [client 192.168.49.1] delete_biomatric_registration_entry Sucscessfully Deleted2019-10-23 03:58:19
[Wed 2019-10-23 03:58:19 PM] [client 192.168.49.1] update_tbl_admission_table Successfully Updated2019-10-23 03:58:19
[Wed 2019-10-23 03:58:19 PM] [client 192.168.49.1] update_learner_deregister_apply_table Successfully Updated2019-10-23 03:58:19
[Wed 2019-10-23 03:58:27 PM] [client 192.168.49.1] update_learner_deregister_apply_table_reject Successfully Updated2019-10-23 03:58:27
[Wed 2019-10-23 04:14:58 PM] [client 192.168.49.1] update_learner_deregister_apply_table_reject Successfully Updated2019-10-23 04:14:58
[Wed 2019-10-23 04:14:58 PM] [client 192.168.49.1] update_learner_deregister_apply_table_reject Successfully Updated2019-10-23 04:14:58
[Wed 2019-10-23 04:14:58 PM] [client 192.168.49.1] update_learner_deregister_apply_table_reject Successfully Updated2019-10-23 04:14:58
[Wed 2019-10-23 10:54:33 AM] [client 192.168.49.1] delete_biomatric_registration_entry Sucscessfully Deleted2019-10-23 10:54:33
[Wed 2019-10-23 10:54:33 AM] [client 192.168.49.1] update_tbl_admission_table Successfully Updated2019-10-23 10:54:33
[Wed 2019-10-23 04:24:33 PM] [client 192.168.49.1] update_learner_deregister_apply_table Successfully Updated2019-10-23 04:24:33
[Wed 2019-10-23 04:24:33 PM] [client 192.168.49.1] delete_biomatric_registration_entry Sucscessfully Deleted2019-10-23 04:24:33
[Wed 2019-10-23 04:24:33 PM] [client 192.168.49.1] update_tbl_admission_table Successfully Updated2019-10-23 04:24:33
[Wed 2019-10-23 04:24:33 PM] [client 192.168.49.1] update_learner_deregister_apply_table Successfully Updated2019-10-23 04:24:33
[Wed 2019-10-23 04:24:33 PM] [client 192.168.49.1] delete_biomatric_registration_entry Sucscessfully Deleted2019-10-23 04:24:33
[Wed 2019-10-23 04:24:33 PM] [client 192.168.49.1] update_tbl_admission_table Successfully Updated2019-10-23 04:24:33
[Wed 2019-10-23 04:24:33 PM] [client 192.168.49.1] update_learner_deregister_apply_table Successfully Updated2019-10-23 04:24:33
[Wed 2019-10-23 04:24:40 PM] [client 192.168.49.1] update_learner_deregister_apply_table_reject Successfully Updated2019-10-23 04:24:40
[Wed 2019-10-23 04:36:10 PM] [client 192.168.49.1] update_learner_deregister_apply_table_reject Successfully Updated2019-10-23 04:36:10
[Wed 2019-10-23 04:36:10 PM] [client 192.168.49.1] update_learner_deregister_apply_table_reject Successfully Updated2019-10-23 04:36:10
[Wed 2019-10-23 04:36:10 PM] [client 192.168.49.1] update_learner_deregister_apply_table_reject Successfully Updated2019-10-23 04:36:10
[Wed 2019-10-23 04:36:10 PM] [client 192.168.49.1] update_learner_deregister_apply_table_reject Successfully Updated2019-10-23 04:36:10
[Wed 2019-10-23 11:06:19 AM] [client 192.168.49.1] delete_biomatric_registration_entry Sucscessfully Deleted2019-10-23 11:06:19
[Wed 2019-10-23 11:06:19 AM] [client 192.168.49.1] update_tbl_admission_table Successfully Updated2019-10-23 11:06:19
[Wed 2019-10-23 04:36:19 PM] [client 192.168.49.1] update_learner_deregister_apply_table Successfully Updated2019-10-23 04:36:19
[Wed 2019-10-23 04:36:19 PM] [client 192.168.49.1] delete_biomatric_registration_entry Sucscessfully Deleted2019-10-23 04:36:19
[Wed 2019-10-23 04:36:19 PM] [client 192.168.49.1] update_tbl_admission_table Successfully Updated2019-10-23 04:36:19
[Wed 2019-10-23 04:36:19 PM] [client 192.168.49.1] update_learner_deregister_apply_table Successfully Updated2019-10-23 04:36:19
[Wed 2019-10-23 04:45:59 PM] [client 192.168.49.1] update_learner_deregister_apply_table_reject Successfully Updated2019-10-23 04:45:59
[Wed 2019-10-23 11:34:45 AM] [client 192.168.49.1] delete_biomatric_registration_entry Sucscessfully Deleted2019-10-23 11:34:45
[Wed 2019-10-23 11:34:45 AM] [client 192.168.49.1] update_tbl_admission_table Successfully Updated2019-10-23 11:34:45
[Wed 2019-10-23 05:04:45 PM] [client 192.168.49.1] update_learner_deregister_apply_table Successfully Updated2019-10-23 05:04:45
[Wed 2019-10-23 05:04:45 PM] [client 192.168.49.1] delete_biomatric_registration_entry Sucscessfully Deleted2019-10-23 05:04:45
[Wed 2019-10-23 05:04:45 PM] [client 192.168.49.1] update_tbl_admission_table Successfully Updated2019-10-23 05:04:45
[Wed 2019-10-23 05:04:45 PM] [client 192.168.49.1] update_learner_deregister_apply_table Successfully Updated2019-10-23 05:04:45
[Wed 2019-10-23 05:04:45 PM] [client 192.168.49.1] delete_biomatric_registration_entry Sucscessfully Deleted2019-10-23 05:04:45
[Wed 2019-10-23 05:04:45 PM] [client 192.168.49.1] update_tbl_admission_table Successfully Updated2019-10-23 05:04:45
[Wed 2019-10-23 05:04:45 PM] [client 192.168.49.1] update_learner_deregister_apply_table Successfully Updated2019-10-23 05:04:45
[Wed 2019-10-23 05:04:45 PM] [client 192.168.49.1] delete_biomatric_registration_entry Sucscessfully Deleted2019-10-23 05:04:45
[Wed 2019-10-23 05:04:45 PM] [client 192.168.49.1] update_tbl_admission_table Successfully Updated2019-10-23 05:04:45
[Wed 2019-10-23 05:04:45 PM] [client 192.168.49.1] update_learner_deregister_apply_table Successfully Updated2019-10-23 05:04:45
[Wed 2019-10-23 05:04:45 PM] [client 192.168.49.1] delete_biomatric_registration_entry Sucscessfully Deleted2019-10-23 05:04:45
[Wed 2019-10-23 05:04:45 PM] [client 192.168.49.1] update_tbl_admission_table Successfully Updated2019-10-23 05:04:45
[Wed 2019-10-23 05:04:45 PM] [client 192.168.49.1] update_learner_deregister_apply_table Successfully Updated2019-10-23 05:04:45
[Wed 2019-10-23 05:04:45 PM] [client 192.168.49.1] delete_biomatric_registration_entry Sucscessfully Deleted2019-10-23 05:04:45
[Wed 2019-10-23 05:04:45 PM] [client 192.168.49.1] update_tbl_admission_table Successfully Updated2019-10-23 05:04:45
[Wed 2019-10-23 05:04:45 PM] [client 192.168.49.1] update_learner_deregister_apply_table Successfully Updated2019-10-23 05:04:45
[Wed 2019-10-23 05:04:45 PM] [client 192.168.49.1] delete_biomatric_registration_entry Sucscessfully Deleted2019-10-23 05:04:45
[Wed 2019-10-23 05:04:45 PM] [client 192.168.49.1] update_tbl_admission_table Successfully Updated2019-10-23 05:04:45
[Wed 2019-10-23 05:04:45 PM] [client 192.168.49.1] update_learner_deregister_apply_table Successfully Updated2019-10-23 05:04:45
[Wed 2019-10-23 11:45:02 AM] [client 192.168.49.1] delete_biomatric_registration_entry Sucscessfully Deleted2019-10-23 11:45:02
[Wed 2019-10-23 11:45:02 AM] [client 192.168.49.1] update_tbl_admission_table Successfully Updated2019-10-23 11:45:02
[Wed 2019-10-23 05:15:02 PM] [client 192.168.49.1] update_learner_deregister_apply_table Successfully Updated2019-10-23 05:15:02
[Wed 2019-10-23 11:55:01 AM] [client 192.168.49.1] delete_biomatric_registration_entry Sucscessfully Deleted2019-10-23 11:55:01
[Wed 2019-10-23 11:55:01 AM] [client 192.168.49.1] update_tbl_admission_table Successfully Updated2019-10-23 11:55:01
[Wed 2019-10-23 05:25:01 PM] [client 192.168.49.1] update_learner_deregister_apply_table Successfully Updated2019-10-23 05:25:01
[Wed 2019-10-23 05:25:01 PM] [client 192.168.49.1] delete_biomatric_registration_entry Sucscessfully Deleted2019-10-23 05:25:01
[Wed 2019-10-23 05:25:01 PM] [client 192.168.49.1] update_tbl_admission_table Successfully Updated2019-10-23 05:25:01
[Wed 2019-10-23 05:25:01 PM] [client 192.168.49.1] update_learner_deregister_apply_table Successfully Updated2019-10-23 05:25:01
[Wed 2019-10-23 05:25:01 PM] [client 192.168.49.1] delete_biomatric_registration_entry Sucscessfully Deleted2019-10-23 05:25:01
[Wed 2019-10-23 05:25:01 PM] [client 192.168.49.1] update_tbl_admission_table Successfully Updated2019-10-23 05:25:01
[Wed 2019-10-23 05:25:01 PM] [client 192.168.49.1] update_learner_deregister_apply_table Successfully Updated2019-10-23 05:25:01
[Wed 2019-10-23 05:25:01 PM] [client 192.168.49.1] delete_biomatric_registration_entry Sucscessfully Deleted2019-10-23 05:25:01
[Wed 2019-10-23 05:25:01 PM] [client 192.168.49.1] update_tbl_admission_table Successfully Updated2019-10-23 05:25:01
[Wed 2019-10-23 05:25:01 PM] [client 192.168.49.1] update_learner_deregister_apply_table Successfully Updated2019-10-23 05:25:01
[Wed 2019-10-23 05:25:02 PM] [client 192.168.49.1] delete_biomatric_registration_entry Sucscessfully Deleted2019-10-23 05:25:02
[Wed 2019-10-23 05:25:02 PM] [client 192.168.49.1] update_tbl_admission_table Successfully Updated2019-10-23 05:25:02
[Wed 2019-10-23 05:25:02 PM] [client 192.168.49.1] update_learner_deregister_apply_table Successfully Updated2019-10-23 05:25:02
[Wed 2019-10-23 05:25:09 PM] [client 192.168.49.1] update_learner_deregister_apply_table_reject Successfully Updated2019-10-23 05:25:09
[Wed 2019-10-23 05:25:09 PM] [client 192.168.49.1] update_learner_deregister_apply_table_reject Successfully Updated2019-10-23 05:25:09
[Wed 2019-10-23 11:56:39 AM] [client 192.168.49.1] delete_biomatric_registration_entry Sucscessfully Deleted2019-10-23 11:56:39
[Wed 2019-10-23 11:56:39 AM] [client 192.168.49.1] update_tbl_admission_table Successfully Updated2019-10-23 11:56:39
[Wed 2019-10-23 05:26:39 PM] [client 192.168.49.1] update_learner_deregister_apply_table Successfully Updated2019-10-23 05:26:39
[Wed 2019-10-23 05:39:41 PM] [client 192.168.49.1] update_learner_deregister_apply_table_reject Successfully Updated2019-10-23 05:39:41
[Wed 2019-10-23 05:39:41 PM] [client 192.168.49.1] update_learner_deregister_apply_table_reject Successfully Updated2019-10-23 05:39:41
[Wed 2019-10-23 06:00:56 PM] [client 192.168.49.1] update_learner_deregister_apply_table_reject Successfully Updated2019-10-23 06:00:56
[Wed 2019-10-23 06:00:56 PM] [client 192.168.49.1] update_learner_deregister_apply_table_reject Successfully Updated2019-10-23 06:00:56
[Wed 2019-10-23 01:10:46 PM] [client 192.168.49.1] delete_biomatric_registration_entry Sucscessfully Deleted2019-10-23 01:10:46
[Wed 2019-10-23 01:10:46 PM] [client 192.168.49.1] update_tbl_admission_table Successfully Updated2019-10-23 01:10:46
[Wed 2019-10-23 06:40:46 PM] [client 192.168.49.1] update_learner_deregister_apply_table Successfully Updated2019-10-23 06:40:46
[Wed 2019-10-23 06:40:46 PM] [client 192.168.49.1] delete_biomatric_registration_entry Sucscessfully Deleted2019-10-23 06:40:46
[Wed 2019-10-23 06:40:46 PM] [client 192.168.49.1] update_tbl_admission_table Successfully Updated2019-10-23 06:40:46
[Wed 2019-10-23 06:40:46 PM] [client 192.168.49.1] update_learner_deregister_apply_table Successfully Updated2019-10-23 06:40:46
[Wed 2019-10-23 06:40:47 PM] [client 192.168.49.1] delete_biomatric_registration_entry Sucscessfully Deleted2019-10-23 06:40:47
[Wed 2019-10-23 06:40:47 PM] [client 192.168.49.1] update_tbl_admission_table Successfully Updated2019-10-23 06:40:47
[Wed 2019-10-23 06:40:47 PM] [client 192.168.49.1] update_learner_deregister_apply_table Successfully Updated2019-10-23 06:40:47
[Wed 2019-10-23 06:40:47 PM] [client 192.168.49.1] delete_biomatric_registration_entry Sucscessfully Deleted2019-10-23 06:40:47
[Wed 2019-10-23 06:40:47 PM] [client 192.168.49.1] update_tbl_admission_table Successfully Updated2019-10-23 06:40:47
[Wed 2019-10-23 06:40:47 PM] [client 192.168.49.1] update_learner_deregister_apply_table Successfully Updated2019-10-23 06:40:47
[Wed 2019-10-23 06:40:47 PM] [client 192.168.49.1] delete_biomatric_registration_entry Sucscessfully Deleted2019-10-23 06:40:47
[Wed 2019-10-23 06:40:47 PM] [client 192.168.49.1] update_tbl_admission_table Successfully Updated2019-10-23 06:40:47
[Wed 2019-10-23 06:40:47 PM] [client 192.168.49.1] update_learner_deregister_apply_table Successfully Updated2019-10-23 06:40:47
[Wed 2019-10-23 06:40:47 PM] [client 192.168.49.1] delete_biomatric_registration_entry Sucscessfully Deleted2019-10-23 06:40:47
[Wed 2019-10-23 06:40:47 PM] [client 192.168.49.1] update_tbl_admission_table Successfully Updated2019-10-23 06:40:47
[Wed 2019-10-23 06:40:47 PM] [client 192.168.49.1] update_learner_deregister_apply_table Successfully Updated2019-10-23 06:40:47
[Wed 2019-10-23 06:40:47 PM] [client 192.168.49.1] delete_biomatric_registration_entry Sucscessfully Deleted2019-10-23 06:40:47
[Wed 2019-10-23 06:40:47 PM] [client 192.168.49.1] update_tbl_admission_table Successfully Updated2019-10-23 06:40:47
[Wed 2019-10-23 06:40:47 PM] [client 192.168.49.1] update_learner_deregister_apply_table Successfully Updated2019-10-23 06:40:47
