[Mon 2020-01-13 04:05:12 AM] [client 192.168.49.1] delete_biomatric_registration_entry Sucscessfully Deleted2020-01-13 04:05:12
[Mon 2020-01-13 04:05:12 AM] [client 192.168.49.1] update_tbl_admission_table Successfully Updated2020-01-13 04:05:12
[Mon 2020-01-13 09:35:12 AM] [client 192.168.49.1] update_learner_deregister_apply_table Successfully Updated2020-01-13 09:35:12
[Mon 2020-01-13 09:35:12 AM] [client 192.168.49.1] delete_biomatric_registration_entry Sucscessfully Deleted2020-01-13 09:35:12
[Mon 2020-01-13 09:35:12 AM] [client 192.168.49.1] update_tbl_admission_table Successfully Updated2020-01-13 09:35:12
[Mon 2020-01-13 09:35:12 AM] [client 192.168.49.1] update_learner_deregister_apply_table Successfully Updated2020-01-13 09:35:12
[Mon 2020-01-13 09:35:12 AM] [client 192.168.49.1] delete_biomatric_registration_entry Sucscessfully Deleted2020-01-13 09:35:12
[Mon 2020-01-13 09:35:12 AM] [client 192.168.49.1] update_tbl_admission_table Successfully Updated2020-01-13 09:35:12
[Mon 2020-01-13 09:35:12 AM] [client 192.168.49.1] update_learner_deregister_apply_table Successfully Updated2020-01-13 09:35:12
[Mon 2020-01-13 09:35:12 AM] [client 192.168.49.1] delete_biomatric_registration_entry Sucscessfully Deleted2020-01-13 09:35:12
[Mon 2020-01-13 09:35:12 AM] [client 192.168.49.1] update_tbl_admission_table Successfully Updated2020-01-13 09:35:12
[Mon 2020-01-13 09:35:12 AM] [client 192.168.49.1] update_learner_deregister_apply_table Successfully Updated2020-01-13 09:35:12
[Mon 2020-01-13 09:35:12 AM] [client 192.168.49.1] delete_biomatric_registration_entry Sucscessfully Deleted2020-01-13 09:35:12
[Mon 2020-01-13 09:35:12 AM] [client 192.168.49.1] update_tbl_admission_table Successfully Updated2020-01-13 09:35:12
[Mon 2020-01-13 09:35:12 AM] [client 192.168.49.1] update_learner_deregister_apply_table Successfully Updated2020-01-13 09:35:12
[Mon 2020-01-13 09:35:12 AM] [client 192.168.49.1] delete_biomatric_registration_entry Sucscessfully Deleted2020-01-13 09:35:12
[Mon 2020-01-13 09:35:12 AM] [client 192.168.49.1] update_tbl_admission_table Successfully Updated2020-01-13 09:35:12
[Mon 2020-01-13 09:35:12 AM] [client 192.168.49.1] update_learner_deregister_apply_table Successfully Updated2020-01-13 09:35:12
[Mon 2020-01-13 09:35:13 AM] [client 192.168.49.1] delete_biomatric_registration_entry Sucscessfully Deleted2020-01-13 09:35:13
[Mon 2020-01-13 09:35:13 AM] [client 192.168.49.1] update_tbl_admission_table Successfully Updated2020-01-13 09:35:13
[Mon 2020-01-13 09:35:13 AM] [client 192.168.49.1] update_learner_deregister_apply_table Successfully Updated2020-01-13 09:35:13
[Mon 2020-01-13 09:35:13 AM] [client 192.168.49.1] delete_biomatric_registration_entry Sucscessfully Deleted2020-01-13 09:35:13
[Mon 2020-01-13 09:35:13 AM] [client 192.168.49.1] update_tbl_admission_table Successfully Updated2020-01-13 09:35:13
[Mon 2020-01-13 09:35:13 AM] [client 192.168.49.1] update_learner_deregister_apply_table Successfully Updated2020-01-13 09:35:13
[Mon 2020-01-13 09:35:13 AM] [client 192.168.49.1] delete_biomatric_registration_entry Sucscessfully Deleted2020-01-13 09:35:13
[Mon 2020-01-13 09:35:13 AM] [client 192.168.49.1] update_tbl_admission_table Successfully Updated2020-01-13 09:35:13
[Mon 2020-01-13 09:35:13 AM] [client 192.168.49.1] update_learner_deregister_apply_table Successfully Updated2020-01-13 09:35:13
[Mon 2020-01-13 09:35:13 AM] [client 192.168.49.1] delete_biomatric_registration_entry Sucscessfully Deleted2020-01-13 09:35:13
[Mon 2020-01-13 09:35:13 AM] [client 192.168.49.1] update_tbl_admission_table Successfully Updated2020-01-13 09:35:13
[Mon 2020-01-13 09:35:13 AM] [client 192.168.49.1] update_learner_deregister_apply_table Successfully Updated2020-01-13 09:35:13
[Mon 2020-01-13 09:35:13 AM] [client 192.168.49.1] delete_biomatric_registration_entry Sucscessfully Deleted2020-01-13 09:35:13
[Mon 2020-01-13 09:35:13 AM] [client 192.168.49.1] update_tbl_admission_table Successfully Updated2020-01-13 09:35:13
[Mon 2020-01-13 09:35:13 AM] [client 192.168.49.1] update_learner_deregister_apply_table Successfully Updated2020-01-13 09:35:13
[Mon 2020-01-13 09:35:13 AM] [client 192.168.49.1] delete_biomatric_registration_entry Sucscessfully Deleted2020-01-13 09:35:13
[Mon 2020-01-13 09:35:13 AM] [client 192.168.49.1] update_tbl_admission_table Successfully Updated2020-01-13 09:35:13
[Mon 2020-01-13 09:35:13 AM] [client 192.168.49.1] update_learner_deregister_apply_table Successfully Updated2020-01-13 09:35:13
[Mon 2020-01-13 09:35:13 AM] [client 192.168.49.1] delete_biomatric_registration_entry Sucscessfully Deleted2020-01-13 09:35:13
[Mon 2020-01-13 09:35:13 AM] [client 192.168.49.1] update_tbl_admission_table Successfully Updated2020-01-13 09:35:13
[Mon 2020-01-13 09:35:13 AM] [client 192.168.49.1] update_learner_deregister_apply_table Successfully Updated2020-01-13 09:35:13
[Mon 2020-01-13 09:35:13 AM] [client 192.168.49.1] delete_biomatric_registration_entry Sucscessfully Deleted2020-01-13 09:35:13
[Mon 2020-01-13 09:35:13 AM] [client 192.168.49.1] update_tbl_admission_table Successfully Updated2020-01-13 09:35:13
[Mon 2020-01-13 09:35:13 AM] [client 192.168.49.1] update_learner_deregister_apply_table Successfully Updated2020-01-13 09:35:13
[Mon 2020-01-13 09:35:13 AM] [client 192.168.49.1] delete_biomatric_registration_entry Sucscessfully Deleted2020-01-13 09:35:13
[Mon 2020-01-13 09:35:13 AM] [client 192.168.49.1] update_tbl_admission_table Successfully Updated2020-01-13 09:35:13
[Mon 2020-01-13 09:35:13 AM] [client 192.168.49.1] update_learner_deregister_apply_table Successfully Updated2020-01-13 09:35:13
[Mon 2020-01-13 09:35:13 AM] [client 192.168.49.1] delete_biomatric_registration_entry Sucscessfully Deleted2020-01-13 09:35:13
[Mon 2020-01-13 09:35:13 AM] [client 192.168.49.1] update_tbl_admission_table Successfully Updated2020-01-13 09:35:13
[Mon 2020-01-13 09:35:13 AM] [client 192.168.49.1] update_learner_deregister_apply_table Successfully Updated2020-01-13 09:35:13
[Mon 2020-01-13 09:35:13 AM] [client 192.168.49.1] delete_biomatric_registration_entry Sucscessfully Deleted2020-01-13 09:35:13
[Mon 2020-01-13 09:35:13 AM] [client 192.168.49.1] update_tbl_admission_table Successfully Updated2020-01-13 09:35:13
[Mon 2020-01-13 09:35:13 AM] [client 192.168.49.1] update_learner_deregister_apply_table Successfully Updated2020-01-13 09:35:13
[Mon 2020-01-13 09:35:13 AM] [client 192.168.49.1] delete_biomatric_registration_entry Sucscessfully Deleted2020-01-13 09:35:13
[Mon 2020-01-13 09:35:13 AM] [client 192.168.49.1] update_tbl_admission_table Successfully Updated2020-01-13 09:35:13
[Mon 2020-01-13 09:35:13 AM] [client 192.168.49.1] update_learner_deregister_apply_table Successfully Updated2020-01-13 09:35:13
[Mon 2020-01-13 09:35:14 AM] [client 192.168.49.1] delete_biomatric_registration_entry Sucscessfully Deleted2020-01-13 09:35:14
[Mon 2020-01-13 09:35:14 AM] [client 192.168.49.1] update_tbl_admission_table Successfully Updated2020-01-13 09:35:14
[Mon 2020-01-13 09:35:14 AM] [client 192.168.49.1] update_learner_deregister_apply_table Successfully Updated2020-01-13 09:35:14
[Mon 2020-01-13 09:35:14 AM] [client 192.168.49.1] delete_biomatric_registration_entry Sucscessfully Deleted2020-01-13 09:35:14
[Mon 2020-01-13 09:35:14 AM] [client 192.168.49.1] update_tbl_admission_table Successfully Updated2020-01-13 09:35:14
[Mon 2020-01-13 09:35:14 AM] [client 192.168.49.1] update_learner_deregister_apply_table Successfully Updated2020-01-13 09:35:14
[Mon 2020-01-13 09:35:14 AM] [client 192.168.49.1] delete_biomatric_registration_entry Sucscessfully Deleted2020-01-13 09:35:14
[Mon 2020-01-13 09:35:14 AM] [client 192.168.49.1] update_tbl_admission_table Successfully Updated2020-01-13 09:35:14
[Mon 2020-01-13 09:35:14 AM] [client 192.168.49.1] update_learner_deregister_apply_table Successfully Updated2020-01-13 09:35:14
[Mon 2020-01-13 09:35:14 AM] [client 192.168.49.1] delete_biomatric_registration_entry Sucscessfully Deleted2020-01-13 09:35:14
[Mon 2020-01-13 09:35:14 AM] [client 192.168.49.1] update_tbl_admission_table Successfully Updated2020-01-13 09:35:14
[Mon 2020-01-13 09:35:14 AM] [client 192.168.49.1] update_learner_deregister_apply_table Successfully Updated2020-01-13 09:35:14
[Mon 2020-01-13 09:35:14 AM] [client 192.168.49.1] delete_biomatric_registration_entry Sucscessfully Deleted2020-01-13 09:35:14
[Mon 2020-01-13 09:35:14 AM] [client 192.168.49.1] update_tbl_admission_table Successfully Updated2020-01-13 09:35:14
[Mon 2020-01-13 09:35:14 AM] [client 192.168.49.1] update_learner_deregister_apply_table Successfully Updated2020-01-13 09:35:14
[Mon 2020-01-13 09:35:14 AM] [client 192.168.49.1] delete_biomatric_registration_entry Sucscessfully Deleted2020-01-13 09:35:14
[Mon 2020-01-13 09:35:14 AM] [client 192.168.49.1] update_tbl_admission_table Successfully Updated2020-01-13 09:35:14
[Mon 2020-01-13 09:35:14 AM] [client 192.168.49.1] update_learner_deregister_apply_table Successfully Updated2020-01-13 09:35:14
[Mon 2020-01-13 09:35:14 AM] [client 192.168.49.1] delete_biomatric_registration_entry Sucscessfully Deleted2020-01-13 09:35:14
[Mon 2020-01-13 09:35:14 AM] [client 192.168.49.1] update_tbl_admission_table Successfully Updated2020-01-13 09:35:14
[Mon 2020-01-13 09:35:14 AM] [client 192.168.49.1] update_learner_deregister_apply_table Successfully Updated2020-01-13 09:35:14
[Mon 2020-01-13 09:35:14 AM] [client 192.168.49.1] delete_biomatric_registration_entry Sucscessfully Deleted2020-01-13 09:35:14
[Mon 2020-01-13 09:35:14 AM] [client 192.168.49.1] update_tbl_admission_table Successfully Updated2020-01-13 09:35:14
[Mon 2020-01-13 09:35:14 AM] [client 192.168.49.1] update_learner_deregister_apply_table Successfully Updated2020-01-13 09:35:14
[Mon 2020-01-13 09:35:14 AM] [client 192.168.49.1] delete_biomatric_registration_entry Sucscessfully Deleted2020-01-13 09:35:14
[Mon 2020-01-13 09:35:14 AM] [client 192.168.49.1] update_tbl_admission_table Successfully Updated2020-01-13 09:35:14
[Mon 2020-01-13 09:35:14 AM] [client 192.168.49.1] update_learner_deregister_apply_table Successfully Updated2020-01-13 09:35:14
[Mon 2020-01-13 09:35:14 AM] [client 192.168.49.1] delete_biomatric_registration_entry Sucscessfully Deleted2020-01-13 09:35:14
[Mon 2020-01-13 09:35:14 AM] [client 192.168.49.1] update_tbl_admission_table Successfully Updated2020-01-13 09:35:14
[Mon 2020-01-13 09:35:14 AM] [client 192.168.49.1] update_learner_deregister_apply_table Successfully Updated2020-01-13 09:35:14
[Mon 2020-01-13 09:35:14 AM] [client 192.168.49.1] delete_biomatric_registration_entry Sucscessfully Deleted2020-01-13 09:35:14
[Mon 2020-01-13 09:35:14 AM] [client 192.168.49.1] update_tbl_admission_table Successfully Updated2020-01-13 09:35:14
[Mon 2020-01-13 09:35:14 AM] [client 192.168.49.1] update_learner_deregister_apply_table Successfully Updated2020-01-13 09:35:14
[Mon 2020-01-13 09:35:15 AM] [client 192.168.49.1] delete_biomatric_registration_entry Sucscessfully Deleted2020-01-13 09:35:15
[Mon 2020-01-13 09:35:15 AM] [client 192.168.49.1] update_tbl_admission_table Successfully Updated2020-01-13 09:35:15
[Mon 2020-01-13 09:35:15 AM] [client 192.168.49.1] update_learner_deregister_apply_table Successfully Updated2020-01-13 09:35:15
[Mon 2020-01-13 09:35:15 AM] [client 192.168.49.1] delete_biomatric_registration_entry Sucscessfully Deleted2020-01-13 09:35:15
[Mon 2020-01-13 09:35:15 AM] [client 192.168.49.1] update_tbl_admission_table Successfully Updated2020-01-13 09:35:15
[Mon 2020-01-13 09:35:15 AM] [client 192.168.49.1] update_learner_deregister_apply_table Successfully Updated2020-01-13 09:35:15
[Mon 2020-01-13 09:35:15 AM] [client 192.168.49.1] delete_biomatric_registration_entry Sucscessfully Deleted2020-01-13 09:35:15
[Mon 2020-01-13 09:35:15 AM] [client 192.168.49.1] update_tbl_admission_table Successfully Updated2020-01-13 09:35:15
[Mon 2020-01-13 09:35:15 AM] [client 192.168.49.1] update_learner_deregister_apply_table Successfully Updated2020-01-13 09:35:15
[Mon 2020-01-13 09:35:15 AM] [client 192.168.49.1] delete_biomatric_registration_entry Sucscessfully Deleted2020-01-13 09:35:15
[Mon 2020-01-13 09:35:15 AM] [client 192.168.49.1] update_tbl_admission_table Successfully Updated2020-01-13 09:35:15
[Mon 2020-01-13 09:35:15 AM] [client 192.168.49.1] update_learner_deregister_apply_table Successfully Updated2020-01-13 09:35:15
[Mon 2020-01-13 09:35:15 AM] [client 192.168.49.1] delete_biomatric_registration_entry Sucscessfully Deleted2020-01-13 09:35:15
[Mon 2020-01-13 09:35:15 AM] [client 192.168.49.1] update_tbl_admission_table Successfully Updated2020-01-13 09:35:15
[Mon 2020-01-13 09:35:15 AM] [client 192.168.49.1] update_learner_deregister_apply_table Successfully Updated2020-01-13 09:35:15
[Mon 2020-01-13 09:35:15 AM] [client 192.168.49.1] delete_biomatric_registration_entry Sucscessfully Deleted2020-01-13 09:35:15
[Mon 2020-01-13 09:35:15 AM] [client 192.168.49.1] update_tbl_admission_table Successfully Updated2020-01-13 09:35:15
[Mon 2020-01-13 09:35:15 AM] [client 192.168.49.1] update_learner_deregister_apply_table Successfully Updated2020-01-13 09:35:15
[Mon 2020-01-13 09:35:15 AM] [client 192.168.49.1] delete_biomatric_registration_entry Sucscessfully Deleted2020-01-13 09:35:15
[Mon 2020-01-13 09:35:15 AM] [client 192.168.49.1] update_tbl_admission_table Successfully Updated2020-01-13 09:35:15
[Mon 2020-01-13 09:35:15 AM] [client 192.168.49.1] update_learner_deregister_apply_table Successfully Updated2020-01-13 09:35:15
[Mon 2020-01-13 09:35:15 AM] [client 192.168.49.1] delete_biomatric_registration_entry Sucscessfully Deleted2020-01-13 09:35:15
[Mon 2020-01-13 09:35:15 AM] [client 192.168.49.1] update_tbl_admission_table Successfully Updated2020-01-13 09:35:15
[Mon 2020-01-13 09:35:15 AM] [client 192.168.49.1] update_learner_deregister_apply_table Successfully Updated2020-01-13 09:35:15
[Mon 2020-01-13 09:35:15 AM] [client 192.168.49.1] delete_biomatric_registration_entry Sucscessfully Deleted2020-01-13 09:35:15
[Mon 2020-01-13 09:35:15 AM] [client 192.168.49.1] update_tbl_admission_table Successfully Updated2020-01-13 09:35:15
[Mon 2020-01-13 09:35:15 AM] [client 192.168.49.1] update_learner_deregister_apply_table Successfully Updated2020-01-13 09:35:15
[Mon 2020-01-13 09:35:15 AM] [client 192.168.49.1] delete_biomatric_registration_entry Sucscessfully Deleted2020-01-13 09:35:15
[Mon 2020-01-13 09:35:15 AM] [client 192.168.49.1] update_tbl_admission_table Successfully Updated2020-01-13 09:35:15
[Mon 2020-01-13 09:35:15 AM] [client 192.168.49.1] update_learner_deregister_apply_table Successfully Updated2020-01-13 09:35:15
[Mon 2020-01-13 09:35:15 AM] [client 192.168.49.1] delete_biomatric_registration_entry Sucscessfully Deleted2020-01-13 09:35:15
[Mon 2020-01-13 09:35:15 AM] [client 192.168.49.1] update_tbl_admission_table Successfully Updated2020-01-13 09:35:15
[Mon 2020-01-13 09:35:15 AM] [client 192.168.49.1] update_learner_deregister_apply_table Successfully Updated2020-01-13 09:35:15
[Mon 2020-01-13 04:06:27 AM] [client 192.168.49.1] delete_biomatric_registration_entry Sucscessfully Deleted2020-01-13 04:06:27
[Mon 2020-01-13 04:06:27 AM] [client 192.168.49.1] update_tbl_admission_table Successfully Updated2020-01-13 04:06:27
[Mon 2020-01-13 09:36:27 AM] [client 192.168.49.1] update_learner_deregister_apply_table Successfully Updated2020-01-13 09:36:27
[Mon 2020-01-13 09:36:27 AM] [client 192.168.49.1] delete_biomatric_registration_entry Sucscessfully Deleted2020-01-13 09:36:27
[Mon 2020-01-13 09:36:27 AM] [client 192.168.49.1] update_tbl_admission_table Successfully Updated2020-01-13 09:36:27
[Mon 2020-01-13 09:36:27 AM] [client 192.168.49.1] update_learner_deregister_apply_table Successfully Updated2020-01-13 09:36:27
[Mon 2020-01-13 09:36:27 AM] [client 192.168.49.1] delete_biomatric_registration_entry Sucscessfully Deleted2020-01-13 09:36:27
[Mon 2020-01-13 09:36:27 AM] [client 192.168.49.1] update_tbl_admission_table Successfully Updated2020-01-13 09:36:27
[Mon 2020-01-13 09:36:28 AM] [client 192.168.49.1] update_learner_deregister_apply_table Successfully Updated2020-01-13 09:36:28
[Mon 2020-01-13 09:36:28 AM] [client 192.168.49.1] delete_biomatric_registration_entry Sucscessfully Deleted2020-01-13 09:36:28
[Mon 2020-01-13 09:36:28 AM] [client 192.168.49.1] update_tbl_admission_table Successfully Updated2020-01-13 09:36:28
[Mon 2020-01-13 09:36:28 AM] [client 192.168.49.1] update_learner_deregister_apply_table Successfully Updated2020-01-13 09:36:28
[Mon 2020-01-13 09:36:28 AM] [client 192.168.49.1] delete_biomatric_registration_entry Sucscessfully Deleted2020-01-13 09:36:28
[Mon 2020-01-13 09:36:28 AM] [client 192.168.49.1] update_tbl_admission_table Successfully Updated2020-01-13 09:36:28
[Mon 2020-01-13 09:36:28 AM] [client 192.168.49.1] update_learner_deregister_apply_table Successfully Updated2020-01-13 09:36:28
[Mon 2020-01-13 09:36:28 AM] [client 192.168.49.1] delete_biomatric_registration_entry Sucscessfully Deleted2020-01-13 09:36:28
[Mon 2020-01-13 09:36:28 AM] [client 192.168.49.1] update_tbl_admission_table Successfully Updated2020-01-13 09:36:28
[Mon 2020-01-13 09:36:28 AM] [client 192.168.49.1] update_learner_deregister_apply_table Successfully Updated2020-01-13 09:36:28
[Mon 2020-01-13 09:36:28 AM] [client 192.168.49.1] delete_biomatric_registration_entry Sucscessfully Deleted2020-01-13 09:36:28
[Mon 2020-01-13 09:36:28 AM] [client 192.168.49.1] update_tbl_admission_table Successfully Updated2020-01-13 09:36:28
[Mon 2020-01-13 09:36:28 AM] [client 192.168.49.1] update_learner_deregister_apply_table Successfully Updated2020-01-13 09:36:28
[Mon 2020-01-13 09:36:28 AM] [client 192.168.49.1] delete_biomatric_registration_entry Sucscessfully Deleted2020-01-13 09:36:28
[Mon 2020-01-13 09:36:28 AM] [client 192.168.49.1] update_tbl_admission_table Successfully Updated2020-01-13 09:36:28
[Mon 2020-01-13 09:36:28 AM] [client 192.168.49.1] update_learner_deregister_apply_table Successfully Updated2020-01-13 09:36:28
[Mon 2020-01-13 09:36:28 AM] [client 192.168.49.1] delete_biomatric_registration_entry Sucscessfully Deleted2020-01-13 09:36:28
[Mon 2020-01-13 09:36:28 AM] [client 192.168.49.1] update_tbl_admission_table Successfully Updated2020-01-13 09:36:28
[Mon 2020-01-13 09:36:28 AM] [client 192.168.49.1] update_learner_deregister_apply_table Successfully Updated2020-01-13 09:36:28
[Mon 2020-01-13 09:36:28 AM] [client 192.168.49.1] delete_biomatric_registration_entry Sucscessfully Deleted2020-01-13 09:36:28
[Mon 2020-01-13 09:36:28 AM] [client 192.168.49.1] update_tbl_admission_table Successfully Updated2020-01-13 09:36:28
[Mon 2020-01-13 09:36:28 AM] [client 192.168.49.1] update_learner_deregister_apply_table Successfully Updated2020-01-13 09:36:28
[Mon 2020-01-13 09:36:28 AM] [client 192.168.49.1] delete_biomatric_registration_entry Sucscessfully Deleted2020-01-13 09:36:28
[Mon 2020-01-13 09:36:28 AM] [client 192.168.49.1] update_tbl_admission_table Successfully Updated2020-01-13 09:36:28
[Mon 2020-01-13 09:36:28 AM] [client 192.168.49.1] update_learner_deregister_apply_table Successfully Updated2020-01-13 09:36:28
[Mon 2020-01-13 09:36:28 AM] [client 192.168.49.1] delete_biomatric_registration_entry Sucscessfully Deleted2020-01-13 09:36:28
[Mon 2020-01-13 09:36:28 AM] [client 192.168.49.1] update_tbl_admission_table Successfully Updated2020-01-13 09:36:28
[Mon 2020-01-13 09:36:28 AM] [client 192.168.49.1] update_learner_deregister_apply_table Successfully Updated2020-01-13 09:36:28
[Mon 2020-01-13 09:36:28 AM] [client 192.168.49.1] delete_biomatric_registration_entry Sucscessfully Deleted2020-01-13 09:36:28
[Mon 2020-01-13 09:36:28 AM] [client 192.168.49.1] update_tbl_admission_table Successfully Updated2020-01-13 09:36:28
[Mon 2020-01-13 09:36:28 AM] [client 192.168.49.1] update_learner_deregister_apply_table Successfully Updated2020-01-13 09:36:28
[Mon 2020-01-13 09:36:28 AM] [client 192.168.49.1] delete_biomatric_registration_entry Sucscessfully Deleted2020-01-13 09:36:28
[Mon 2020-01-13 09:36:28 AM] [client 192.168.49.1] update_tbl_admission_table Successfully Updated2020-01-13 09:36:28
[Mon 2020-01-13 09:36:28 AM] [client 192.168.49.1] update_learner_deregister_apply_table Successfully Updated2020-01-13 09:36:28
[Mon 2020-01-13 09:36:29 AM] [client 192.168.49.1] delete_biomatric_registration_entry Sucscessfully Deleted2020-01-13 09:36:29
[Mon 2020-01-13 09:36:29 AM] [client 192.168.49.1] update_tbl_admission_table Successfully Updated2020-01-13 09:36:29
[Mon 2020-01-13 09:36:29 AM] [client 192.168.49.1] update_learner_deregister_apply_table Successfully Updated2020-01-13 09:36:29
[Mon 2020-01-13 09:36:29 AM] [client 192.168.49.1] delete_biomatric_registration_entry Sucscessfully Deleted2020-01-13 09:36:29
[Mon 2020-01-13 09:36:29 AM] [client 192.168.49.1] update_tbl_admission_table Successfully Updated2020-01-13 09:36:29
[Mon 2020-01-13 09:36:29 AM] [client 192.168.49.1] update_learner_deregister_apply_table Successfully Updated2020-01-13 09:36:29
[Mon 2020-01-13 09:36:29 AM] [client 192.168.49.1] delete_biomatric_registration_entry Sucscessfully Deleted2020-01-13 09:36:29
[Mon 2020-01-13 09:36:29 AM] [client 192.168.49.1] update_tbl_admission_table Successfully Updated2020-01-13 09:36:29
[Mon 2020-01-13 09:36:29 AM] [client 192.168.49.1] update_learner_deregister_apply_table Successfully Updated2020-01-13 09:36:29
[Mon 2020-01-13 09:36:29 AM] [client 192.168.49.1] delete_biomatric_registration_entry Sucscessfully Deleted2020-01-13 09:36:29
[Mon 2020-01-13 09:36:29 AM] [client 192.168.49.1] update_tbl_admission_table Successfully Updated2020-01-13 09:36:29
[Mon 2020-01-13 09:36:29 AM] [client 192.168.49.1] update_learner_deregister_apply_table Successfully Updated2020-01-13 09:36:29
[Mon 2020-01-13 09:36:29 AM] [client 192.168.49.1] delete_biomatric_registration_entry Sucscessfully Deleted2020-01-13 09:36:29
[Mon 2020-01-13 09:36:29 AM] [client 192.168.49.1] update_tbl_admission_table Successfully Updated2020-01-13 09:36:29
[Mon 2020-01-13 09:36:29 AM] [client 192.168.49.1] update_learner_deregister_apply_table Successfully Updated2020-01-13 09:36:29
[Mon 2020-01-13 09:36:29 AM] [client 192.168.49.1] delete_biomatric_registration_entry Sucscessfully Deleted2020-01-13 09:36:29
[Mon 2020-01-13 09:36:29 AM] [client 192.168.49.1] update_tbl_admission_table Successfully Updated2020-01-13 09:36:29
[Mon 2020-01-13 09:36:29 AM] [client 192.168.49.1] update_learner_deregister_apply_table Successfully Updated2020-01-13 09:36:29
[Mon 2020-01-13 09:36:29 AM] [client 192.168.49.1] delete_biomatric_registration_entry Sucscessfully Deleted2020-01-13 09:36:29
[Mon 2020-01-13 09:36:29 AM] [client 192.168.49.1] update_tbl_admission_table Successfully Updated2020-01-13 09:36:29
[Mon 2020-01-13 09:36:29 AM] [client 192.168.49.1] update_learner_deregister_apply_table Successfully Updated2020-01-13 09:36:29
[Mon 2020-01-13 09:36:29 AM] [client 192.168.49.1] delete_biomatric_registration_entry Sucscessfully Deleted2020-01-13 09:36:29
[Mon 2020-01-13 09:36:29 AM] [client 192.168.49.1] update_tbl_admission_table Successfully Updated2020-01-13 09:36:29
[Mon 2020-01-13 09:36:29 AM] [client 192.168.49.1] update_learner_deregister_apply_table Successfully Updated2020-01-13 09:36:29
[Mon 2020-01-13 09:36:29 AM] [client 192.168.49.1] delete_biomatric_registration_entry Sucscessfully Deleted2020-01-13 09:36:29
[Mon 2020-01-13 09:36:29 AM] [client 192.168.49.1] update_tbl_admission_table Successfully Updated2020-01-13 09:36:29
[Mon 2020-01-13 09:36:29 AM] [client 192.168.49.1] update_learner_deregister_apply_table Successfully Updated2020-01-13 09:36:29
[Mon 2020-01-13 09:36:29 AM] [client 192.168.49.1] delete_biomatric_registration_entry Sucscessfully Deleted2020-01-13 09:36:29
[Mon 2020-01-13 09:36:29 AM] [client 192.168.49.1] update_tbl_admission_table Successfully Updated2020-01-13 09:36:29
[Mon 2020-01-13 09:36:29 AM] [client 192.168.49.1] update_learner_deregister_apply_table Successfully Updated2020-01-13 09:36:29
[Mon 2020-01-13 09:36:29 AM] [client 192.168.49.1] delete_biomatric_registration_entry Sucscessfully Deleted2020-01-13 09:36:29
[Mon 2020-01-13 09:36:29 AM] [client 192.168.49.1] update_tbl_admission_table Successfully Updated2020-01-13 09:36:29
[Mon 2020-01-13 09:36:29 AM] [client 192.168.49.1] update_learner_deregister_apply_table Successfully Updated2020-01-13 09:36:29
[Mon 2020-01-13 09:36:29 AM] [client 192.168.49.1] delete_biomatric_registration_entry Sucscessfully Deleted2020-01-13 09:36:29
[Mon 2020-01-13 09:36:29 AM] [client 192.168.49.1] update_tbl_admission_table Successfully Updated2020-01-13 09:36:29
[Mon 2020-01-13 09:36:29 AM] [client 192.168.49.1] update_learner_deregister_apply_table Successfully Updated2020-01-13 09:36:29
[Mon 2020-01-13 09:36:30 AM] [client 192.168.49.1] delete_biomatric_registration_entry Sucscessfully Deleted2020-01-13 09:36:30
[Mon 2020-01-13 09:36:30 AM] [client 192.168.49.1] update_tbl_admission_table Successfully Updated2020-01-13 09:36:30
[Mon 2020-01-13 09:36:30 AM] [client 192.168.49.1] update_learner_deregister_apply_table Successfully Updated2020-01-13 09:36:30
[Mon 2020-01-13 09:36:30 AM] [client 192.168.49.1] delete_biomatric_registration_entry Sucscessfully Deleted2020-01-13 09:36:30
[Mon 2020-01-13 09:36:30 AM] [client 192.168.49.1] update_tbl_admission_table Successfully Updated2020-01-13 09:36:30
[Mon 2020-01-13 09:36:30 AM] [client 192.168.49.1] update_learner_deregister_apply_table Successfully Updated2020-01-13 09:36:30
[Mon 2020-01-13 09:36:30 AM] [client 192.168.49.1] delete_biomatric_registration_entry Sucscessfully Deleted2020-01-13 09:36:30
[Mon 2020-01-13 09:36:30 AM] [client 192.168.49.1] update_tbl_admission_table Successfully Updated2020-01-13 09:36:30
[Mon 2020-01-13 09:36:30 AM] [client 192.168.49.1] update_learner_deregister_apply_table Successfully Updated2020-01-13 09:36:30
[Mon 2020-01-13 09:36:30 AM] [client 192.168.49.1] delete_biomatric_registration_entry Sucscessfully Deleted2020-01-13 09:36:30
[Mon 2020-01-13 09:36:30 AM] [client 192.168.49.1] update_tbl_admission_table Successfully Updated2020-01-13 09:36:30
[Mon 2020-01-13 09:36:30 AM] [client 192.168.49.1] update_learner_deregister_apply_table Successfully Updated2020-01-13 09:36:30
[Mon 2020-01-13 09:36:30 AM] [client 192.168.49.1] delete_biomatric_registration_entry Sucscessfully Deleted2020-01-13 09:36:30
[Mon 2020-01-13 09:36:30 AM] [client 192.168.49.1] update_tbl_admission_table Successfully Updated2020-01-13 09:36:30
[Mon 2020-01-13 09:36:30 AM] [client 192.168.49.1] update_learner_deregister_apply_table Successfully Updated2020-01-13 09:36:30
[Mon 2020-01-13 09:36:30 AM] [client 192.168.49.1] delete_biomatric_registration_entry Sucscessfully Deleted2020-01-13 09:36:30
[Mon 2020-01-13 09:36:30 AM] [client 192.168.49.1] update_tbl_admission_table Successfully Updated2020-01-13 09:36:30
[Mon 2020-01-13 09:36:30 AM] [client 192.168.49.1] update_learner_deregister_apply_table Successfully Updated2020-01-13 09:36:30
[Mon 2020-01-13 09:37:21 AM] [client 192.168.49.1] update_learner_deregister_apply_table_reject Successfully Updated2020-01-13 09:37:21
[Mon 2020-01-13 09:37:21 AM] [client 192.168.49.1] update_learner_deregister_apply_table_reject Successfully Updated2020-01-13 09:37:21
[Mon 2020-01-13 09:37:21 AM] [client 192.168.49.1] update_learner_deregister_apply_table_reject Successfully Updated2020-01-13 09:37:21
[Mon 2020-01-13 09:37:21 AM] [client 192.168.49.1] update_learner_deregister_apply_table_reject Successfully Updated2020-01-13 09:37:21
[Mon 2020-01-13 09:37:21 AM] [client 192.168.49.1] update_learner_deregister_apply_table_reject Successfully Updated2020-01-13 09:37:21
[Mon 2020-01-13 09:37:21 AM] [client 192.168.49.1] update_learner_deregister_apply_table_reject Successfully Updated2020-01-13 09:37:21
[Mon 2020-01-13 09:37:21 AM] [client 192.168.49.1] update_learner_deregister_apply_table_reject Successfully Updated2020-01-13 09:37:21
[Mon 2020-01-13 09:37:21 AM] [client 192.168.49.1] update_learner_deregister_apply_table_reject Successfully Updated2020-01-13 09:37:21
[Mon 2020-01-13 09:37:21 AM] [client 192.168.49.1] update_learner_deregister_apply_table_reject Successfully Updated2020-01-13 09:37:21
[Mon 2020-01-13 09:37:21 AM] [client 192.168.49.1] update_learner_deregister_apply_table_reject Successfully Updated2020-01-13 09:37:21
[Mon 2020-01-13 09:37:21 AM] [client 192.168.49.1] update_learner_deregister_apply_table_reject Successfully Updated2020-01-13 09:37:21
[Mon 2020-01-13 09:37:21 AM] [client 192.168.49.1] update_learner_deregister_apply_table_reject Successfully Updated2020-01-13 09:37:21
[Mon 2020-01-13 09:37:21 AM] [client 192.168.49.1] update_learner_deregister_apply_table_reject Successfully Updated2020-01-13 09:37:21
[Mon 2020-01-13 09:37:22 AM] [client 192.168.49.1] update_learner_deregister_apply_table_reject Successfully Updated2020-01-13 09:37:22
[Mon 2020-01-13 09:37:22 AM] [client 192.168.49.1] update_learner_deregister_apply_table_reject Successfully Updated2020-01-13 09:37:22
[Mon 2020-01-13 09:37:22 AM] [client 192.168.49.1] update_learner_deregister_apply_table_reject Successfully Updated2020-01-13 09:37:22
[Mon 2020-01-13 09:37:22 AM] [client 192.168.49.1] update_learner_deregister_apply_table_reject Successfully Updated2020-01-13 09:37:22
[Mon 2020-01-13 09:37:22 AM] [client 192.168.49.1] update_learner_deregister_apply_table_reject Successfully Updated2020-01-13 09:37:22
[Mon 2020-01-13 09:37:22 AM] [client 192.168.49.1] update_learner_deregister_apply_table_reject Successfully Updated2020-01-13 09:37:22
[Mon 2020-01-13 09:37:22 AM] [client 192.168.49.1] update_learner_deregister_apply_table_reject Successfully Updated2020-01-13 09:37:22
[Mon 2020-01-13 09:37:22 AM] [client 192.168.49.1] update_learner_deregister_apply_table_reject Successfully Updated2020-01-13 09:37:22
[Mon 2020-01-13 09:37:22 AM] [client 192.168.49.1] update_learner_deregister_apply_table_reject Successfully Updated2020-01-13 09:37:22
[Mon 2020-01-13 09:37:22 AM] [client 192.168.49.1] update_learner_deregister_apply_table_reject Successfully Updated2020-01-13 09:37:22
[Mon 2020-01-13 09:37:22 AM] [client 192.168.49.1] update_learner_deregister_apply_table_reject Successfully Updated2020-01-13 09:37:22
[Mon 2020-01-13 09:37:22 AM] [client 192.168.49.1] update_learner_deregister_apply_table_reject Successfully Updated2020-01-13 09:37:22
[Mon 2020-01-13 09:37:22 AM] [client 192.168.49.1] update_learner_deregister_apply_table_reject Successfully Updated2020-01-13 09:37:22
[Mon 2020-01-13 04:09:17 AM] [client 192.168.49.1] delete_biomatric_registration_entry Sucscessfully Deleted2020-01-13 04:09:17
[Mon 2020-01-13 04:09:17 AM] [client 192.168.49.1] update_tbl_admission_table Successfully Updated2020-01-13 04:09:17
[Mon 2020-01-13 09:39:17 AM] [client 192.168.49.1] update_learner_deregister_apply_table Successfully Updated2020-01-13 09:39:17
[Mon 2020-01-13 09:39:18 AM] [client 192.168.49.1] delete_biomatric_registration_entry Sucscessfully Deleted2020-01-13 09:39:18
[Mon 2020-01-13 09:39:18 AM] [client 192.168.49.1] update_tbl_admission_table Successfully Updated2020-01-13 09:39:18
[Mon 2020-01-13 09:39:18 AM] [client 192.168.49.1] update_learner_deregister_apply_table Successfully Updated2020-01-13 09:39:18
[Mon 2020-01-13 09:39:18 AM] [client 192.168.49.1] delete_biomatric_registration_entry Sucscessfully Deleted2020-01-13 09:39:18
[Mon 2020-01-13 09:39:18 AM] [client 192.168.49.1] update_tbl_admission_table Successfully Updated2020-01-13 09:39:18
[Mon 2020-01-13 09:39:18 AM] [client 192.168.49.1] update_learner_deregister_apply_table Successfully Updated2020-01-13 09:39:18
[Mon 2020-01-13 09:39:18 AM] [client 192.168.49.1] delete_biomatric_registration_entry Sucscessfully Deleted2020-01-13 09:39:18
[Mon 2020-01-13 09:39:18 AM] [client 192.168.49.1] update_tbl_admission_table Successfully Updated2020-01-13 09:39:18
[Mon 2020-01-13 09:39:18 AM] [client 192.168.49.1] update_learner_deregister_apply_table Successfully Updated2020-01-13 09:39:18
[Mon 2020-01-13 09:39:18 AM] [client 192.168.49.1] delete_biomatric_registration_entry Sucscessfully Deleted2020-01-13 09:39:18
[Mon 2020-01-13 09:39:18 AM] [client 192.168.49.1] update_tbl_admission_table Successfully Updated2020-01-13 09:39:18
[Mon 2020-01-13 09:39:18 AM] [client 192.168.49.1] update_learner_deregister_apply_table Successfully Updated2020-01-13 09:39:18
[Mon 2020-01-13 09:39:18 AM] [client 192.168.49.1] delete_biomatric_registration_entry Sucscessfully Deleted2020-01-13 09:39:18
[Mon 2020-01-13 09:39:18 AM] [client 192.168.49.1] update_tbl_admission_table Successfully Updated2020-01-13 09:39:18
[Mon 2020-01-13 09:39:18 AM] [client 192.168.49.1] update_learner_deregister_apply_table Successfully Updated2020-01-13 09:39:18
[Mon 2020-01-13 09:39:18 AM] [client 192.168.49.1] delete_biomatric_registration_entry Sucscessfully Deleted2020-01-13 09:39:18
[Mon 2020-01-13 09:39:18 AM] [client 192.168.49.1] update_tbl_admission_table Successfully Updated2020-01-13 09:39:18
[Mon 2020-01-13 09:39:18 AM] [client 192.168.49.1] update_learner_deregister_apply_table Successfully Updated2020-01-13 09:39:18
[Mon 2020-01-13 09:39:18 AM] [client 192.168.49.1] delete_biomatric_registration_entry Sucscessfully Deleted2020-01-13 09:39:18
[Mon 2020-01-13 09:39:18 AM] [client 192.168.49.1] update_tbl_admission_table Successfully Updated2020-01-13 09:39:18
[Mon 2020-01-13 09:39:18 AM] [client 192.168.49.1] update_learner_deregister_apply_table Successfully Updated2020-01-13 09:39:18
[Mon 2020-01-13 09:39:18 AM] [client 192.168.49.1] delete_biomatric_registration_entry Sucscessfully Deleted2020-01-13 09:39:18
[Mon 2020-01-13 09:39:18 AM] [client 192.168.49.1] update_tbl_admission_table Successfully Updated2020-01-13 09:39:18
[Mon 2020-01-13 09:39:18 AM] [client 192.168.49.1] update_learner_deregister_apply_table Successfully Updated2020-01-13 09:39:18
[Mon 2020-01-13 09:39:18 AM] [client 192.168.49.1] delete_biomatric_registration_entry Sucscessfully Deleted2020-01-13 09:39:18
[Mon 2020-01-13 09:39:18 AM] [client 192.168.49.1] update_tbl_admission_table Successfully Updated2020-01-13 09:39:18
[Mon 2020-01-13 09:39:18 AM] [client 192.168.49.1] update_learner_deregister_apply_table Successfully Updated2020-01-13 09:39:18
[Mon 2020-01-13 09:39:18 AM] [client 192.168.49.1] delete_biomatric_registration_entry Sucscessfully Deleted2020-01-13 09:39:18
[Mon 2020-01-13 09:39:18 AM] [client 192.168.49.1] update_tbl_admission_table Successfully Updated2020-01-13 09:39:18
[Mon 2020-01-13 09:39:18 AM] [client 192.168.49.1] update_learner_deregister_apply_table Successfully Updated2020-01-13 09:39:18
[Mon 2020-01-13 09:39:18 AM] [client 192.168.49.1] delete_biomatric_registration_entry Sucscessfully Deleted2020-01-13 09:39:18
[Mon 2020-01-13 09:39:18 AM] [client 192.168.49.1] update_tbl_admission_table Successfully Updated2020-01-13 09:39:18
[Mon 2020-01-13 09:39:18 AM] [client 192.168.49.1] update_learner_deregister_apply_table Successfully Updated2020-01-13 09:39:18
[Mon 2020-01-13 09:39:18 AM] [client 192.168.49.1] delete_biomatric_registration_entry Sucscessfully Deleted2020-01-13 09:39:18
[Mon 2020-01-13 09:39:18 AM] [client 192.168.49.1] update_tbl_admission_table Successfully Updated2020-01-13 09:39:18
[Mon 2020-01-13 09:39:18 AM] [client 192.168.49.1] update_learner_deregister_apply_table Successfully Updated2020-01-13 09:39:18
[Mon 2020-01-13 09:39:19 AM] [client 192.168.49.1] delete_biomatric_registration_entry Sucscessfully Deleted2020-01-13 09:39:19
[Mon 2020-01-13 09:39:19 AM] [client 192.168.49.1] update_tbl_admission_table Successfully Updated2020-01-13 09:39:19
[Mon 2020-01-13 09:39:19 AM] [client 192.168.49.1] update_learner_deregister_apply_table Successfully Updated2020-01-13 09:39:19
[Mon 2020-01-13 09:39:19 AM] [client 192.168.49.1] delete_biomatric_registration_entry Sucscessfully Deleted2020-01-13 09:39:19
[Mon 2020-01-13 09:39:19 AM] [client 192.168.49.1] update_tbl_admission_table Successfully Updated2020-01-13 09:39:19
[Mon 2020-01-13 09:39:19 AM] [client 192.168.49.1] update_learner_deregister_apply_table Successfully Updated2020-01-13 09:39:19
[Mon 2020-01-13 09:39:19 AM] [client 192.168.49.1] delete_biomatric_registration_entry Sucscessfully Deleted2020-01-13 09:39:19
[Mon 2020-01-13 09:39:19 AM] [client 192.168.49.1] update_tbl_admission_table Successfully Updated2020-01-13 09:39:19
[Mon 2020-01-13 09:39:19 AM] [client 192.168.49.1] update_learner_deregister_apply_table Successfully Updated2020-01-13 09:39:19
[Mon 2020-01-13 09:39:19 AM] [client 192.168.49.1] delete_biomatric_registration_entry Sucscessfully Deleted2020-01-13 09:39:19
[Mon 2020-01-13 09:39:19 AM] [client 192.168.49.1] update_tbl_admission_table Successfully Updated2020-01-13 09:39:19
[Mon 2020-01-13 09:39:19 AM] [client 192.168.49.1] update_learner_deregister_apply_table Successfully Updated2020-01-13 09:39:19
[Mon 2020-01-13 09:39:19 AM] [client 192.168.49.1] delete_biomatric_registration_entry Sucscessfully Deleted2020-01-13 09:39:19
[Mon 2020-01-13 09:39:19 AM] [client 192.168.49.1] update_tbl_admission_table Successfully Updated2020-01-13 09:39:19
[Mon 2020-01-13 09:39:19 AM] [client 192.168.49.1] update_learner_deregister_apply_table Successfully Updated2020-01-13 09:39:19
[Mon 2020-01-13 09:39:19 AM] [client 192.168.49.1] delete_biomatric_registration_entry Sucscessfully Deleted2020-01-13 09:39:19
[Mon 2020-01-13 09:39:19 AM] [client 192.168.49.1] update_tbl_admission_table Successfully Updated2020-01-13 09:39:19
[Mon 2020-01-13 09:39:19 AM] [client 192.168.49.1] update_learner_deregister_apply_table Successfully Updated2020-01-13 09:39:19
[Mon 2020-01-13 09:39:19 AM] [client 192.168.49.1] delete_biomatric_registration_entry Sucscessfully Deleted2020-01-13 09:39:19
[Mon 2020-01-13 09:39:19 AM] [client 192.168.49.1] update_tbl_admission_table Successfully Updated2020-01-13 09:39:19
[Mon 2020-01-13 09:39:19 AM] [client 192.168.49.1] update_learner_deregister_apply_table Successfully Updated2020-01-13 09:39:19
[Mon 2020-01-13 09:39:19 AM] [client 192.168.49.1] delete_biomatric_registration_entry Sucscessfully Deleted2020-01-13 09:39:19
[Mon 2020-01-13 09:39:19 AM] [client 192.168.49.1] update_tbl_admission_table Successfully Updated2020-01-13 09:39:19
[Mon 2020-01-13 09:39:19 AM] [client 192.168.49.1] update_learner_deregister_apply_table Successfully Updated2020-01-13 09:39:19
[Mon 2020-01-13 09:39:19 AM] [client 192.168.49.1] delete_biomatric_registration_entry Sucscessfully Deleted2020-01-13 09:39:19
[Mon 2020-01-13 09:39:19 AM] [client 192.168.49.1] update_tbl_admission_table Successfully Updated2020-01-13 09:39:19
[Mon 2020-01-13 09:39:19 AM] [client 192.168.49.1] update_learner_deregister_apply_table Successfully Updated2020-01-13 09:39:19
[Mon 2020-01-13 09:39:19 AM] [client 192.168.49.1] delete_biomatric_registration_entry Sucscessfully Deleted2020-01-13 09:39:19
[Mon 2020-01-13 09:39:19 AM] [client 192.168.49.1] update_tbl_admission_table Successfully Updated2020-01-13 09:39:19
[Mon 2020-01-13 09:39:19 AM] [client 192.168.49.1] update_learner_deregister_apply_table Successfully Updated2020-01-13 09:39:19
[Mon 2020-01-13 09:39:19 AM] [client 192.168.49.1] delete_biomatric_registration_entry Sucscessfully Deleted2020-01-13 09:39:19
[Mon 2020-01-13 09:39:19 AM] [client 192.168.49.1] update_tbl_admission_table Successfully Updated2020-01-13 09:39:19
[Mon 2020-01-13 09:39:19 AM] [client 192.168.49.1] update_learner_deregister_apply_table Successfully Updated2020-01-13 09:39:19
[Mon 2020-01-13 09:39:19 AM] [client 192.168.49.1] delete_biomatric_registration_entry Sucscessfully Deleted2020-01-13 09:39:19
[Mon 2020-01-13 09:39:19 AM] [client 192.168.49.1] update_tbl_admission_table Successfully Updated2020-01-13 09:39:19
[Mon 2020-01-13 09:39:19 AM] [client 192.168.49.1] update_learner_deregister_apply_table Successfully Updated2020-01-13 09:39:19
[Mon 2020-01-13 09:39:20 AM] [client 192.168.49.1] delete_biomatric_registration_entry Sucscessfully Deleted2020-01-13 09:39:20
[Mon 2020-01-13 09:39:20 AM] [client 192.168.49.1] update_tbl_admission_table Successfully Updated2020-01-13 09:39:20
[Mon 2020-01-13 09:39:20 AM] [client 192.168.49.1] update_learner_deregister_apply_table Successfully Updated2020-01-13 09:39:20
[Mon 2020-01-13 09:39:20 AM] [client 192.168.49.1] delete_biomatric_registration_entry Sucscessfully Deleted2020-01-13 09:39:20
[Mon 2020-01-13 09:39:20 AM] [client 192.168.49.1] update_tbl_admission_table Successfully Updated2020-01-13 09:39:20
[Mon 2020-01-13 09:39:20 AM] [client 192.168.49.1] update_learner_deregister_apply_table Successfully Updated2020-01-13 09:39:20
[Mon 2020-01-13 09:39:20 AM] [client 192.168.49.1] delete_biomatric_registration_entry Sucscessfully Deleted2020-01-13 09:39:20
[Mon 2020-01-13 09:39:20 AM] [client 192.168.49.1] update_tbl_admission_table Successfully Updated2020-01-13 09:39:20
[Mon 2020-01-13 09:39:20 AM] [client 192.168.49.1] update_learner_deregister_apply_table Successfully Updated2020-01-13 09:39:20
[Mon 2020-01-13 09:39:20 AM] [client 192.168.49.1] delete_biomatric_registration_entry Sucscessfully Deleted2020-01-13 09:39:20
[Mon 2020-01-13 09:39:20 AM] [client 192.168.49.1] update_tbl_admission_table Successfully Updated2020-01-13 09:39:20
[Mon 2020-01-13 09:39:20 AM] [client 192.168.49.1] update_learner_deregister_apply_table Successfully Updated2020-01-13 09:39:20
[Mon 2020-01-13 09:39:20 AM] [client 192.168.49.1] delete_biomatric_registration_entry Sucscessfully Deleted2020-01-13 09:39:20
[Mon 2020-01-13 09:39:20 AM] [client 192.168.49.1] update_tbl_admission_table Successfully Updated2020-01-13 09:39:20
[Mon 2020-01-13 09:39:20 AM] [client 192.168.49.1] update_learner_deregister_apply_table Successfully Updated2020-01-13 09:39:20
[Mon 2020-01-13 09:39:20 AM] [client 192.168.49.1] delete_biomatric_registration_entry Sucscessfully Deleted2020-01-13 09:39:20
[Mon 2020-01-13 09:39:20 AM] [client 192.168.49.1] update_tbl_admission_table Successfully Updated2020-01-13 09:39:20
[Mon 2020-01-13 09:39:20 AM] [client 192.168.49.1] update_learner_deregister_apply_table Successfully Updated2020-01-13 09:39:20
[Mon 2020-01-13 09:39:20 AM] [client 192.168.49.1] delete_biomatric_registration_entry Sucscessfully Deleted2020-01-13 09:39:20
[Mon 2020-01-13 09:39:20 AM] [client 192.168.49.1] update_tbl_admission_table Successfully Updated2020-01-13 09:39:20
[Mon 2020-01-13 09:39:20 AM] [client 192.168.49.1] update_learner_deregister_apply_table Successfully Updated2020-01-13 09:39:20
[Mon 2020-01-13 09:39:20 AM] [client 192.168.49.1] delete_biomatric_registration_entry Sucscessfully Deleted2020-01-13 09:39:20
[Mon 2020-01-13 09:39:20 AM] [client 192.168.49.1] update_tbl_admission_table Successfully Updated2020-01-13 09:39:20
[Mon 2020-01-13 09:39:20 AM] [client 192.168.49.1] update_learner_deregister_apply_table Successfully Updated2020-01-13 09:39:20
[Mon 2020-01-13 09:39:21 AM] [client 192.168.49.1] delete_biomatric_registration_entry Sucscessfully Deleted2020-01-13 09:39:21
[Mon 2020-01-13 09:39:21 AM] [client 192.168.49.1] update_tbl_admission_table Successfully Updated2020-01-13 09:39:21
[Mon 2020-01-13 09:39:21 AM] [client 192.168.49.1] update_learner_deregister_apply_table Successfully Updated2020-01-13 09:39:21
[Mon 2020-01-13 09:39:21 AM] [client 192.168.49.1] delete_biomatric_registration_entry Sucscessfully Deleted2020-01-13 09:39:21
[Mon 2020-01-13 09:39:21 AM] [client 192.168.49.1] update_tbl_admission_table Successfully Updated2020-01-13 09:39:21
[Mon 2020-01-13 09:39:21 AM] [client 192.168.49.1] update_learner_deregister_apply_table Successfully Updated2020-01-13 09:39:21
[Mon 2020-01-13 09:39:21 AM] [client 192.168.49.1] delete_biomatric_registration_entry Sucscessfully Deleted2020-01-13 09:39:21
[Mon 2020-01-13 09:39:21 AM] [client 192.168.49.1] update_tbl_admission_table Successfully Updated2020-01-13 09:39:21
[Mon 2020-01-13 09:39:21 AM] [client 192.168.49.1] update_learner_deregister_apply_table Successfully Updated2020-01-13 09:39:21
[Mon 2020-01-13 09:39:21 AM] [client 192.168.49.1] delete_biomatric_registration_entry Sucscessfully Deleted2020-01-13 09:39:21
[Mon 2020-01-13 09:39:21 AM] [client 192.168.49.1] update_tbl_admission_table Successfully Updated2020-01-13 09:39:21
[Mon 2020-01-13 09:39:21 AM] [client 192.168.49.1] update_learner_deregister_apply_table Successfully Updated2020-01-13 09:39:21
[Mon 2020-01-13 09:39:21 AM] [client 192.168.49.1] delete_biomatric_registration_entry Sucscessfully Deleted2020-01-13 09:39:21
[Mon 2020-01-13 09:39:21 AM] [client 192.168.49.1] update_tbl_admission_table Successfully Updated2020-01-13 09:39:21
[Mon 2020-01-13 09:39:21 AM] [client 192.168.49.1] update_learner_deregister_apply_table Successfully Updated2020-01-13 09:39:21
[Mon 2020-01-13 09:39:21 AM] [client 192.168.49.1] delete_biomatric_registration_entry Sucscessfully Deleted2020-01-13 09:39:21
[Mon 2020-01-13 09:39:21 AM] [client 192.168.49.1] update_tbl_admission_table Successfully Updated2020-01-13 09:39:21
[Mon 2020-01-13 09:39:21 AM] [client 192.168.49.1] update_learner_deregister_apply_table Successfully Updated2020-01-13 09:39:21
[Mon 2020-01-13 09:39:21 AM] [client 192.168.49.1] delete_biomatric_registration_entry Sucscessfully Deleted2020-01-13 09:39:21
[Mon 2020-01-13 09:39:21 AM] [client 192.168.49.1] update_tbl_admission_table Successfully Updated2020-01-13 09:39:21
[Mon 2020-01-13 09:39:21 AM] [client 192.168.49.1] update_learner_deregister_apply_table Successfully Updated2020-01-13 09:39:21
[Mon 2020-01-13 09:39:21 AM] [client 192.168.49.1] delete_biomatric_registration_entry Sucscessfully Deleted2020-01-13 09:39:21
[Mon 2020-01-13 09:39:21 AM] [client 192.168.49.1] update_tbl_admission_table Successfully Updated2020-01-13 09:39:21
[Mon 2020-01-13 09:39:21 AM] [client 192.168.49.1] update_learner_deregister_apply_table Successfully Updated2020-01-13 09:39:21
[Mon 2020-01-13 09:39:21 AM] [client 192.168.49.1] delete_biomatric_registration_entry Sucscessfully Deleted2020-01-13 09:39:21
[Mon 2020-01-13 09:39:21 AM] [client 192.168.49.1] update_tbl_admission_table Successfully Updated2020-01-13 09:39:21
[Mon 2020-01-13 09:39:21 AM] [client 192.168.49.1] update_learner_deregister_apply_table Successfully Updated2020-01-13 09:39:21
[Mon 2020-01-13 09:39:21 AM] [client 192.168.49.1] delete_biomatric_registration_entry Sucscessfully Deleted2020-01-13 09:39:21
[Mon 2020-01-13 09:39:21 AM] [client 192.168.49.1] update_tbl_admission_table Successfully Updated2020-01-13 09:39:21
[Mon 2020-01-13 09:39:21 AM] [client 192.168.49.1] update_learner_deregister_apply_table Successfully Updated2020-01-13 09:39:21
[Mon 2020-01-13 09:40:28 AM] [client 192.168.49.1] update_learner_deregister_apply_table_reject Successfully Updated2020-01-13 09:40:28
[Mon 2020-01-13 09:40:28 AM] [client 192.168.49.1] update_learner_deregister_apply_table_reject Successfully Updated2020-01-13 09:40:28
[Mon 2020-01-13 09:40:28 AM] [client 192.168.49.1] update_learner_deregister_apply_table_reject Successfully Updated2020-01-13 09:40:28
[Mon 2020-01-13 09:40:28 AM] [client 192.168.49.1] update_learner_deregister_apply_table_reject Successfully Updated2020-01-13 09:40:28
[Mon 2020-01-13 09:40:28 AM] [client 192.168.49.1] update_learner_deregister_apply_table_reject Successfully Updated2020-01-13 09:40:28
[Mon 2020-01-13 09:40:28 AM] [client 192.168.49.1] update_learner_deregister_apply_table_reject Successfully Updated2020-01-13 09:40:28
[Mon 2020-01-13 09:40:28 AM] [client 192.168.49.1] update_learner_deregister_apply_table_reject Successfully Updated2020-01-13 09:40:28
[Mon 2020-01-13 09:40:28 AM] [client 192.168.49.1] update_learner_deregister_apply_table_reject Successfully Updated2020-01-13 09:40:28
[Mon 2020-01-13 09:40:28 AM] [client 192.168.49.1] update_learner_deregister_apply_table_reject Successfully Updated2020-01-13 09:40:28
[Mon 2020-01-13 09:40:28 AM] [client 192.168.49.1] update_learner_deregister_apply_table_reject Successfully Updated2020-01-13 09:40:28
[Mon 2020-01-13 09:40:28 AM] [client 192.168.49.1] update_learner_deregister_apply_table_reject Successfully Updated2020-01-13 09:40:28
[Mon 2020-01-13 09:40:28 AM] [client 192.168.49.1] update_learner_deregister_apply_table_reject Successfully Updated2020-01-13 09:40:28
[Mon 2020-01-13 09:40:28 AM] [client 192.168.49.1] update_learner_deregister_apply_table_reject Successfully Updated2020-01-13 09:40:28
[Mon 2020-01-13 09:40:29 AM] [client 192.168.49.1] update_learner_deregister_apply_table_reject Successfully Updated2020-01-13 09:40:29
[Mon 2020-01-13 09:40:29 AM] [client 192.168.49.1] update_learner_deregister_apply_table_reject Successfully Updated2020-01-13 09:40:29
[Mon 2020-01-13 09:40:29 AM] [client 192.168.49.1] update_learner_deregister_apply_table_reject Successfully Updated2020-01-13 09:40:29
[Mon 2020-01-13 09:40:29 AM] [client 192.168.49.1] update_learner_deregister_apply_table_reject Successfully Updated2020-01-13 09:40:29
[Mon 2020-01-13 09:40:29 AM] [client 192.168.49.1] update_learner_deregister_apply_table_reject Successfully Updated2020-01-13 09:40:29
[Mon 2020-01-13 09:40:29 AM] [client 192.168.49.1] update_learner_deregister_apply_table_reject Successfully Updated2020-01-13 09:40:29
[Mon 2020-01-13 09:40:29 AM] [client 192.168.49.1] update_learner_deregister_apply_table_reject Successfully Updated2020-01-13 09:40:29
[Mon 2020-01-13 09:40:29 AM] [client 192.168.49.1] update_learner_deregister_apply_table_reject Successfully Updated2020-01-13 09:40:29
[Mon 2020-01-13 09:40:29 AM] [client 192.168.49.1] update_learner_deregister_apply_table_reject Successfully Updated2020-01-13 09:40:29
[Mon 2020-01-13 09:40:29 AM] [client 192.168.49.1] update_learner_deregister_apply_table_reject Successfully Updated2020-01-13 09:40:29
[Mon 2020-01-13 04:11:15 AM] [client 192.168.49.1] delete_biomatric_registration_entry Sucscessfully Deleted2020-01-13 04:11:15
[Mon 2020-01-13 04:11:15 AM] [client 192.168.49.1] update_tbl_admission_table Successfully Updated2020-01-13 04:11:15
[Mon 2020-01-13 09:41:15 AM] [client 192.168.49.1] update_learner_deregister_apply_table Successfully Updated2020-01-13 09:41:15
[Mon 2020-01-13 09:41:15 AM] [client 192.168.49.1] delete_biomatric_registration_entry Sucscessfully Deleted2020-01-13 09:41:15
[Mon 2020-01-13 09:41:15 AM] [client 192.168.49.1] update_tbl_admission_table Successfully Updated2020-01-13 09:41:15
[Mon 2020-01-13 09:41:15 AM] [client 192.168.49.1] update_learner_deregister_apply_table Successfully Updated2020-01-13 09:41:15
[Mon 2020-01-13 09:41:15 AM] [client 192.168.49.1] delete_biomatric_registration_entry Sucscessfully Deleted2020-01-13 09:41:15
[Mon 2020-01-13 09:41:16 AM] [client 192.168.49.1] update_tbl_admission_table Successfully Updated2020-01-13 09:41:16
[Mon 2020-01-13 09:41:16 AM] [client 192.168.49.1] update_learner_deregister_apply_table Successfully Updated2020-01-13 09:41:16
[Mon 2020-01-13 09:41:16 AM] [client 192.168.49.1] delete_biomatric_registration_entry Sucscessfully Deleted2020-01-13 09:41:16
[Mon 2020-01-13 09:41:16 AM] [client 192.168.49.1] update_tbl_admission_table Successfully Updated2020-01-13 09:41:16
[Mon 2020-01-13 09:41:16 AM] [client 192.168.49.1] update_learner_deregister_apply_table Successfully Updated2020-01-13 09:41:16
[Mon 2020-01-13 09:41:16 AM] [client 192.168.49.1] delete_biomatric_registration_entry Sucscessfully Deleted2020-01-13 09:41:16
[Mon 2020-01-13 09:41:16 AM] [client 192.168.49.1] update_tbl_admission_table Successfully Updated2020-01-13 09:41:16
[Mon 2020-01-13 09:41:16 AM] [client 192.168.49.1] update_learner_deregister_apply_table Successfully Updated2020-01-13 09:41:16
[Mon 2020-01-13 09:41:16 AM] [client 192.168.49.1] delete_biomatric_registration_entry Sucscessfully Deleted2020-01-13 09:41:16
[Mon 2020-01-13 09:41:16 AM] [client 192.168.49.1] update_tbl_admission_table Successfully Updated2020-01-13 09:41:16
[Mon 2020-01-13 09:41:16 AM] [client 192.168.49.1] update_learner_deregister_apply_table Successfully Updated2020-01-13 09:41:16
[Mon 2020-01-13 09:41:16 AM] [client 192.168.49.1] delete_biomatric_registration_entry Sucscessfully Deleted2020-01-13 09:41:16
[Mon 2020-01-13 09:41:16 AM] [client 192.168.49.1] update_tbl_admission_table Successfully Updated2020-01-13 09:41:16
[Mon 2020-01-13 09:41:16 AM] [client 192.168.49.1] update_learner_deregister_apply_table Successfully Updated2020-01-13 09:41:16
[Mon 2020-01-13 09:41:16 AM] [client 192.168.49.1] delete_biomatric_registration_entry Sucscessfully Deleted2020-01-13 09:41:16
[Mon 2020-01-13 09:41:16 AM] [client 192.168.49.1] update_tbl_admission_table Successfully Updated2020-01-13 09:41:16
[Mon 2020-01-13 09:41:16 AM] [client 192.168.49.1] update_learner_deregister_apply_table Successfully Updated2020-01-13 09:41:16
[Mon 2020-01-13 09:41:16 AM] [client 192.168.49.1] delete_biomatric_registration_entry Sucscessfully Deleted2020-01-13 09:41:16
[Mon 2020-01-13 09:41:16 AM] [client 192.168.49.1] update_tbl_admission_table Successfully Updated2020-01-13 09:41:16
[Mon 2020-01-13 09:41:16 AM] [client 192.168.49.1] update_learner_deregister_apply_table Successfully Updated2020-01-13 09:41:16
[Mon 2020-01-13 09:41:16 AM] [client 192.168.49.1] delete_biomatric_registration_entry Sucscessfully Deleted2020-01-13 09:41:16
[Mon 2020-01-13 09:41:16 AM] [client 192.168.49.1] update_tbl_admission_table Successfully Updated2020-01-13 09:41:16
[Mon 2020-01-13 09:41:16 AM] [client 192.168.49.1] update_learner_deregister_apply_table Successfully Updated2020-01-13 09:41:16
[Mon 2020-01-13 09:41:16 AM] [client 192.168.49.1] delete_biomatric_registration_entry Sucscessfully Deleted2020-01-13 09:41:16
[Mon 2020-01-13 09:41:16 AM] [client 192.168.49.1] update_tbl_admission_table Successfully Updated2020-01-13 09:41:16
[Mon 2020-01-13 09:41:16 AM] [client 192.168.49.1] update_learner_deregister_apply_table Successfully Updated2020-01-13 09:41:16
[Mon 2020-01-13 09:41:16 AM] [client 192.168.49.1] delete_biomatric_registration_entry Sucscessfully Deleted2020-01-13 09:41:16
[Mon 2020-01-13 09:41:16 AM] [client 192.168.49.1] update_tbl_admission_table Successfully Updated2020-01-13 09:41:16
[Mon 2020-01-13 09:41:16 AM] [client 192.168.49.1] update_learner_deregister_apply_table Successfully Updated2020-01-13 09:41:16
[Mon 2020-01-13 09:41:16 AM] [client 192.168.49.1] delete_biomatric_registration_entry Sucscessfully Deleted2020-01-13 09:41:16
[Mon 2020-01-13 09:41:16 AM] [client 192.168.49.1] update_tbl_admission_table Successfully Updated2020-01-13 09:41:16
[Mon 2020-01-13 09:41:16 AM] [client 192.168.49.1] update_learner_deregister_apply_table Successfully Updated2020-01-13 09:41:16
[Mon 2020-01-13 09:41:16 AM] [client 192.168.49.1] delete_biomatric_registration_entry Sucscessfully Deleted2020-01-13 09:41:16
[Mon 2020-01-13 09:41:16 AM] [client 192.168.49.1] update_tbl_admission_table Successfully Updated2020-01-13 09:41:16
[Mon 2020-01-13 09:41:16 AM] [client 192.168.49.1] update_learner_deregister_apply_table Successfully Updated2020-01-13 09:41:16
[Mon 2020-01-13 09:41:16 AM] [client 192.168.49.1] delete_biomatric_registration_entry Sucscessfully Deleted2020-01-13 09:41:16
[Mon 2020-01-13 09:41:16 AM] [client 192.168.49.1] update_tbl_admission_table Successfully Updated2020-01-13 09:41:16
[Mon 2020-01-13 09:41:16 AM] [client 192.168.49.1] update_learner_deregister_apply_table Successfully Updated2020-01-13 09:41:16
[Mon 2020-01-13 09:41:17 AM] [client 192.168.49.1] delete_biomatric_registration_entry Sucscessfully Deleted2020-01-13 09:41:17
[Mon 2020-01-13 09:41:17 AM] [client 192.168.49.1] update_tbl_admission_table Successfully Updated2020-01-13 09:41:17
[Mon 2020-01-13 09:41:17 AM] [client 192.168.49.1] update_learner_deregister_apply_table Successfully Updated2020-01-13 09:41:17
[Mon 2020-01-13 09:41:17 AM] [client 192.168.49.1] delete_biomatric_registration_entry Sucscessfully Deleted2020-01-13 09:41:17
[Mon 2020-01-13 09:41:17 AM] [client 192.168.49.1] update_tbl_admission_table Successfully Updated2020-01-13 09:41:17
[Mon 2020-01-13 09:41:17 AM] [client 192.168.49.1] update_learner_deregister_apply_table Successfully Updated2020-01-13 09:41:17
[Mon 2020-01-13 09:41:17 AM] [client 192.168.49.1] delete_biomatric_registration_entry Sucscessfully Deleted2020-01-13 09:41:17
[Mon 2020-01-13 09:41:17 AM] [client 192.168.49.1] update_tbl_admission_table Successfully Updated2020-01-13 09:41:17
[Mon 2020-01-13 09:41:17 AM] [client 192.168.49.1] update_learner_deregister_apply_table Successfully Updated2020-01-13 09:41:17
[Mon 2020-01-13 09:41:17 AM] [client 192.168.49.1] delete_biomatric_registration_entry Sucscessfully Deleted2020-01-13 09:41:17
[Mon 2020-01-13 09:41:17 AM] [client 192.168.49.1] update_tbl_admission_table Successfully Updated2020-01-13 09:41:17
[Mon 2020-01-13 09:41:17 AM] [client 192.168.49.1] update_learner_deregister_apply_table Successfully Updated2020-01-13 09:41:17
[Mon 2020-01-13 09:41:17 AM] [client 192.168.49.1] delete_biomatric_registration_entry Sucscessfully Deleted2020-01-13 09:41:17
[Mon 2020-01-13 09:41:17 AM] [client 192.168.49.1] update_tbl_admission_table Successfully Updated2020-01-13 09:41:17
[Mon 2020-01-13 09:41:17 AM] [client 192.168.49.1] update_learner_deregister_apply_table Successfully Updated2020-01-13 09:41:17
[Mon 2020-01-13 09:41:17 AM] [client 192.168.49.1] delete_biomatric_registration_entry Sucscessfully Deleted2020-01-13 09:41:17
[Mon 2020-01-13 09:41:17 AM] [client 192.168.49.1] update_tbl_admission_table Successfully Updated2020-01-13 09:41:17
[Mon 2020-01-13 09:41:17 AM] [client 192.168.49.1] update_learner_deregister_apply_table Successfully Updated2020-01-13 09:41:17
[Mon 2020-01-13 09:41:17 AM] [client 192.168.49.1] delete_biomatric_registration_entry Sucscessfully Deleted2020-01-13 09:41:17
[Mon 2020-01-13 09:41:17 AM] [client 192.168.49.1] update_tbl_admission_table Successfully Updated2020-01-13 09:41:17
[Mon 2020-01-13 09:41:17 AM] [client 192.168.49.1] update_learner_deregister_apply_table Successfully Updated2020-01-13 09:41:17
[Mon 2020-01-13 09:41:17 AM] [client 192.168.49.1] delete_biomatric_registration_entry Sucscessfully Deleted2020-01-13 09:41:17
[Mon 2020-01-13 09:41:17 AM] [client 192.168.49.1] update_tbl_admission_table Successfully Updated2020-01-13 09:41:17
[Mon 2020-01-13 09:41:17 AM] [client 192.168.49.1] update_learner_deregister_apply_table Successfully Updated2020-01-13 09:41:17
[Mon 2020-01-13 09:41:18 AM] [client 192.168.49.1] delete_biomatric_registration_entry Sucscessfully Deleted2020-01-13 09:41:18
[Mon 2020-01-13 09:41:18 AM] [client 192.168.49.1] update_tbl_admission_table Successfully Updated2020-01-13 09:41:18
[Mon 2020-01-13 09:41:18 AM] [client 192.168.49.1] update_learner_deregister_apply_table Successfully Updated2020-01-13 09:41:18
[Mon 2020-01-13 09:41:18 AM] [client 192.168.49.1] delete_biomatric_registration_entry Sucscessfully Deleted2020-01-13 09:41:18
[Mon 2020-01-13 09:41:18 AM] [client 192.168.49.1] update_tbl_admission_table Successfully Updated2020-01-13 09:41:18
[Mon 2020-01-13 09:41:18 AM] [client 192.168.49.1] update_learner_deregister_apply_table Successfully Updated2020-01-13 09:41:18
[Mon 2020-01-13 09:41:18 AM] [client 192.168.49.1] delete_biomatric_registration_entry Sucscessfully Deleted2020-01-13 09:41:18
[Mon 2020-01-13 09:41:18 AM] [client 192.168.49.1] update_tbl_admission_table Successfully Updated2020-01-13 09:41:18
[Mon 2020-01-13 09:41:18 AM] [client 192.168.49.1] update_learner_deregister_apply_table Successfully Updated2020-01-13 09:41:18
[Mon 2020-01-13 09:41:18 AM] [client 192.168.49.1] delete_biomatric_registration_entry Sucscessfully Deleted2020-01-13 09:41:18
[Mon 2020-01-13 09:41:18 AM] [client 192.168.49.1] update_tbl_admission_table Successfully Updated2020-01-13 09:41:18
[Mon 2020-01-13 09:41:18 AM] [client 192.168.49.1] update_learner_deregister_apply_table Successfully Updated2020-01-13 09:41:18
[Mon 2020-01-13 09:41:18 AM] [client 192.168.49.1] delete_biomatric_registration_entry Sucscessfully Deleted2020-01-13 09:41:18
[Mon 2020-01-13 09:41:18 AM] [client 192.168.49.1] update_tbl_admission_table Successfully Updated2020-01-13 09:41:18
[Mon 2020-01-13 09:41:18 AM] [client 192.168.49.1] update_learner_deregister_apply_table Successfully Updated2020-01-13 09:41:18
[Mon 2020-01-13 09:41:18 AM] [client 192.168.49.1] delete_biomatric_registration_entry Sucscessfully Deleted2020-01-13 09:41:18
[Mon 2020-01-13 09:41:18 AM] [client 192.168.49.1] update_tbl_admission_table Successfully Updated2020-01-13 09:41:18
[Mon 2020-01-13 09:41:18 AM] [client 192.168.49.1] update_learner_deregister_apply_table Successfully Updated2020-01-13 09:41:18
[Mon 2020-01-13 09:41:18 AM] [client 192.168.49.1] delete_biomatric_registration_entry Sucscessfully Deleted2020-01-13 09:41:18
[Mon 2020-01-13 09:41:18 AM] [client 192.168.49.1] update_tbl_admission_table Successfully Updated2020-01-13 09:41:18
[Mon 2020-01-13 09:41:18 AM] [client 192.168.49.1] update_learner_deregister_apply_table Successfully Updated2020-01-13 09:41:18
[Mon 2020-01-13 09:41:18 AM] [client 192.168.49.1] delete_biomatric_registration_entry Sucscessfully Deleted2020-01-13 09:41:18
[Mon 2020-01-13 09:41:18 AM] [client 192.168.49.1] update_tbl_admission_table Successfully Updated2020-01-13 09:41:18
[Mon 2020-01-13 09:41:18 AM] [client 192.168.49.1] update_learner_deregister_apply_table Successfully Updated2020-01-13 09:41:18
[Mon 2020-01-13 09:41:18 AM] [client 192.168.49.1] delete_biomatric_registration_entry Sucscessfully Deleted2020-01-13 09:41:18
[Mon 2020-01-13 09:41:18 AM] [client 192.168.49.1] update_tbl_admission_table Successfully Updated2020-01-13 09:41:18
[Mon 2020-01-13 09:41:18 AM] [client 192.168.49.1] update_learner_deregister_apply_table Successfully Updated2020-01-13 09:41:18
[Mon 2020-01-13 09:41:18 AM] [client 192.168.49.1] delete_biomatric_registration_entry Sucscessfully Deleted2020-01-13 09:41:18
[Mon 2020-01-13 09:41:18 AM] [client 192.168.49.1] update_tbl_admission_table Successfully Updated2020-01-13 09:41:18
[Mon 2020-01-13 09:41:18 AM] [client 192.168.49.1] update_learner_deregister_apply_table Successfully Updated2020-01-13 09:41:18
[Mon 2020-01-13 09:41:18 AM] [client 192.168.49.1] delete_biomatric_registration_entry Sucscessfully Deleted2020-01-13 09:41:18
[Mon 2020-01-13 09:41:18 AM] [client 192.168.49.1] update_tbl_admission_table Successfully Updated2020-01-13 09:41:18
[Mon 2020-01-13 09:41:18 AM] [client 192.168.49.1] update_learner_deregister_apply_table Successfully Updated2020-01-13 09:41:18
[Mon 2020-01-13 09:41:18 AM] [client 192.168.49.1] delete_biomatric_registration_entry Sucscessfully Deleted2020-01-13 09:41:18
[Mon 2020-01-13 09:41:19 AM] [client 192.168.49.1] update_tbl_admission_table Successfully Updated2020-01-13 09:41:19
[Mon 2020-01-13 09:41:19 AM] [client 192.168.49.1] update_learner_deregister_apply_table Successfully Updated2020-01-13 09:41:19
[Mon 2020-01-13 09:41:19 AM] [client 192.168.49.1] delete_biomatric_registration_entry Sucscessfully Deleted2020-01-13 09:41:19
[Mon 2020-01-13 09:41:19 AM] [client 192.168.49.1] update_tbl_admission_table Successfully Updated2020-01-13 09:41:19
[Mon 2020-01-13 09:41:19 AM] [client 192.168.49.1] update_learner_deregister_apply_table Successfully Updated2020-01-13 09:41:19
[Mon 2020-01-13 09:41:19 AM] [client 192.168.49.1] delete_biomatric_registration_entry Sucscessfully Deleted2020-01-13 09:41:19
[Mon 2020-01-13 09:41:19 AM] [client 192.168.49.1] update_tbl_admission_table Successfully Updated2020-01-13 09:41:19
[Mon 2020-01-13 09:41:19 AM] [client 192.168.49.1] update_learner_deregister_apply_table Successfully Updated2020-01-13 09:41:19
[Mon 2020-01-13 09:41:19 AM] [client 192.168.49.1] delete_biomatric_registration_entry Sucscessfully Deleted2020-01-13 09:41:19
[Mon 2020-01-13 09:41:19 AM] [client 192.168.49.1] update_tbl_admission_table Successfully Updated2020-01-13 09:41:19
[Mon 2020-01-13 09:41:19 AM] [client 192.168.49.1] update_learner_deregister_apply_table Successfully Updated2020-01-13 09:41:19
[Mon 2020-01-13 09:41:19 AM] [client 192.168.49.1] delete_biomatric_registration_entry Sucscessfully Deleted2020-01-13 09:41:19
[Mon 2020-01-13 09:41:19 AM] [client 192.168.49.1] update_tbl_admission_table Successfully Updated2020-01-13 09:41:19
[Mon 2020-01-13 09:41:19 AM] [client 192.168.49.1] update_learner_deregister_apply_table Successfully Updated2020-01-13 09:41:19
[Mon 2020-01-13 09:41:19 AM] [client 192.168.49.1] delete_biomatric_registration_entry Sucscessfully Deleted2020-01-13 09:41:19
[Mon 2020-01-13 09:41:19 AM] [client 192.168.49.1] update_tbl_admission_table Successfully Updated2020-01-13 09:41:19
[Mon 2020-01-13 09:41:19 AM] [client 192.168.49.1] update_learner_deregister_apply_table Successfully Updated2020-01-13 09:41:19
[Mon 2020-01-13 09:41:19 AM] [client 192.168.49.1] delete_biomatric_registration_entry Sucscessfully Deleted2020-01-13 09:41:19
[Mon 2020-01-13 09:41:19 AM] [client 192.168.49.1] update_tbl_admission_table Successfully Updated2020-01-13 09:41:19
[Mon 2020-01-13 09:41:19 AM] [client 192.168.49.1] update_learner_deregister_apply_table Successfully Updated2020-01-13 09:41:19
[Mon 2020-01-13 09:41:19 AM] [client 192.168.49.1] delete_biomatric_registration_entry Sucscessfully Deleted2020-01-13 09:41:19
[Mon 2020-01-13 09:41:19 AM] [client 192.168.49.1] update_tbl_admission_table Successfully Updated2020-01-13 09:41:19
[Mon 2020-01-13 09:41:19 AM] [client 192.168.49.1] update_learner_deregister_apply_table Successfully Updated2020-01-13 09:41:19
[Mon 2020-01-13 09:41:19 AM] [client 192.168.49.1] delete_biomatric_registration_entry Sucscessfully Deleted2020-01-13 09:41:19
[Mon 2020-01-13 09:41:19 AM] [client 192.168.49.1] update_tbl_admission_table Successfully Updated2020-01-13 09:41:19
[Mon 2020-01-13 09:41:19 AM] [client 192.168.49.1] update_learner_deregister_apply_table Successfully Updated2020-01-13 09:41:19
[Mon 2020-01-13 09:41:19 AM] [client 192.168.49.1] delete_biomatric_registration_entry Sucscessfully Deleted2020-01-13 09:41:19
[Mon 2020-01-13 09:41:19 AM] [client 192.168.49.1] update_tbl_admission_table Successfully Updated2020-01-13 09:41:19
[Mon 2020-01-13 09:41:19 AM] [client 192.168.49.1] update_learner_deregister_apply_table Successfully Updated2020-01-13 09:41:19
[Mon 2020-01-13 09:41:19 AM] [client 192.168.49.1] delete_biomatric_registration_entry Sucscessfully Deleted2020-01-13 09:41:19
[Mon 2020-01-13 09:41:19 AM] [client 192.168.49.1] update_tbl_admission_table Successfully Updated2020-01-13 09:41:19
[Mon 2020-01-13 09:41:19 AM] [client 192.168.49.1] update_learner_deregister_apply_table Successfully Updated2020-01-13 09:41:19
[Mon 2020-01-13 09:41:19 AM] [client 192.168.49.1] delete_biomatric_registration_entry Sucscessfully Deleted2020-01-13 09:41:19
[Mon 2020-01-13 09:41:19 AM] [client 192.168.49.1] update_tbl_admission_table Successfully Updated2020-01-13 09:41:19
[Mon 2020-01-13 09:41:19 AM] [client 192.168.49.1] update_learner_deregister_apply_table Successfully Updated2020-01-13 09:41:19
[Mon 2020-01-13 09:41:20 AM] [client 192.168.49.1] delete_biomatric_registration_entry Sucscessfully Deleted2020-01-13 09:41:20
[Mon 2020-01-13 09:41:20 AM] [client 192.168.49.1] update_tbl_admission_table Successfully Updated2020-01-13 09:41:20
[Mon 2020-01-13 09:41:20 AM] [client 192.168.49.1] update_learner_deregister_apply_table Successfully Updated2020-01-13 09:41:20
[Mon 2020-01-13 09:41:20 AM] [client 192.168.49.1] delete_biomatric_registration_entry Sucscessfully Deleted2020-01-13 09:41:20
[Mon 2020-01-13 09:41:20 AM] [client 192.168.49.1] update_tbl_admission_table Successfully Updated2020-01-13 09:41:20
[Mon 2020-01-13 09:41:20 AM] [client 192.168.49.1] update_learner_deregister_apply_table Successfully Updated2020-01-13 09:41:20
[Mon 2020-01-13 09:41:20 AM] [client 192.168.49.1] delete_biomatric_registration_entry Sucscessfully Deleted2020-01-13 09:41:20
[Mon 2020-01-13 09:41:20 AM] [client 192.168.49.1] update_tbl_admission_table Successfully Updated2020-01-13 09:41:20
[Mon 2020-01-13 09:41:20 AM] [client 192.168.49.1] update_learner_deregister_apply_table Successfully Updated2020-01-13 09:41:20
[Mon 2020-01-13 09:41:20 AM] [client 192.168.49.1] delete_biomatric_registration_entry Sucscessfully Deleted2020-01-13 09:41:20
[Mon 2020-01-13 09:41:20 AM] [client 192.168.49.1] update_tbl_admission_table Successfully Updated2020-01-13 09:41:20
[Mon 2020-01-13 09:41:20 AM] [client 192.168.49.1] update_learner_deregister_apply_table Successfully Updated2020-01-13 09:41:20
[Mon 2020-01-13 04:11:35 AM] [client 192.168.49.1] delete_biomatric_registration_entry Sucscessfully Deleted2020-01-13 04:11:35
[Mon 2020-01-13 04:11:35 AM] [client 192.168.49.1] update_tbl_admission_table Successfully Updated2020-01-13 04:11:35
[Mon 2020-01-13 09:41:35 AM] [client 192.168.49.1] update_learner_deregister_apply_table Successfully Updated2020-01-13 09:41:35
[Mon 2020-01-13 09:41:35 AM] [client 192.168.49.1] delete_biomatric_registration_entry Sucscessfully Deleted2020-01-13 09:41:35
[Mon 2020-01-13 09:41:35 AM] [client 192.168.49.1] update_tbl_admission_table Successfully Updated2020-01-13 09:41:35
[Mon 2020-01-13 09:41:35 AM] [client 192.168.49.1] update_learner_deregister_apply_table Successfully Updated2020-01-13 09:41:35
[Mon 2020-01-13 09:41:35 AM] [client 192.168.49.1] delete_biomatric_registration_entry Sucscessfully Deleted2020-01-13 09:41:35
[Mon 2020-01-13 09:41:35 AM] [client 192.168.49.1] update_tbl_admission_table Successfully Updated2020-01-13 09:41:35
[Mon 2020-01-13 09:41:35 AM] [client 192.168.49.1] update_learner_deregister_apply_table Successfully Updated2020-01-13 09:41:35
[Mon 2020-01-13 09:41:42 AM] [client 192.168.49.1] update_learner_deregister_apply_table_reject Successfully Updated2020-01-13 09:41:42
[Mon 2020-01-13 04:33:19 AM] [client 192.168.49.1] ajax request post accpect2020-01-13 04:33:19
[Mon 2020-01-13 04:33:55 AM] [client 192.168.49.1] encrypt file create2020-01-13 04:33:55
[Mon 2020-01-13 04:33:55 AM] [client 192.168.49.1] sen request to i learn2020-01-13 04:33:55
[Mon 2020-01-13 04:33:56 AM] [client 192.168.49.1] curl response2020-01-13 04:33:56{"status":"200","success":"success"}
[Mon 2020-01-13 04:33:56 AM] [client 192.168.49.1] change status to N2020-01-13 04:33:56
[Mon 2020-01-13 04:34:43 AM] [client 192.168.49.1] ajax request post accpect2020-01-13 04:34:43
[Mon 2020-01-13 04:34:55 AM] [client 192.168.49.1] encrypt file create2020-01-13 04:34:55
[Mon 2020-01-13 04:34:55 AM] [client 192.168.49.1] sen request to i learn2020-01-13 04:34:55
[Mon 2020-01-13 04:34:55 AM] [client 192.168.49.1] curl response2020-01-13 04:34:55{"status":"200","success":"success"}
[Mon 2020-01-13 04:34:55 AM] [client 192.168.49.1] change status to N2020-01-13 04:34:55
[Mon 2020-01-13 05:00:25 AM] [client 192.168.49.1] delete_biomatric_registration_entry Sucscessfully Deleted2020-01-13 05:00:25
[Mon 2020-01-13 05:00:25 AM] [client 192.168.49.1] update_tbl_admission_table Successfully Updated2020-01-13 05:00:25
[Mon 2020-01-13 10:30:25 AM] [client 192.168.49.1] update_learner_deregister_apply_table Successfully Updated2020-01-13 10:30:25
[Mon 2020-01-13 10:30:25 AM] [client 192.168.49.1] delete_biomatric_registration_entry Sucscessfully Deleted2020-01-13 10:30:25
[Mon 2020-01-13 10:30:25 AM] [client 192.168.49.1] update_tbl_admission_table Successfully Updated2020-01-13 10:30:25
[Mon 2020-01-13 10:30:25 AM] [client 192.168.49.1] update_learner_deregister_apply_table Successfully Updated2020-01-13 10:30:25
[Mon 2020-01-13 10:30:25 AM] [client 192.168.49.1] delete_biomatric_registration_entry Sucscessfully Deleted2020-01-13 10:30:25
[Mon 2020-01-13 10:30:25 AM] [client 192.168.49.1] update_tbl_admission_table Successfully Updated2020-01-13 10:30:25
[Mon 2020-01-13 10:30:25 AM] [client 192.168.49.1] update_learner_deregister_apply_table Successfully Updated2020-01-13 10:30:25
[Mon 2020-01-13 10:30:26 AM] [client 192.168.49.1] delete_biomatric_registration_entry Sucscessfully Deleted2020-01-13 10:30:26
[Mon 2020-01-13 10:30:26 AM] [client 192.168.49.1] update_tbl_admission_table Successfully Updated2020-01-13 10:30:26
[Mon 2020-01-13 10:30:26 AM] [client 192.168.49.1] update_learner_deregister_apply_table Successfully Updated2020-01-13 10:30:26
[Mon 2020-01-13 10:30:26 AM] [client 192.168.49.1] delete_biomatric_registration_entry Sucscessfully Deleted2020-01-13 10:30:26
[Mon 2020-01-13 10:30:26 AM] [client 192.168.49.1] update_tbl_admission_table Successfully Updated2020-01-13 10:30:26
[Mon 2020-01-13 10:30:26 AM] [client 192.168.49.1] update_learner_deregister_apply_table Successfully Updated2020-01-13 10:30:26
[Mon 2020-01-13 10:30:26 AM] [client 192.168.49.1] delete_biomatric_registration_entry Sucscessfully Deleted2020-01-13 10:30:26
[Mon 2020-01-13 10:30:26 AM] [client 192.168.49.1] update_tbl_admission_table Successfully Updated2020-01-13 10:30:26
[Mon 2020-01-13 10:30:26 AM] [client 192.168.49.1] update_learner_deregister_apply_table Successfully Updated2020-01-13 10:30:26
[Mon 2020-01-13 10:30:26 AM] [client 192.168.49.1] delete_biomatric_registration_entry Sucscessfully Deleted2020-01-13 10:30:26
[Mon 2020-01-13 10:30:26 AM] [client 192.168.49.1] update_tbl_admission_table Successfully Updated2020-01-13 10:30:26
[Mon 2020-01-13 10:30:26 AM] [client 192.168.49.1] update_learner_deregister_apply_table Successfully Updated2020-01-13 10:30:26
[Mon 2020-01-13 10:30:26 AM] [client 192.168.49.1] delete_biomatric_registration_entry Sucscessfully Deleted2020-01-13 10:30:26
[Mon 2020-01-13 10:30:26 AM] [client 192.168.49.1] update_tbl_admission_table Successfully Updated2020-01-13 10:30:26
[Mon 2020-01-13 10:30:26 AM] [client 192.168.49.1] update_learner_deregister_apply_table Successfully Updated2020-01-13 10:30:26
[Mon 2020-01-13 10:30:26 AM] [client 192.168.49.1] delete_biomatric_registration_entry Sucscessfully Deleted2020-01-13 10:30:26
[Mon 2020-01-13 10:30:26 AM] [client 192.168.49.1] update_tbl_admission_table Successfully Updated2020-01-13 10:30:26
[Mon 2020-01-13 10:30:26 AM] [client 192.168.49.1] update_learner_deregister_apply_table Successfully Updated2020-01-13 10:30:26
[Mon 2020-01-13 10:30:26 AM] [client 192.168.49.1] delete_biomatric_registration_entry Sucscessfully Deleted2020-01-13 10:30:26
[Mon 2020-01-13 10:30:26 AM] [client 192.168.49.1] update_tbl_admission_table Successfully Updated2020-01-13 10:30:26
[Mon 2020-01-13 10:30:26 AM] [client 192.168.49.1] update_learner_deregister_apply_table Successfully Updated2020-01-13 10:30:26
[Mon 2020-01-13 10:30:26 AM] [client 192.168.49.1] delete_biomatric_registration_entry Sucscessfully Deleted2020-01-13 10:30:26
[Mon 2020-01-13 10:30:26 AM] [client 192.168.49.1] update_tbl_admission_table Successfully Updated2020-01-13 10:30:26
[Mon 2020-01-13 10:30:26 AM] [client 192.168.49.1] update_learner_deregister_apply_table Successfully Updated2020-01-13 10:30:26
[Mon 2020-01-13 10:30:26 AM] [client 192.168.49.1] delete_biomatric_registration_entry Sucscessfully Deleted2020-01-13 10:30:26
[Mon 2020-01-13 10:30:26 AM] [client 192.168.49.1] update_tbl_admission_table Successfully Updated2020-01-13 10:30:26
[Mon 2020-01-13 10:30:26 AM] [client 192.168.49.1] update_learner_deregister_apply_table Successfully Updated2020-01-13 10:30:26
[Mon 2020-01-13 10:30:26 AM] [client 192.168.49.1] delete_biomatric_registration_entry Sucscessfully Deleted2020-01-13 10:30:26
[Mon 2020-01-13 10:30:26 AM] [client 192.168.49.1] update_tbl_admission_table Successfully Updated2020-01-13 10:30:26
[Mon 2020-01-13 10:30:26 AM] [client 192.168.49.1] update_learner_deregister_apply_table Successfully Updated2020-01-13 10:30:26
[Mon 2020-01-13 10:30:33 AM] [client 192.168.49.1] update_learner_deregister_apply_table_reject Successfully Updated2020-01-13 10:30:33
[Mon 2020-01-13 10:30:33 AM] [client 192.168.49.1] update_learner_deregister_apply_table_reject Successfully Updated2020-01-13 10:30:33
[Mon 2020-01-13 05:49:08 AM] [client 192.168.49.1] delete_biomatric_registration_entry Sucscessfully Deleted2020-01-13 05:49:08
[Mon 2020-01-13 05:49:08 AM] [client 192.168.49.1] update_tbl_admission_table Successfully Updated2020-01-13 05:49:08
[Mon 2020-01-13 11:19:08 AM] [client 192.168.49.1] update_learner_deregister_apply_table Successfully Updated2020-01-13 11:19:08
[Mon 2020-01-13 11:19:08 AM] [client 192.168.49.1] delete_biomatric_registration_entry Sucscessfully Deleted2020-01-13 11:19:08
[Mon 2020-01-13 11:19:08 AM] [client 192.168.49.1] update_tbl_admission_table Successfully Updated2020-01-13 11:19:08
[Mon 2020-01-13 11:19:08 AM] [client 192.168.49.1] update_learner_deregister_apply_table Successfully Updated2020-01-13 11:19:08
[Mon 2020-01-13 11:19:08 AM] [client 192.168.49.1] delete_biomatric_registration_entry Sucscessfully Deleted2020-01-13 11:19:08
[Mon 2020-01-13 11:19:08 AM] [client 192.168.49.1] update_tbl_admission_table Successfully Updated2020-01-13 11:19:08
[Mon 2020-01-13 11:19:08 AM] [client 192.168.49.1] update_learner_deregister_apply_table Successfully Updated2020-01-13 11:19:08
[Mon 2020-01-13 11:19:08 AM] [client 192.168.49.1] delete_biomatric_registration_entry Sucscessfully Deleted2020-01-13 11:19:08
[Mon 2020-01-13 11:19:08 AM] [client 192.168.49.1] update_tbl_admission_table Successfully Updated2020-01-13 11:19:08
[Mon 2020-01-13 11:19:08 AM] [client 192.168.49.1] update_learner_deregister_apply_table Successfully Updated2020-01-13 11:19:08
[Mon 2020-01-13 11:19:15 AM] [client 192.168.49.1] delete_biomatric_registration_entry Sucscessfully Deleted2020-01-13 11:19:15
[Mon 2020-01-13 11:19:15 AM] [client 192.168.49.1] update_tbl_admission_table Successfully Updated2020-01-13 11:19:15
[Mon 2020-01-13 11:19:15 AM] [client 192.168.49.1] update_learner_deregister_apply_table Successfully Updated2020-01-13 11:19:15
[Mon 2020-01-13 11:19:21 AM] [client 192.168.49.1] delete_biomatric_registration_entry Sucscessfully Deleted2020-01-13 11:19:21
[Mon 2020-01-13 11:19:21 AM] [client 192.168.49.1] update_tbl_admission_table Successfully Updated2020-01-13 11:19:21
[Mon 2020-01-13 11:19:21 AM] [client 192.168.49.1] update_learner_deregister_apply_table Successfully Updated2020-01-13 11:19:21
[Mon 2020-01-13 11:19:29 AM] [client 192.168.49.1] update_learner_deregister_apply_table_reject Successfully Updated2020-01-13 11:19:29
[Mon 2020-01-13 11:19:29 AM] [client 192.168.49.1] update_learner_deregister_apply_table_reject Successfully Updated2020-01-13 11:19:29
[Mon 2020-01-13 11:19:29 AM] [client 192.168.49.1] update_learner_deregister_apply_table_reject Successfully Updated2020-01-13 11:19:29
[Mon 2020-01-13 11:19:29 AM] [client 192.168.49.1] update_learner_deregister_apply_table_reject Successfully Updated2020-01-13 11:19:29
[Mon 2020-01-13 06:00:10 AM] [client 192.168.49.1] delete_biomatric_registration_entry Sucscessfully Deleted2020-01-13 06:00:10
[Mon 2020-01-13 06:00:10 AM] [client 192.168.49.1] update_tbl_admission_table Successfully Updated2020-01-13 06:00:10
[Mon 2020-01-13 11:30:10 AM] [client 192.168.49.1] update_learner_deregister_apply_table Successfully Updated2020-01-13 11:30:10
[Mon 2020-01-13 11:30:10 AM] [client 192.168.49.1] delete_biomatric_registration_entry Sucscessfully Deleted2020-01-13 11:30:10
[Mon 2020-01-13 11:30:10 AM] [client 192.168.49.1] update_tbl_admission_table Successfully Updated2020-01-13 11:30:10
[Mon 2020-01-13 11:30:10 AM] [client 192.168.49.1] update_learner_deregister_apply_table Successfully Updated2020-01-13 11:30:10
[Mon 2020-01-13 06:03:13 AM] [client 192.168.49.1] delete_biomatric_registration_entry Sucscessfully Deleted2020-01-13 06:03:13
[Mon 2020-01-13 06:03:13 AM] [client 192.168.49.1] update_tbl_admission_table Successfully Updated2020-01-13 06:03:13
[Mon 2020-01-13 11:33:13 AM] [client 192.168.49.1] update_learner_deregister_apply_table Successfully Updated2020-01-13 11:33:13
[Mon 2020-01-13 11:36:01 AM] [client 192.168.49.1] update_learner_deregister_apply_table_reject Successfully Updated2020-01-13 11:36:01
[Mon 2020-01-13 06:11:04 AM] [client 192.168.49.1] delete_biomatric_registration_entry Sucscessfully Deleted2020-01-13 06:11:04
[Mon 2020-01-13 06:11:04 AM] [client 192.168.49.1] update_tbl_admission_table Successfully Updated2020-01-13 06:11:04
[Mon 2020-01-13 11:41:04 AM] [client 192.168.49.1] update_learner_deregister_apply_table Successfully Updated2020-01-13 11:41:04
[Mon 2020-01-13 11:41:04 AM] [client 192.168.49.1] delete_biomatric_registration_entry Sucscessfully Deleted2020-01-13 11:41:04
[Mon 2020-01-13 11:41:04 AM] [client 192.168.49.1] update_tbl_admission_table Successfully Updated2020-01-13 11:41:04
[Mon 2020-01-13 11:41:04 AM] [client 192.168.49.1] update_learner_deregister_apply_table Successfully Updated2020-01-13 11:41:04
[Mon 2020-01-13 11:41:04 AM] [client 192.168.49.1] delete_biomatric_registration_entry Sucscessfully Deleted2020-01-13 11:41:04
[Mon 2020-01-13 11:41:04 AM] [client 192.168.49.1] update_tbl_admission_table Successfully Updated2020-01-13 11:41:04
[Mon 2020-01-13 11:41:04 AM] [client 192.168.49.1] update_learner_deregister_apply_table Successfully Updated2020-01-13 11:41:04
[Mon 2020-01-13 11:41:04 AM] [client 192.168.49.1] delete_biomatric_registration_entry Sucscessfully Deleted2020-01-13 11:41:04
[Mon 2020-01-13 11:41:04 AM] [client 192.168.49.1] update_tbl_admission_table Successfully Updated2020-01-13 11:41:04
[Mon 2020-01-13 11:41:04 AM] [client 192.168.49.1] update_learner_deregister_apply_table Successfully Updated2020-01-13 11:41:04
[Mon 2020-01-13 11:41:04 AM] [client 192.168.49.1] delete_biomatric_registration_entry Sucscessfully Deleted2020-01-13 11:41:04
[Mon 2020-01-13 11:41:04 AM] [client 192.168.49.1] update_tbl_admission_table Successfully Updated2020-01-13 11:41:04
[Mon 2020-01-13 11:41:04 AM] [client 192.168.49.1] update_learner_deregister_apply_table Successfully Updated2020-01-13 11:41:04
[Mon 2020-01-13 12:08:55 PM] [client 192.168.49.1] update_learner_deregister_apply_table_reject Successfully Updated2020-01-13 12:08:55
[Mon 2020-01-13 07:33:09 AM] [client 192.168.49.1] delete_biomatric_registration_entry Sucscessfully Deleted2020-01-13 07:33:09
[Mon 2020-01-13 07:33:09 AM] [client 192.168.49.1] update_tbl_admission_table Successfully Updated2020-01-13 07:33:09
[Mon 2020-01-13 01:03:09 PM] [client 192.168.49.1] update_learner_deregister_apply_table Successfully Updated2020-01-13 01:03:09
[Mon 2020-01-13 01:03:09 PM] [client 192.168.49.1] delete_biomatric_registration_entry Sucscessfully Deleted2020-01-13 01:03:09
[Mon 2020-01-13 01:03:09 PM] [client 192.168.49.1] update_tbl_admission_table Successfully Updated2020-01-13 01:03:09
[Mon 2020-01-13 01:03:09 PM] [client 192.168.49.1] update_learner_deregister_apply_table Successfully Updated2020-01-13 01:03:09
[Mon 2020-01-13 01:03:09 PM] [client 192.168.49.1] delete_biomatric_registration_entry Sucscessfully Deleted2020-01-13 01:03:09
[Mon 2020-01-13 01:03:09 PM] [client 192.168.49.1] update_tbl_admission_table Successfully Updated2020-01-13 01:03:09
[Mon 2020-01-13 01:03:09 PM] [client 192.168.49.1] update_learner_deregister_apply_table Successfully Updated2020-01-13 01:03:09
[Mon 2020-01-13 01:03:09 PM] [client 192.168.49.1] delete_biomatric_registration_entry Sucscessfully Deleted2020-01-13 01:03:09
[Mon 2020-01-13 01:03:09 PM] [client 192.168.49.1] update_tbl_admission_table Successfully Updated2020-01-13 01:03:09
[Mon 2020-01-13 01:03:09 PM] [client 192.168.49.1] update_learner_deregister_apply_table Successfully Updated2020-01-13 01:03:09
[Mon 2020-01-13 01:03:09 PM] [client 192.168.49.1] delete_biomatric_registration_entry Sucscessfully Deleted2020-01-13 01:03:09
[Mon 2020-01-13 01:03:09 PM] [client 192.168.49.1] update_tbl_admission_table Successfully Updated2020-01-13 01:03:09
[Mon 2020-01-13 01:03:09 PM] [client 192.168.49.1] update_learner_deregister_apply_table Successfully Updated2020-01-13 01:03:09
[Mon 2020-01-13 01:03:09 PM] [client 192.168.49.1] delete_biomatric_registration_entry Sucscessfully Deleted2020-01-13 01:03:09
[Mon 2020-01-13 01:03:09 PM] [client 192.168.49.1] update_tbl_admission_table Successfully Updated2020-01-13 01:03:09
[Mon 2020-01-13 01:03:09 PM] [client 192.168.49.1] update_learner_deregister_apply_table Successfully Updated2020-01-13 01:03:09
[Mon 2020-01-13 08:57:47 AM] [client 192.168.49.1] delete_biomatric_registration_entry Sucscessfully Deleted2020-01-13 08:57:47
[Mon 2020-01-13 08:57:47 AM] [client 192.168.49.1] update_tbl_admission_table Successfully Updated2020-01-13 08:57:47
[Mon 2020-01-13 02:27:47 PM] [client 192.168.49.1] update_learner_deregister_apply_table Successfully Updated2020-01-13 02:27:47
[Mon 2020-01-13 02:27:47 PM] [client 192.168.49.1] delete_biomatric_registration_entry Sucscessfully Deleted2020-01-13 02:27:47
[Mon 2020-01-13 02:27:47 PM] [client 192.168.49.1] update_tbl_admission_table Successfully Updated2020-01-13 02:27:47
[Mon 2020-01-13 02:27:47 PM] [client 192.168.49.1] update_learner_deregister_apply_table Successfully Updated2020-01-13 02:27:47
[Mon 2020-01-13 09:53:57 AM] [client 192.168.49.1] delete_biomatric_registration_entry Sucscessfully Deleted2020-01-13 09:53:57
[Mon 2020-01-13 09:53:57 AM] [client 192.168.49.1] update_tbl_admission_table Successfully Updated2020-01-13 09:53:57
[Mon 2020-01-13 03:23:57 PM] [client 192.168.49.1] update_learner_deregister_apply_table Successfully Updated2020-01-13 03:23:57
[Mon 2020-01-13 03:23:57 PM] [client 192.168.49.1] delete_biomatric_registration_entry Sucscessfully Deleted2020-01-13 03:23:57
[Mon 2020-01-13 03:23:57 PM] [client 192.168.49.1] update_tbl_admission_table Successfully Updated2020-01-13 03:23:57
[Mon 2020-01-13 03:23:57 PM] [client 192.168.49.1] update_learner_deregister_apply_table Successfully Updated2020-01-13 03:23:57
[Mon 2020-01-13 03:23:57 PM] [client 192.168.49.1] delete_biomatric_registration_entry Sucscessfully Deleted2020-01-13 03:23:57
[Mon 2020-01-13 03:23:57 PM] [client 192.168.49.1] update_tbl_admission_table Successfully Updated2020-01-13 03:23:57
[Mon 2020-01-13 03:23:57 PM] [client 192.168.49.1] update_learner_deregister_apply_table Successfully Updated2020-01-13 03:23:57
[Mon 2020-01-13 03:24:05 PM] [client 192.168.49.1] update_learner_deregister_apply_table_reject Successfully Updated2020-01-13 03:24:05
[Mon 2020-01-13 11:15:49 AM] [client 192.168.49.1] delete_biomatric_registration_entry Sucscessfully Deleted2020-01-13 11:15:49
[Mon 2020-01-13 11:15:49 AM] [client 192.168.49.1] update_tbl_admission_table Successfully Updated2020-01-13 11:15:49
[Mon 2020-01-13 04:45:49 PM] [client 192.168.49.1] update_learner_deregister_apply_table Successfully Updated2020-01-13 04:45:49
[Mon 2020-01-13 04:45:50 PM] [client 192.168.49.1] delete_biomatric_registration_entry Sucscessfully Deleted2020-01-13 04:45:50
[Mon 2020-01-13 04:45:50 PM] [client 192.168.49.1] update_tbl_admission_table Successfully Updated2020-01-13 04:45:50
[Mon 2020-01-13 04:45:50 PM] [client 192.168.49.1] update_learner_deregister_apply_table Successfully Updated2020-01-13 04:45:50
[Mon 2020-01-13 04:45:50 PM] [client 192.168.49.1] delete_biomatric_registration_entry Sucscessfully Deleted2020-01-13 04:45:50
[Mon 2020-01-13 04:45:50 PM] [client 192.168.49.1] update_tbl_admission_table Successfully Updated2020-01-13 04:45:50
[Mon 2020-01-13 04:45:50 PM] [client 192.168.49.1] update_learner_deregister_apply_table Successfully Updated2020-01-13 04:45:50
[Mon 2020-01-13 01:17:05 PM] [client 192.168.49.1] delete_biomatric_registration_entry Sucscessfully Deleted2020-01-13 01:17:05
[Mon 2020-01-13 01:17:05 PM] [client 192.168.49.1] update_tbl_admission_table Successfully Updated2020-01-13 01:17:05
[Mon 2020-01-13 06:47:05 PM] [client 192.168.49.1] update_learner_deregister_apply_table Successfully Updated2020-01-13 06:47:05
[Mon 2020-01-13 06:47:05 PM] [client 192.168.49.1] delete_biomatric_registration_entry Sucscessfully Deleted2020-01-13 06:47:05
[Mon 2020-01-13 06:47:05 PM] [client 192.168.49.1] update_tbl_admission_table Successfully Updated2020-01-13 06:47:05
[Mon 2020-01-13 06:47:05 PM] [client 192.168.49.1] update_learner_deregister_apply_table Successfully Updated2020-01-13 06:47:05
